%!PS-Adobe-2.0 EPSF-2.0
%%BoundingBox:  0 0 567 384
%%Title: plots/iter_4/iterationsToys_ws_DYjj/ccBelts_1_iter4.eps: 
%%Creator: ROOT Version 6.16/00
%%CreationDate: Fri Nov 13 20:48:48 2020
%%DocumentNeededResources: ProcSet (FontSetInit)
%%EndComments
%%BeginProlog
80 dict begin
/s {stroke} def /l {lineto} def /m {moveto} def /t {translate} def
/r {rotate} def /rl {roll}  def /R {repeat} def
/d {rlineto} def /rm {rmoveto} def /gr {grestore} def /f {eofill} def
/c {setrgbcolor} def /black {0 setgray} def /sd {setdash} def
/cl {closepath} def /sf {scalefont setfont} def /lw {setlinewidth} def
/box {m dup 0 exch d exch 0 d 0 exch neg d cl} def
/NC{systemdict begin initclip end}def/C{NC box clip newpath}def
/bl {box s} def /bf {gsave box gsave f grestore 1 lw [] 0 sd s grestore} def /Y { 0 exch d} def /X { 0 d} def 
/K {{pop pop 0 moveto} exch kshow} bind def
/ita {/ang 15 def gsave [1 0 ang dup sin exch cos div 1 0 0] concat} def 
/mp {newpath /y exch def /x exch def} def
/side {[w .77 mul w .23 mul] .385 w mul sd w 0 l currentpoint t -144 r} def
/mr {mp x y w2 0 360 arc} def /m24 {mr s} def /m20 {mr f} def
/mb {mp x y w2 add m w2 neg 0 d 0 w neg d w 0 d 0 w d cl} def
/mt {mp x y w2 add m w2 neg w neg d w 0 d cl} def
/w4 {w 4 div} def
/w6 {w 6 div} def
/w8 {w 8 div} def
/m21 {mb f} def /m25 {mb s} def /m22 {mt f} def /m26{mt s} def
/m23 {mp x y w2 sub m w2 w d w neg 0 d cl f} def
/m27 {mp x y w2 add m w3 neg w2 neg d w3 w2 neg d w3 w2 d cl s} def
/m28 {mp x w2 sub y w2 sub w3 add m w3 0 d  0 w3 neg d w3 0 d 0 w3 d w3 0 d  0 w3 d w3 neg 0 d 0 w3 d w3 neg 0 d 0 w3 neg d w3 neg 0 d cl s } def
/m29 {mp gsave x w2 sub y w2 add w3 sub m currentpoint t 4 {side} repeat cl fill gr} def
/m30 {mp gsave x w2 sub y w2 add w3 sub m currentpoint t 4 {side} repeat cl s gr} def
/m31 {mp x y w2 sub m 0 w d x w2 sub y m w 0 d x w2 sub y w2 add m w w neg d x w2 sub y w2 sub m w w d s} def
/m32 {mp x y w2 sub m w2 w d w neg 0 d cl s} def
/m33 {mp x y w2 add m w3 neg w2 neg d w3 w2 neg d w3 w2 d cl f} def
/m34 {mp x w2 sub y w2 sub w3 add m w3 0 d  0 w3 neg d w3 0 d 0 w3 d w3 0 d  0 w3 d w3 neg 0 d 0 w3 d w3 neg 0 d 0 w3 neg d w3 neg 0 d cl f } def
/m35 {mp x y w2 add m w2 neg w2 neg d w2 w2 neg d w2 w2 d w2 neg w2 d x y w2 sub m 0 w d x w2 sub y m w 0 d s} def
/m36 {mb x w2 sub y w2 add m w w neg d x w2 sub y w2 sub m w w d s} def
/m37 {mp x y m w4 neg w2 d w4 neg w2 neg d w2 0 d  w4 neg w2 neg d w2 0 d w4 neg w2 d w2 0 d w4 neg w2 d w4 neg w2 neg d cl s} def
/m38 {mp x w4 sub y w2 add m w4 neg w4 neg d 0 w2 neg d w4 w4 neg d w2 0 d w4 w4 d 0 w2 d w4 neg w4 d w2 neg 0 d x y w2 sub m 0 w d x w2 sub y m w 0 d cl s} def
/m39 {mp x y m w4 neg w2 d w4 neg w2 neg d w2 0 d  w4 neg w2 neg d w2 0 d w4 neg w2 d w2 0 d w4 neg w2 d w4 neg w2 neg d cl f} def
/m40 {mp x y m w4 w2 d w4 w4 neg d w2 neg w4 neg d w2 w4 neg d w4 neg w4 neg d w4 neg w2 d w4 neg w2 neg d w4 neg w4 d w2 w4 d w2 neg w4 d w4 w4 d w4 w2 neg d cl s} def
/m41 {mp x y m w4 w2 d w4 w4 neg d w2 neg w4 neg d w2 w4 neg d w4 neg w4 neg d w4 neg w2 d w4 neg w2 neg d w4 neg w4 d w2 w4 d w2 neg w4 d w4 w4 d w4 w2 neg d cl f} def
/m42 {mp x y w2 add m w8 neg w2 -3 4 div mul d w2 -3 4 div mul w8 neg d w2 3 4 div mul w8 neg d w8 w2 -3 4 div mul d w8 w2 3 4 div mul d w2 3 4 div mul w8 d w2 -3 4 div mul w8 d w8 neg w2 3 4 div mul d cl s} def
/m43 {mp x y w2 add m w8 neg w2 -3 4 div mul d w2 -3 4 div mul w8 neg d w2 3 4 div mul w8 neg d w8 w2 -3 4 div mul d w8 w2 3 4 div mul d w2 3 4 div mul w8 d w2 -3 4 div mul w8 d w8 neg w2 3 4 div mul d cl f} def
/m44 {mp x y m w6 neg w2 d w2 2 3 div mul 0 d w6 neg w2 neg d w2 w6 d 0 w2 -2 3 div mul d w2 neg w6 d w6 w2 neg d w2 -2 3 div mul 0 d w6 w2 d w2 neg w6 neg d 0 w2 2 3 div mul d w2 w6 neg d cl s} def
/m45 {mp x y m w6 neg w2 d w2 2 3 div mul 0 d w6 neg w2 neg d w2 w6 d 0 w2 -2 3 div mul d w2 neg w6 d w6 w2 neg d w2 -2 3 div mul 0 d w6 w2 d w2 neg w6 neg d 0 w2 2 3 div mul d w2 w6 neg d cl f} def
/m46 {mp x y w4 add m w4 neg w4 d w4 neg w4 neg d  w4 w4 neg d w4 neg w4 neg d w4 w4 neg d w4 w4 d w4 w4 neg d w4 w4 d w4 neg w4 d w4 w4 d w4 neg w4 d w4 neg w4 neg d cl s} def
/m47 {mp x y w4 add m w4 neg w4 d w4 neg w4 neg d w4 w4 neg d w4 neg w4 neg d  w4 w4 neg d w4 w4 d w4 w4 neg d w4 w4 d w4 neg w4 d w4 w4 d w4 neg w4 d w4 neg w4 neg d cl f} def
/m48 {mp x y w4 add m w4 neg w4 d w4 neg w4 neg d w4 w4 neg d  w4 neg w4 neg d w4 w4 neg d w4 w4 d w4 w4 neg d w4 w4 d w4 neg w4 d w4 w4 d w4 neg w4 d w4 neg w4 neg d  w4 w4 neg d w4 neg w4 neg d w4 neg w4 d w4 w4 d cl f} def
/m49 {mp x w2 sub w3 add y w2 sub w3 add m  0 w3 neg d w3 0 d 0 w3 d w3 0 d 0 w3 d w3 neg 0 d 0 w3 d w3 neg 0 d 0 w3 neg d w3 neg 0 d 0 w3 neg d w3 0 d 0 w3 d w3 0 d 0 w3 neg d w3 neg 0 d cl f } def
/m2 {mp x y w2 sub m 0 w d x w2 sub y m w 0 d s} def
/m5 {mp x w2 sub y w2 sub m w w d x w2 sub y w2 add m w w neg d s} def
%%IncludeResource: ProcSet (FontSetInit)
%%IncludeResource: font Times-Roman
%%IncludeResource: font Times-Italic
%%IncludeResource: font Times-Bold
%%IncludeResource: font Times-BoldItalic
%%IncludeResource: font Helvetica
%%IncludeResource: font Helvetica-Oblique
%%IncludeResource: font Helvetica-Bold
%%IncludeResource: font Helvetica-BoldOblique
%%IncludeResource: font Courier
%%IncludeResource: font Courier-Oblique
%%IncludeResource: font Courier-Bold
%%IncludeResource: font Courier-BoldOblique
%%IncludeResource: font Symbol
%%IncludeResource: font ZapfDingbats
/reEncode {exch findfont dup length dict begin {1 index /FID eq  {pop pop} {def} ifelse } forall /Encoding exch def currentdict end dup /FontName get exch definefont pop } def [/Times-Bold /Times-Italic /Times-BoldItalic /Helvetica /Helvetica-Oblique
 /Helvetica-Bold /Helvetica-BoldOblique /Courier /Courier-Oblique /Courier-Bold /Courier-BoldOblique /Times-Roman /AvantGarde-Book /AvantGarde-BookOblique /AvantGarde-Demi /AvantGarde-DemiOblique /Bookman-Demi /Bookman-DemiItalic /Bookman-Light
 /Bookman-LightItalic /Helvetica-Narrow /Helvetica-Narrow-Bold /Helvetica-Narrow-BoldOblique /Helvetica-Narrow-Oblique /NewCenturySchlbk-Roman /NewCenturySchlbk-Bold /NewCenturySchlbk-BoldItalic /NewCenturySchlbk-Italic /Palatino-Bold
 /Palatino-BoldItalic /Palatino-Italic /Palatino-Roman ] {ISOLatin1Encoding reEncode } forall
%%EndProlog
%%BeginSetup
%%EndSetup
newpath  gsave  .25 .25 scale  gsave  0 0 t black[  ] 0 sd 3 lw 1 1 1 c 2268 1538 0 0 bf black 1 1 1 c 1950 1284 272 231 bf black 1950 1284 272 231 bl 1 1 1 c 6 lw black 1 1 1 c 272 231 m 1950 X s black 3 lw 272 231 m 1950 X s 404 270 m -39 Y s 510
 251 m -20 Y s 617 251 m -20 Y s 723 251 m -20 Y s 829 251 m -20 Y s 935 270 m -39 Y s 1042 251 m -20 Y s 1148 251 m -20 Y s 1254 251 m -20 Y s 1361 251 m -20 Y s 1467 270 m -39 Y s 1573 251 m -20 Y s 1680 251 m -20 Y s 1786 251 m -20 Y s 1892 251 m
 -20 Y s 1999 270 m -39 Y s 404 270 m -39 Y s 298 251 m -20 Y s 1999 270 m -39 Y s 2105 251 m -20 Y s 2211 251 m -20 Y s
 gsave  2268 1538 0 0 C 338.854 172.685 t 0 r /Helvetica findfont 61.9061 sf 0 0 m (0.45) show NC gr 
 gsave  2268 1538 0 0 C 892.75 172.685 t 0 r /Helvetica findfont 61.9061 sf 0 0 m (0.5) show NC gr 
 gsave  2268 1538 0 0 C 1404.29 172.685 t 0 r /Helvetica findfont 61.9061 sf 0 0 m (0.55) show NC gr 
 gsave  2268 1538 0 0 C 1954.93 172.685 t 0 r /Helvetica findfont 61.9061 sf 0 0 m (0.6) show NC gr 
 gsave  2268 1538 0 0 C 2101.55 78.1971 t 0 r /Helvetica findfont 74.9389 sf 0 0 m ( [fb]) show NC gr 
 gsave  2268 1538 0 0 C 1997.28 52.1314 t 0 r /Helvetica findfont 52.1314 sf 0 0 m (fit) show NC gr 
 gsave  2268 1538 0 0 C 1997.28 110.779 t 0 r /Helvetica findfont 52.1314 sf 0 0 m (bin,1) show NC gr 
 gsave  2268 1538 0 0 C 1951.67 78.1971 t 0 r /Symbol findfont 74.9389 sf 0 0 m (s) show NC gr  272 1515 m 1950 X s 404 1475 m 40 Y s 510 1495 m 20 Y s 617 1495 m 20 Y s 723 1495 m 20 Y s 829 1495 m 20 Y s 935 1475 m 40 Y s 1042 1495 m 20 Y s 1148
 1495 m 20 Y s 1254 1495 m 20 Y s 1361 1495 m 20 Y s 1467 1475 m 40 Y s 1573 1495 m 20 Y s 1680 1495 m 20 Y s 1786 1495 m 20 Y s 1892 1495 m 20 Y s 1999 1475 m 40 Y s 404 1475 m 40 Y s 298 1495 m 20 Y s 1999 1475 m 40 Y s 2105 1495 m 20 Y s 2211 1495
 m 20 Y s 272 231 m 1284 Y s 329 247 m -57 X s 301 282 m -29 X s 301 317 m -29 X s 301 352 m -29 X s 329 387 m -57 X s 301 422 m -29 X s 301 457 m -29 X s 301 492 m -29 X s 329 527 m -57 X s 301 562 m -29 X s 301 597 m -29 X s 301 632 m -29 X s 329
 667 m -57 X s 301 702 m -29 X s 301 737 m -29 X s 301 772 m -29 X s 329 807 m -57 X s 301 842 m -29 X s 301 877 m -29 X s 301 912 m -29 X s 329 948 m -57 X s 301 983 m -29 X s 301 1018 m -29 X s 301 1053 m -29 X s 329 1088 m -57 X s 301 1123 m -29 X
 s 301 1158 m -29 X s 301 1193 m -29 X s 329 1228 m -57 X s 301 1263 m -29 X s 301 1298 m -29 X s 301 1333 m -29 X s 329 1368 m -57 X s 301 1403 m -29 X s 301 1438 m -29 X s 301 1473 m -29 X s 329 1508 m -57 X s 329 247 m -57 X s 329 1508 m -57 X s
 gsave  2268 1538 0 0 C 140.103 224.817 t 0 r /Helvetica findfont 61.9061 sf 0 0 m (0.44) show NC gr 
 gsave  2268 1538 0 0 C 140.103 364.92 t 0 r /Helvetica findfont 61.9061 sf 0 0 m (0.46) show NC gr 
 gsave  2268 1538 0 0 C 140.103 505.023 t 0 r /Helvetica findfont 61.9061 sf 0 0 m (0.48) show NC gr 
 gsave  2268 1538 0 0 C 175.944 645.126 t 0 r /Helvetica findfont 61.9061 sf 0 0 m (0.5) show NC gr 
 gsave  2268 1538 0 0 C 140.103 785.229 t 0 r /Helvetica findfont 61.9061 sf 0 0 m (0.52) show NC gr 
 gsave  2268 1538 0 0 C 140.103 925.333 t 0 r /Helvetica findfont 61.9061 sf 0 0 m (0.54) show NC gr 
 gsave  2268 1538 0 0 C 140.103 1065.44 t 0 r /Helvetica findfont 61.9061 sf 0 0 m (0.56) show NC gr 
 gsave  2268 1538 0 0 C 140.103 1205.54 t 0 r /Helvetica findfont 61.9061 sf 0 0 m (0.58) show NC gr 
 gsave  2268 1538 0 0 C 175.944 1345.64 t 0 r /Helvetica findfont 61.9061 sf 0 0 m (0.6) show NC gr 
 gsave  2268 1538 0 0 C 140.103 1485.75 t 0 r /Helvetica findfont 61.9061 sf 0 0 m (0.62) show NC gr 
 gsave  2268 1538 0 0 C 120.554 1394.52 t 90 r /Helvetica findfont 74.9389 sf 0 0 m ( [fb]) show NC gr 
 gsave  2268 1538 0 0 C 146.62 1290.25 t 90 r /Helvetica findfont 52.1314 sf 0 0 m (true) show NC gr 
 gsave  2268 1538 0 0 C 87.9718 1290.25 t 90 r /Helvetica findfont 52.1314 sf 0 0 m (bin,1) show NC gr 
 gsave  2268 1538 0 0 C 120.554 1244.64 t 90 r /Symbol findfont 74.9389 sf 0 0 m (s) show NC gr  2222 231 m 1284 Y s 2166 247 m 56 X s 2194 282 m 28 X s 2194 317 m 28 X s 2194 352 m 28 X s 2166 387 m 56 X s 2194 422 m 28 X s 2194 457 m 28 X s 2194
 492 m 28 X s 2166 527 m 56 X s 2194 562 m 28 X s 2194 597 m 28 X s 2194 632 m 28 X s 2166 667 m 56 X s 2194 702 m 28 X s 2194 737 m 28 X s 2194 772 m 28 X s 2166 807 m 56 X s 2194 842 m 28 X s 2194 877 m 28 X s 2194 912 m 28 X s 2166 948 m 56 X s
 2194 983 m 28 X s 2194 1018 m 28 X s 2194 1053 m 28 X s 2166 1088 m 56 X s 2194 1123 m 28 X s 2194 1158 m 28 X s 2194 1193 m 28 X s 2166 1228 m 56 X s 2194 1263 m 28 X s 2194 1298 m 28 X s 2194 1333 m 28 X s 2166 1368 m 56 X s 2194 1403 m 28 X s
 2194 1438 m 28 X s 2194 1473 m 28 X s 2166 1508 m 56 X s 2166 247 m 56 X s 2166 1508 m 56 X s 1 0 0 c 1 1 1 c 1 0 0 c 98 64 272 809 bl 1 1 1 c 1 0 0 c 98 64 272 873 bl 1 1 1 c 1 0 0 c 97 64 370 873 bl 1 1 1 c 1 0 0 c 98 64 467 937 bl 1 1 1 c 1 0 0 c
 97 64 565 1001 bl 1 1 1 c 1 0 0 c 97 64 760 1130 bl 1 1 1 c 1 0 0 c 98 64 857 1130 bl 1 1 1 c black 1 1 1 c black 98 64 272 809 bl 1 1 1 c black 98 64 272 873 bl 1 1 1 c black 97 64 370 873 bl 1 1 1 c black 98 64 467 937 bl 1 1 1 c black 97 64 565
 1001 bl 1 1 1 c black 97 64 760 1130 bl 1 1 1 c black 98 64 857 1130 bl 1 1 1 c 0 0 1 c 1 1 1 c 0 0 1 c 97 64 370 873 bl 1 1 1 c 0 0 1 c 97 64 760 1130 bl 1 1 1 c black[ 12 12] 0 sd 9 lw 1 1 1 c black 321 455 m 35 -11 d 33 1 d 29 10 d 24 18 d 67 73
 d 7 6 d 97 53 d 98 75 d 97 54 d 98 68 d 97 64 d 76 54 d 22 11 d 87 -4 d 10 4 d 24 16 d 68 71 d 6 5 d 66 42 d 32 16 d 97 38 d 83 39 d 15 4 d 6 8 d 9 24 d 10 47 d 19 94 d 9 31 d 7 17 d 5 4 d 6 -7 d 6 -21 d 5 -30 d 5 -42 d 4 -47 d 5 -60 d 1 -18 d 6
 -107 d 6 -115 d 6 -125 d 5 -133 d 6 -142 d 5 -150 d 5 -159 d s[  ] 0 sd 1 1 1 c black 440 231 m 2 15 d s 442 246 m 4 34 d 4 30 d 4 28 d 5 25 d 4 22 d 4 20 d 5 18 d 4 15 d 5 12 d 4 9 d 5 7 d 4 3 d 4 1 d 5 -2 d 4 -6 d 5 -7 d 4 -10 d 5 -16 d 5 -18 d 4
 -20 d 5 -24 d 4 -25 d s 539 342 m 5 -28 d 4 -30 d 4 -32 d 3 -21 d s 657 231 m 3 41 d s 660 272 m 4 48 d 4 46 d 4 43 d 4 40 d 5 37 d 4 35 d 4 28 d 5 26 d 4 22 d 4 20 d 4 15 d 5 12 d 4 9 d 5 5 d 4 X 5 -3 d s 729 655 m 4 -7 d 4 -10 d 5 -13 d 4 -16 d 4
 -20 d 4 -22 d 4 -26 d 4 -29 d 4 -33 d 4 -36 d 4 -41 d 5 -44 d 4 -51 d 4 -47 d 2 -29 d s 938 1515 m 4 -72 d s 942 1443 m 6 -110 d 7 -104 d 6 -97 d 7 -91 d 5 -72 d 6 -76 d 7 -69 d 6 -61 d 6 -53 d 5 -39 d 6 -31 d 5 -23 d 5 -15 d 5 -8 d 5 -1 d 6 6 d 7
 15 d 10 29 d 13 54 d 14 59 d 8 26 d 6 16 d 6 11 d 2 1 d 10 3 d 12 -5 d 43 -36 d 10 1 d 8 7 d 8 13 d 6 17 d 18 54 d 12 46 d 10 45 d 9 44 d 9 51 d 9 62 d 8 59 d 8 67 d 6 63 d 7 72 d 2 21 d 8 91 d 2 30 d s 1460 1515 m 5 -86 d s 1465 1429 m 10 -157 d 10
 -142 d 6 -74 d 8 -87 d 8 -76 d 10 -64 d 11 -56 d 11 -34 d 14 -28 d 32 -39 d 4 -6 d 6 -4 d 8 15 d 10 42 d 24 138 d 9 37 d 8 14 d 7 -6 d 6 -23 d 6 -45 d 5 -51 d 5 -68 d 3 -49 d 7 -126 d 6 -142 d 7 -160 d -7 Y s 1 1 1 c black 472 1515 m 1 -41 d s 473
 1474 m 5 -125 d 4 -117 d 5 -118 d 5 -92 d 4 -90 d 5 -79 d 5 -76 d 5 -58 d 4 -53 d 1 -7 d 5 -45 d 5 -34 d 5 -23 d 4 -14 d 5 -5 d s 540 538 m 4 4 d 5 12 d 4 20 d 4 28 d 5 37 d 4 45 d 5 56 d 5 64 d 4 74 d 5 91 d 5 86 d 4 102 d 5 110 d 5 127 d 4 121 d s
 622 1515 m 3 -55 d s 625 1460 m 4 -71 d 5 -65 d 4 -60 d 4 -56 d 3 -51 d 4 -48 d 4 -44 d 4 -41 d 3 -39 d 4 -36 d 4 -34 d 4 -32 d 4 -29 d 3 -27 d 4 -24 d 5 -22 d 3 -17 d 4 -16 d 4 -12 d 4 -10 d 4 -6 d 4 -4 d 4 -1 d 4 2 d s 719 717 m 4 5 d 4 8 d 4 12 d
 4 15 d 4 17 d 4 20 d 4 22 d 4 25 d 4 27 d 3 29 d 4 32 d 4 35 d 4 38 d 3 42 d 4 45 d 4 48 d 4 54 d 4 49 d 4 56 d 4 60 d 4 64 d 4 62 d 1 33 d s 982 1515 m 4 -91 d s 986 1424 m 6 -129 d 5 -101 d 5 -98 d 1 -21 d 4 -61 d 5 -52 d 4 -48 d 5 -36 d 5 -26 d 4
 -17 d 6 -8 d 5 2 d 7 13 d 8 28 d 14 64 d 12 53 d 7 24 d 6 13 d 6 4 d 7 -7 d 8 -20 d 25 -100 d 9 -31 d 7 -19 d 7 -8 d 5 1 d 6 10 d 5 19 d 5 27 d 5 36 d 4 41 d 4 51 d s 1198 1028 m 6 80 d 6 88 d 6 97 d 6 105 d 6 116 d 1 Y s 1464 1515 m 1 -19 d s 1465
 1496 m 4 -78 d 3 -58 d 4 -57 d 4 -46 d 4 -36 d 4 -25 d 3 -12 d 4 -7 d 4 4 d s 1499 1181 m 5 17 d 4 30 d 4 41 d 4 51 d 4 61 d 4 70 d 3 64 d s 0 0 1 c[ 12 12] 0 sd 1 1 1 c black 0 0 1 c 494 231 m 5 121 d s 499 352 m 6 118 d 6 103 d 5 75 d 5 68 d 5 53
 d 5 41 d 5 30 d 6 19 d 6 9 d 6 -3 d 9 -18 d 8 -30 d 27 -111 d 7 -18 d 7 -8 d 99 X 91 -2 d 6 2 d 26 15 d 72 60 d 97 54 d 37 37 d 42 45 d 19 14 d 27 4 d 64 -7 d 6 3 d 17 13 d 27 37 d 27 34 d 15 11 d 12 1 d 13 -10 d 17 -32 d 42 -93 d 11 -14 d 12 -4 d 3
 1 d 11 12 d 13 27 d 18 56 d 31 99 d 12 33 d 12 21 d 16 15 d 82 -15 d 6 7 d 8 21 d 10 44 d 21 102 d 8 32 d 7 17 d 5 4 d 6 -6 d 6 -21 d 5 -29 d 5 -42 d 4 -46 d 5 -59 d 1 -24 d 6 -105 d 6 -115 d 6 -123 d 5 -132 d 5 -141 d 6 -149 d 3 -101 d s[  ] 0 sd 1
 1 1 c black 0 0 1 c 519 231 m 4 31 d s 523 262 m 8 47 d 8 45 d 8 43 d 8 40 d 9 42 d 7 33 d 8 31 d 8 29 d 9 27 d 8 22 d 8 19 d 1 4 d 6 12 d 6 9 d 7 6 d 7 4 d 7 1 d 9 -2 d 56 -30 d 6 2 d 6 5 d 9 10 d 23 36 d 8 10 d 7 5 d 6 1 d 5 -1 d 4 -3 d 5 -7 d 4
 -8 d 5 -13 d 4 -13 d 4 -15 d 1 -9 d 6 -27 d 5 -30 d 5 -32 d 6 -34 d 5 -36 d 5 -39 d 5 -42 d 5 -45 d 5 -48 d 5 -52 d 3 -28 d s 944 231 m 8 93 d s 952 324 m 8 81 d 9 83 d 9 73 d 10 61 d 9 49 d 6 30 d 7 20 d 7 10 d 8 -2 d 9 -16 d 11 -36 d 20 -87 d 16
 -69 d 9 -30 d 9 -19 d 2 -3 d 30 -31 d 22 -10 d 15 2 d 14 12 d 14 21 d 2 6 d 10 26 d 10 42 d 12 62 d 30 167 d 11 57 d 9 36 d 9 23 d 7 12 d 9 3 d 10 -10 d 11 -24 d 15 -44 d 35 -122 d 11 -26 d 7 -9 d 16 -14 d 17 -3 d 64 17 d 98 X 6 6 d 7 20 d 10 40 d
 22 118 d 8 31 d 7 16 d 6 3 d 5 -6 d 5 -16 d 5 -27 d 4 -36 d 4 -44 d 5 -51 d 3 -54 d 6 -100 d 5 -109 d 6 -117 d 4 -105 d s 1 1 1 c black 0 0 1 c 577 1515 m 1 -29 d s 578 1486 m 5 -145 d 5 -116 d 5 -124 d 6 -115 d 5 -106 d 5 -94 d 4 -70 d 4 -57 d 4
 -48 d 5 -44 d 5 -34 d 4 -23 d 5 -14 d 5 -6 d 6 4 d 6 15 d 9 31 d 14 70 d 12 60 d 7 25 d 5 15 d 7 6 d 10 -6 d 14 -20 d 28 -51 d 10 -8 d 8 1 d 9 12 d 7 18 d 6 26 d 5 28 d 9 55 d 9 65 d 9 75 d 8 85 d s 843 996 m 10 104 d 8 96 d 9 114 d 9 123 d 5 82 d s
 919 1515 m 2 -50 d s 921 1465 m 4 -109 d 5 -99 d 4 -88 d 5 -79 d 4 -70 d 5 -62 d 4 -54 d 5 -45 d 5 -37 d 4 -27 d 5 -18 d 5 -8 d 4 1 d 5 11 d 5 20 d 5 31 d 4 38 d 4 46 d 6 62 d 4 72 d 5 79 d 5 87 d 4 95 d 5 102 d s 1032 1413 m 4 102 d s 1259 1515 m 1
 -21 d s 1260 1494 m 4 -81 d 4 -72 d 4 -69 d 4 -50 d 3 -42 d 4 -33 d 5 -24 d 3 -12 d 4 -3 d 1 X 4 9 d s 1300 1117 m 4 18 d 4 28 d 4 43 d 4 53 d 4 62 d 4 71 d 4 78 d 2 45 d s 1 0 0 c[ 12 12] 0 sd 1 1 1 c black 1 0 0 c 321 455 m 35 -11 d 33 1 d 29 10 d
 24 18 d 67 73 d 7 6 d 97 53 d 98 75 d 97 54 d 98 68 d 97 64 d 76 54 d 22 11 d 87 -4 d 10 4 d 24 16 d 68 71 d 6 5 d 66 42 d 32 16 d 97 38 d 83 39 d 15 4 d 6 8 d 9 24 d 10 47 d 19 94 d 9 31 d 7 17 d 5 4 d 6 -7 d 6 -21 d 5 -30 d 5 -42 d 4 -47 d 5 -60 d
 1 -18 d 6 -107 d 6 -115 d 6 -125 d 5 -133 d 6 -142 d 5 -150 d 5 -159 d s[  ] 0 sd 6 lw 1 1 1 c black 1 0 0 c 440 231 m 2 15 d s 442 246 m 4 34 d 4 30 d 4 28 d 5 25 d 4 22 d 4 20 d 5 18 d 4 15 d 5 12 d 4 9 d 5 7 d 4 3 d 4 1 d 5 -2 d 4 -6 d 5 -7 d 4
 -10 d 5 -16 d 5 -18 d 4 -20 d 5 -24 d 4 -25 d s 539 342 m 5 -28 d 4 -30 d 4 -32 d 3 -21 d s 657 231 m 3 41 d s 660 272 m 4 48 d 4 46 d 4 43 d 4 40 d 5 37 d 4 35 d 4 28 d 5 26 d 4 22 d 4 20 d 4 15 d 5 12 d 4 9 d 5 5 d 4 X 5 -3 d s 729 655 m 4 -7 d 4
 -10 d 5 -13 d 4 -16 d 4 -20 d 4 -22 d 4 -26 d 4 -29 d 4 -33 d 4 -36 d 4 -41 d 5 -44 d 4 -51 d 4 -47 d 2 -29 d s 938 1515 m 4 -72 d s 942 1443 m 6 -110 d 7 -104 d 6 -97 d 7 -91 d 5 -72 d 6 -76 d 7 -69 d 6 -61 d 6 -53 d 5 -39 d 6 -31 d 5 -23 d 5 -15 d
 5 -8 d 5 -1 d 6 6 d 7 15 d 10 29 d 13 54 d 14 59 d 8 26 d 6 16 d 6 11 d 2 1 d 10 3 d 12 -5 d 43 -36 d 10 1 d 8 7 d 8 13 d 6 17 d 18 54 d 12 46 d 10 45 d 9 44 d 9 51 d 9 62 d 8 59 d 8 67 d 6 63 d 7 72 d 2 21 d 8 91 d 2 30 d s 1460 1515 m 5 -86 d s
 1465 1429 m 10 -157 d 10 -142 d 6 -74 d 8 -87 d 8 -76 d 10 -64 d 11 -56 d 11 -34 d 14 -28 d 32 -39 d 4 -6 d 6 -4 d 8 15 d 10 42 d 24 138 d 9 37 d 8 14 d 7 -6 d 6 -23 d 6 -45 d 5 -51 d 5 -68 d 3 -49 d 7 -126 d 6 -142 d 7 -160 d -7 Y s 9 lw 1 1 1 c
 black 1 0 0 c 472 1515 m 1 -41 d s 473 1474 m 5 -125 d 4 -117 d 5 -118 d 5 -92 d 4 -90 d 5 -79 d 5 -76 d 5 -58 d 4 -53 d 1 -7 d 5 -45 d 5 -34 d 5 -23 d 4 -14 d 5 -5 d s 540 538 m 4 4 d 5 12 d 4 20 d 4 28 d 5 37 d 4 45 d 5 56 d 5 64 d 4 74 d 5 91 d 5
 86 d 4 102 d 5 110 d 5 127 d 4 121 d s 622 1515 m 3 -55 d s 625 1460 m 4 -71 d 5 -65 d 4 -60 d 4 -56 d 3 -51 d 4 -48 d 4 -44 d 4 -41 d 3 -39 d 4 -36 d 4 -34 d 4 -32 d 4 -29 d 3 -27 d 4 -24 d 5 -22 d 3 -17 d 4 -16 d 4 -12 d 4 -10 d 4 -6 d 4 -4 d 4 -1
 d 4 2 d s 719 717 m 4 5 d 4 8 d 4 12 d 4 15 d 4 17 d 4 20 d 4 22 d 4 25 d 4 27 d 3 29 d 4 32 d 4 35 d 4 38 d 3 42 d 4 45 d 4 48 d 4 54 d 4 49 d 4 56 d 4 60 d 4 64 d 4 62 d 1 33 d s 982 1515 m 4 -91 d s 986 1424 m 6 -129 d 5 -101 d 5 -98 d 1 -21 d 4
 -61 d 5 -52 d 4 -48 d 5 -36 d 5 -26 d 4 -17 d 6 -8 d 5 2 d 7 13 d 8 28 d 14 64 d 12 53 d 7 24 d 6 13 d 6 4 d 7 -7 d 8 -20 d 25 -100 d 9 -31 d 7 -19 d 7 -8 d 5 1 d 6 10 d 5 19 d 5 27 d 5 36 d 4 41 d 4 51 d s 1198 1028 m 6 80 d 6 88 d 6 97 d 6 105 d 6
 116 d 1 Y s 1464 1515 m 1 -19 d s 1465 1496 m 4 -78 d 3 -58 d 4 -57 d 4 -46 d 4 -36 d 4 -25 d 3 -12 d 4 -7 d 4 4 d s 1499 1181 m 5 17 d 4 30 d 4 41 d 4 51 d 4 61 d 4 70 d 3 64 d s black 1247 231 m 1284 Y s
 gr  gr showpage
end
%%EOF
