%!PS-Adobe-2.0 EPSF-2.0
%%BoundingBox:  0 0 567 384
%%Title: plots/iter_4/iterationsToys_ws_DYjj/ccBelts_6_iter4.eps: 
%%Creator: ROOT Version 6.16/00
%%CreationDate: Fri Nov 13 20:48:51 2020
%%DocumentNeededResources: ProcSet (FontSetInit)
%%EndComments
%%BeginProlog
80 dict begin
/s {stroke} def /l {lineto} def /m {moveto} def /t {translate} def
/r {rotate} def /rl {roll}  def /R {repeat} def
/d {rlineto} def /rm {rmoveto} def /gr {grestore} def /f {eofill} def
/c {setrgbcolor} def /black {0 setgray} def /sd {setdash} def
/cl {closepath} def /sf {scalefont setfont} def /lw {setlinewidth} def
/box {m dup 0 exch d exch 0 d 0 exch neg d cl} def
/NC{systemdict begin initclip end}def/C{NC box clip newpath}def
/bl {box s} def /bf {gsave box gsave f grestore 1 lw [] 0 sd s grestore} def /Y { 0 exch d} def /X { 0 d} def 
/K {{pop pop 0 moveto} exch kshow} bind def
/ita {/ang 15 def gsave [1 0 ang dup sin exch cos div 1 0 0] concat} def 
/mp {newpath /y exch def /x exch def} def
/side {[w .77 mul w .23 mul] .385 w mul sd w 0 l currentpoint t -144 r} def
/mr {mp x y w2 0 360 arc} def /m24 {mr s} def /m20 {mr f} def
/mb {mp x y w2 add m w2 neg 0 d 0 w neg d w 0 d 0 w d cl} def
/mt {mp x y w2 add m w2 neg w neg d w 0 d cl} def
/w4 {w 4 div} def
/w6 {w 6 div} def
/w8 {w 8 div} def
/m21 {mb f} def /m25 {mb s} def /m22 {mt f} def /m26{mt s} def
/m23 {mp x y w2 sub m w2 w d w neg 0 d cl f} def
/m27 {mp x y w2 add m w3 neg w2 neg d w3 w2 neg d w3 w2 d cl s} def
/m28 {mp x w2 sub y w2 sub w3 add m w3 0 d  0 w3 neg d w3 0 d 0 w3 d w3 0 d  0 w3 d w3 neg 0 d 0 w3 d w3 neg 0 d 0 w3 neg d w3 neg 0 d cl s } def
/m29 {mp gsave x w2 sub y w2 add w3 sub m currentpoint t 4 {side} repeat cl fill gr} def
/m30 {mp gsave x w2 sub y w2 add w3 sub m currentpoint t 4 {side} repeat cl s gr} def
/m31 {mp x y w2 sub m 0 w d x w2 sub y m w 0 d x w2 sub y w2 add m w w neg d x w2 sub y w2 sub m w w d s} def
/m32 {mp x y w2 sub m w2 w d w neg 0 d cl s} def
/m33 {mp x y w2 add m w3 neg w2 neg d w3 w2 neg d w3 w2 d cl f} def
/m34 {mp x w2 sub y w2 sub w3 add m w3 0 d  0 w3 neg d w3 0 d 0 w3 d w3 0 d  0 w3 d w3 neg 0 d 0 w3 d w3 neg 0 d 0 w3 neg d w3 neg 0 d cl f } def
/m35 {mp x y w2 add m w2 neg w2 neg d w2 w2 neg d w2 w2 d w2 neg w2 d x y w2 sub m 0 w d x w2 sub y m w 0 d s} def
/m36 {mb x w2 sub y w2 add m w w neg d x w2 sub y w2 sub m w w d s} def
/m37 {mp x y m w4 neg w2 d w4 neg w2 neg d w2 0 d  w4 neg w2 neg d w2 0 d w4 neg w2 d w2 0 d w4 neg w2 d w4 neg w2 neg d cl s} def
/m38 {mp x w4 sub y w2 add m w4 neg w4 neg d 0 w2 neg d w4 w4 neg d w2 0 d w4 w4 d 0 w2 d w4 neg w4 d w2 neg 0 d x y w2 sub m 0 w d x w2 sub y m w 0 d cl s} def
/m39 {mp x y m w4 neg w2 d w4 neg w2 neg d w2 0 d  w4 neg w2 neg d w2 0 d w4 neg w2 d w2 0 d w4 neg w2 d w4 neg w2 neg d cl f} def
/m40 {mp x y m w4 w2 d w4 w4 neg d w2 neg w4 neg d w2 w4 neg d w4 neg w4 neg d w4 neg w2 d w4 neg w2 neg d w4 neg w4 d w2 w4 d w2 neg w4 d w4 w4 d w4 w2 neg d cl s} def
/m41 {mp x y m w4 w2 d w4 w4 neg d w2 neg w4 neg d w2 w4 neg d w4 neg w4 neg d w4 neg w2 d w4 neg w2 neg d w4 neg w4 d w2 w4 d w2 neg w4 d w4 w4 d w4 w2 neg d cl f} def
/m42 {mp x y w2 add m w8 neg w2 -3 4 div mul d w2 -3 4 div mul w8 neg d w2 3 4 div mul w8 neg d w8 w2 -3 4 div mul d w8 w2 3 4 div mul d w2 3 4 div mul w8 d w2 -3 4 div mul w8 d w8 neg w2 3 4 div mul d cl s} def
/m43 {mp x y w2 add m w8 neg w2 -3 4 div mul d w2 -3 4 div mul w8 neg d w2 3 4 div mul w8 neg d w8 w2 -3 4 div mul d w8 w2 3 4 div mul d w2 3 4 div mul w8 d w2 -3 4 div mul w8 d w8 neg w2 3 4 div mul d cl f} def
/m44 {mp x y m w6 neg w2 d w2 2 3 div mul 0 d w6 neg w2 neg d w2 w6 d 0 w2 -2 3 div mul d w2 neg w6 d w6 w2 neg d w2 -2 3 div mul 0 d w6 w2 d w2 neg w6 neg d 0 w2 2 3 div mul d w2 w6 neg d cl s} def
/m45 {mp x y m w6 neg w2 d w2 2 3 div mul 0 d w6 neg w2 neg d w2 w6 d 0 w2 -2 3 div mul d w2 neg w6 d w6 w2 neg d w2 -2 3 div mul 0 d w6 w2 d w2 neg w6 neg d 0 w2 2 3 div mul d w2 w6 neg d cl f} def
/m46 {mp x y w4 add m w4 neg w4 d w4 neg w4 neg d  w4 w4 neg d w4 neg w4 neg d w4 w4 neg d w4 w4 d w4 w4 neg d w4 w4 d w4 neg w4 d w4 w4 d w4 neg w4 d w4 neg w4 neg d cl s} def
/m47 {mp x y w4 add m w4 neg w4 d w4 neg w4 neg d w4 w4 neg d w4 neg w4 neg d  w4 w4 neg d w4 w4 d w4 w4 neg d w4 w4 d w4 neg w4 d w4 w4 d w4 neg w4 d w4 neg w4 neg d cl f} def
/m48 {mp x y w4 add m w4 neg w4 d w4 neg w4 neg d w4 w4 neg d  w4 neg w4 neg d w4 w4 neg d w4 w4 d w4 w4 neg d w4 w4 d w4 neg w4 d w4 w4 d w4 neg w4 d w4 neg w4 neg d  w4 w4 neg d w4 neg w4 neg d w4 neg w4 d w4 w4 d cl f} def
/m49 {mp x w2 sub w3 add y w2 sub w3 add m  0 w3 neg d w3 0 d 0 w3 d w3 0 d 0 w3 d w3 neg 0 d 0 w3 d w3 neg 0 d 0 w3 neg d w3 neg 0 d 0 w3 neg d w3 0 d 0 w3 d w3 0 d 0 w3 neg d w3 neg 0 d cl f } def
/m2 {mp x y w2 sub m 0 w d x w2 sub y m w 0 d s} def
/m5 {mp x w2 sub y w2 sub m w w d x w2 sub y w2 add m w w neg d s} def
%%IncludeResource: ProcSet (FontSetInit)
%%IncludeResource: font Times-Roman
%%IncludeResource: font Times-Italic
%%IncludeResource: font Times-Bold
%%IncludeResource: font Times-BoldItalic
%%IncludeResource: font Helvetica
%%IncludeResource: font Helvetica-Oblique
%%IncludeResource: font Helvetica-Bold
%%IncludeResource: font Helvetica-BoldOblique
%%IncludeResource: font Courier
%%IncludeResource: font Courier-Oblique
%%IncludeResource: font Courier-Bold
%%IncludeResource: font Courier-BoldOblique
%%IncludeResource: font Symbol
%%IncludeResource: font ZapfDingbats
/reEncode {exch findfont dup length dict begin {1 index /FID eq  {pop pop} {def} ifelse } forall /Encoding exch def currentdict end dup /FontName get exch definefont pop } def [/Times-Bold /Times-Italic /Times-BoldItalic /Helvetica /Helvetica-Oblique
 /Helvetica-Bold /Helvetica-BoldOblique /Courier /Courier-Oblique /Courier-Bold /Courier-BoldOblique /Times-Roman /AvantGarde-Book /AvantGarde-BookOblique /AvantGarde-Demi /AvantGarde-DemiOblique /Bookman-Demi /Bookman-DemiItalic /Bookman-Light
 /Bookman-LightItalic /Helvetica-Narrow /Helvetica-Narrow-Bold /Helvetica-Narrow-BoldOblique /Helvetica-Narrow-Oblique /NewCenturySchlbk-Roman /NewCenturySchlbk-Bold /NewCenturySchlbk-BoldItalic /NewCenturySchlbk-Italic /Palatino-Bold
 /Palatino-BoldItalic /Palatino-Italic /Palatino-Roman ] {ISOLatin1Encoding reEncode } forall
%%EndProlog
%%BeginSetup
%%EndSetup
newpath  gsave  .25 .25 scale  gsave  0 0 t black[  ] 0 sd 3 lw 1 1 1 c 2268 1538 0 0 bf black 1 1 1 c 1950 1284 272 231 bf black 1950 1284 272 231 bl 1 1 1 c 6 lw black 1 1 1 c 272 231 m 1950 X s black 3 lw 272 231 m 1950 X s 633 270 m -39 Y s 779
 251 m -20 Y s 926 251 m -20 Y s 1073 251 m -20 Y s 1219 251 m -20 Y s 1366 270 m -39 Y s 1512 251 m -20 Y s 1659 251 m -20 Y s 1806 251 m -20 Y s 1952 251 m -20 Y s 2099 270 m -39 Y s 633 270 m -39 Y s 486 251 m -20 Y s 340 251 m -20 Y s 2099 270 m
 -39 Y s
 gsave  2268 1538 0 0 C 589.737 172.685 t 0 r /Helvetica findfont 61.9061 sf 0 0 m (0.4) show NC gr 
 gsave  2268 1538 0 0 C 1322.83 172.685 t 0 r /Helvetica findfont 61.9061 sf 0 0 m (0.5) show NC gr 
 gsave  2268 1538 0 0 C 2055.93 172.685 t 0 r /Helvetica findfont 61.9061 sf 0 0 m (0.6) show NC gr 
 gsave  2268 1538 0 0 C 2101.55 78.1971 t 0 r /Helvetica findfont 74.9389 sf 0 0 m ( [fb]) show NC gr 
 gsave  2268 1538 0 0 C 1987.51 52.1314 t 0 r /Helvetica findfont 52.1314 sf 0 0 m (fit) show NC gr 
 gsave  2268 1538 0 0 C 1987.51 110.779 t 0 r /Helvetica findfont 52.1314 sf 0 0 m (bin,6) show NC gr 
 gsave  2268 1538 0 0 C 1941.9 78.1971 t 0 r /Symbol findfont 74.9389 sf 0 0 m (s) show NC gr  272 1515 m 1950 X s 633 1475 m 40 Y s 779 1495 m 20 Y s 926 1495 m 20 Y s 1073 1495 m 20 Y s 1219 1495 m 20 Y s 1366 1475 m 40 Y s 1512 1495 m 20 Y s 1659
 1495 m 20 Y s 1806 1495 m 20 Y s 1952 1495 m 20 Y s 2099 1475 m 40 Y s 633 1475 m 40 Y s 486 1495 m 20 Y s 340 1495 m 20 Y s 2099 1475 m 40 Y s 272 231 m 1284 Y s 329 468 m -57 X s 301 516 m -29 X s 301 565 m -29 X s 301 613 m -29 X s 301 661 m -29
 X s 329 710 m -57 X s 301 758 m -29 X s 301 806 m -29 X s 301 854 m -29 X s 301 903 m -29 X s 329 951 m -57 X s 301 999 m -29 X s 301 1047 m -29 X s 301 1096 m -29 X s 301 1144 m -29 X s 329 1192 m -57 X s 301 1240 m -29 X s 301 1289 m -29 X s 301
 1337 m -29 X s 301 1385 m -29 X s 329 1433 m -57 X s 329 468 m -57 X s 301 420 m -29 X s 301 372 m -29 X s 301 323 m -29 X s 301 275 m -29 X s 329 1433 m -57 X s 301 1482 m -29 X s
 gsave  2268 1538 0 0 C 175.944 446.375 t 0 r /Helvetica findfont 61.9061 sf 0 0 m (0.4) show NC gr 
 gsave  2268 1538 0 0 C 140.103 687.483 t 0 r /Helvetica findfont 61.9061 sf 0 0 m (0.45) show NC gr 
 gsave  2268 1538 0 0 C 175.944 928.591 t 0 r /Helvetica findfont 61.9061 sf 0 0 m (0.5) show NC gr 
 gsave  2268 1538 0 0 C 140.103 1169.7 t 0 r /Helvetica findfont 61.9061 sf 0 0 m (0.55) show NC gr 
 gsave  2268 1538 0 0 C 175.944 1410.81 t 0 r /Helvetica findfont 61.9061 sf 0 0 m (0.6) show NC gr 
 gsave  2268 1538 0 0 C 120.554 1394.52 t 90 r /Helvetica findfont 74.9389 sf 0 0 m ( [fb]) show NC gr 
 gsave  2268 1538 0 0 C 146.62 1280.48 t 90 r /Helvetica findfont 52.1314 sf 0 0 m (true) show NC gr 
 gsave  2268 1538 0 0 C 87.9718 1280.48 t 90 r /Helvetica findfont 52.1314 sf 0 0 m (bin,6) show NC gr 
 gsave  2268 1538 0 0 C 120.554 1234.86 t 90 r /Symbol findfont 74.9389 sf 0 0 m (s) show NC gr  2222 231 m 1284 Y s 2166 468 m 56 X s 2194 516 m 28 X s 2194 565 m 28 X s 2194 613 m 28 X s 2194 661 m 28 X s 2166 710 m 56 X s 2194 758 m 28 X s 2194
 806 m 28 X s 2194 854 m 28 X s 2194 903 m 28 X s 2166 951 m 56 X s 2194 999 m 28 X s 2194 1047 m 28 X s 2194 1096 m 28 X s 2194 1144 m 28 X s 2166 1192 m 56 X s 2194 1240 m 28 X s 2194 1289 m 28 X s 2194 1337 m 28 X s 2194 1385 m 28 X s 2166 1433 m
 56 X s 2166 468 m 56 X s 2194 420 m 28 X s 2194 372 m 28 X s 2194 323 m 28 X s 2194 275 m 28 X s 2166 1433 m 56 X s 2194 1482 m 28 X s 1 0 0 c 1 1 1 c 1 0 0 c 69 46 384 561 bl 1 1 1 c 1 0 0 c 69 46 481 625 bl 1 1 1 c 1 0 0 c 69 45 579 690 bl 1 1 1 c
 1 0 0 c 98 65 662 744 bl 1 1 1 c 1 0 0 c 69 45 871 818 bl 1 1 1 c 1 0 0 c 69 46 871 882 bl 1 1 1 c 1 0 0 c 69 46 969 946 bl 1 1 1 c 1 0 0 c 68 45 1262 1139 bl 1 1 1 c 1 0 0 c 69 46 1554 1267 bl 1 1 1 c black 1 1 1 c black 69 46 384 561 bl 1 1 1 c
 black 69 46 481 625 bl 1 1 1 c black 69 45 579 690 bl 1 1 1 c black 98 65 662 744 bl 1 1 1 c black 69 45 871 818 bl 1 1 1 c black 69 46 871 882 bl 1 1 1 c black 69 46 969 946 bl 1 1 1 c black 68 45 1262 1139 bl 1 1 1 c black 69 46 1554 1267 bl 1 1 1
 c 0 0 1 c 1 1 1 c 0 0 1 c 69 46 384 561 bl 1 1 1 c 0 0 1 c 69 45 676 754 bl 1 1 1 c 0 0 1 c 68 45 1262 1139 bl 1 1 1 c 0 0 1 c 69 46 1554 1267 bl 1 1 1 c black[ 12 12] 0 sd 9 lw 1 1 1 c black 389 231 m 3 45 d s 392 276 m 6 89 d 7 83 d 6 69 d 7 67 d
 6 41 d 5 33 d 5 25 d 6 18 d 76 -85 d 97 32 d 81 44 d 17 7 d 97 24 d 50 25 d 48 28 d 82 47 d 15 7 d 98 23 d 59 26 d 38 26 d 30 30 d 52 62 d 16 15 d 98 53 d 17 24 d 27 52 d 28 52 d 15 23 d 10 10 d 20 10 d 78 -10 d 89 -2 d 8 2 d 24 13 d 57 43 d 17 8 d
 7 7 d 9 19 d 14 43 d 16 48 d 8 19 d 6 9 d 6 2 d 6 -6 d 5 -13 d 6 -21 d 5 -28 d 4 -32 d 5 -47 d 7 -72 d 6 -78 d 6 -85 d 5 -90 d 6 -97 d 5 -102 d 5 -108 d 5 -114 d 5 -122 d 5 -130 d 2 -61 d s[  ] 0 sd 1 1 1 c black 413 231 m 5 53 d s 418 284 m 6 53 d
 5 47 d 6 42 d 5 37 d 6 32 d 7 29 d 6 24 d 7 19 d 8 14 d 9 9 d 9 3 d 11 -4 d 13 -9 d 9 -10 d 8 -16 d 9 -22 d 9 -29 d 9 -38 d 9 -38 d 9 -47 d 8 -54 d s 586 326 m 10 -63 d 4 -32 d s 735 1515 m 1 -12 d s 736 1503 m 9 -159 d 9 -166 d 9 -128 d 8 -121 d 9
 -108 d 9 -107 d 9 -78 d 8 -72 d 2 -17 d 6 -37 d 7 -27 d 7 -17 d 7 -6 d 9 7 d 10 23 d 17 56 d 16 54 d 11 23 d 8 8 d 8 8 d 10 26 d 24 87 d 10 27 d 7 10 d 7 -1 d 7 -15 d 6 -24 d 6 -39 d 5 -42 d 5 -55 d 2 -30 d 7 -91 d 6 -102 d 7 -114 d 2 -45 d s 1186
 231 m 3 38 d s 1189 269 m 4 57 d 5 55 d 6 47 d 5 38 d 5 30 d 4 22 d 5 16 d 5 9 d 4 3 d s 1232 546 m 5 -4 d 5 -10 d 5 -17 d 5 -25 d 5 -32 d 5 -39 d 5 -49 d 4 -49 d 5 -61 d 2 -29 d s 1317 231 m 7 98 d s 1324 329 m 11 122 d 9 97 d 10 97 d 9 88 d 11 85
 d 9 69 d 11 71 d 7 41 d 8 37 d 8 31 d 10 25 d 10 20 d 54 43 d 15 10 d 19 4 d 64 -14 d 32 5 d 31 7 d 17 -3 d 17 -9 d 14 -16 d 84 -149 d 5 -1 d 7 9 d 7 19 d 12 43 d 16 57 d 7 23 d 7 12 d 5 3 d 5 -4 d 5 -11 d 5 -18 d 4 -25 d 4 -31 d 4 -36 d 4 -40 d 6
 -71 d 5 -78 d 6 -83 d 5 -89 d 5 -96 d 5 -104 d 6 -111 d 5 -120 d -7 Y s 1 1 1 c black 461 1515 m 6 -124 d s 467 1391 m 5 -118 d 6 -110 d 6 -104 d 5 -82 d 6 -94 d 6 -74 d 5 -65 d 6 -55 d 4 -37 d 5 -38 d 5 -28 d 5 -19 d 5 -11 d 6 -2 d 5 5 d 5 14 d 6
 24 d 6 33 d 6 43 d 7 56 d 7 65 d 7 79 d 8 98 d 8 108 d 6 93 d 7 98 d 6 106 d 7 114 d s 633 1490 m 1 25 d s 777 1515 m 6 -118 d s 783 1397 m 7 -131 d 6 -118 d 7 -102 d 5 -76 d 6 -63 d 5 -51 d 5 -38 d 6 -29 d 6 -18 d 7 -8 d 8 5 d 9 21 d 15 52 d 15 53
 d 8 19 d 8 9 d 9 8 d 10 25 d 24 81 d 12 34 d 9 18 d 8 5 d 8 -9 d 6 -18 d 6 -28 d 5 -32 d 9 -66 d 8 -78 d 9 -91 d 8 -104 d 10 -133 d 8 -126 d 9 -142 d 2 -35 d s 1131 231 m 1 15 d s 1132 246 m 7 169 d 8 161 d 8 152 d 8 145 d 8 137 d 8 129 d 7 118 d 8
 112 d 4 60 d 7 86 d s 1345 1515 m 5 -49 d s 1350 1466 m 7 -60 d 7 -62 d 8 -56 d 8 -48 d 8 -41 d 6 -27 d 5 -20 d 6 -13 d 6 -8 d 7 X 7 7 d 9 15 d 9 24 d 27 83 d 10 23 d 8 11 d 3 3 d 20 8 d 78 -8 d 6 -4 d 7 -12 d 9 -26 d 27 -91 d 7 -17 d 6 -6 d 6 X 4 6
 d 5 13 d 5 19 d 5 28 d 4 30 d 4 36 d 2 24 d 6 64 d 5 70 d 5 74 d 1 10 d s 0 0 1 c[ 12 12] 0 sd 1 1 1 c black 0 0 1 c 390 231 m 4 57 d s 394 288 m 6 81 d 6 80 d 5 63 d 6 60 d 1 12 d 5 37 d 4 34 d 5 27 d 5 19 d 6 14 d 5 6 d 6 -1 d 7 -8 d 9 -19 d 15
 -45 d 12 -37 d 7 -16 d 7 -9 d 5 -2 d 85 -5 d 12 5 d 17 12 d 25 27 d 34 40 d 17 14 d 5 3 d 17 5 d 27 -4 d 34 -6 d 16 4 d 3 1 d 17 12 d 25 28 d 34 39 d 17 14 d 5 3 d 22 7 d 75 -7 d 7 4 d 7 12 d 9 24 d 23 75 d 8 21 d 7 10 d 5 3 d 5 -4 d 5 -10 d 5 -15 d
 5 -21 d 4 -28 d 4 -30 d 4 -41 d 6 -62 d 5 -68 d 5 -73 d 6 -78 d 5 -83 d 5 -88 d 5 -93 d s 1248 231 m 22 Y s 1248 253 m 6 136 d 5 128 d 6 122 d 5 97 d 5 105 d 6 97 d 5 88 d 6 79 d 4 57 d 4 46 d 5 45 d 5 33 d 4 25 d 5 15 d 5 10 d 6 2 d 6 -7 d 7 -18 d
 9 -29 d 24 -95 d 7 -17 d 6 -9 d 5 -1 d 23 12 d 57 44 d 17 8 d 32 5 d 66 -5 d 89 -2 d 8 2 d 24 13 d 57 43 d 17 8 d 6 7 d 7 17 d 10 34 d 20 83 d 8 28 d 7 15 d 6 5 d 5 -3 d 5 -12 d 6 -21 d 4 -26 d 5 -34 d 3 -38 d 4 -47 d 1 -8 d 6 -77 d 5 -84 d 5 -90 d
 6 -97 d 5 -103 d 5 -110 d 5 -117 d 5 -126 d 5 -135 d 5 -120 d s[  ] 0 sd 1 1 1 c black 0 0 1 c 412 231 m 2 16 d s 414 247 m 4 37 d 5 36 d 5 29 d 5 22 d 5 16 d 5 11 d 6 4 d 6 -1 d 8 -9 d 9 -19 d 30 -75 d 6 -10 d 7 -4 d 1 X 16 -4 d 47 -18 d 12 2 d 10
 6 d 11 11 d 1 3 d 9 16 d 10 25 d 12 39 d 21 75 d 18 64 d 10 30 d 9 22 d 9 18 d 12 14 d 13 9 d 13 3 d 15 -3 d 44 -23 d 16 -11 d 20 -22 d 44 -50 d 15 -12 d 3 -2 d 17 -6 d 20 -1 d 60 7 d 7 3 d 7 11 d 9 22 d 23 66 d 8 17 d 7 9 d 6 2 d 4 -4 d 6 -9 d 4
 -14 d 5 -19 d 4 -25 d 4 -28 d 4 -31 d 6 -55 d 5 -60 d 6 -64 d 5 -66 d s 1257 231 m 5 116 d s 1262 347 m 5 97 d 6 100 d 6 92 d 6 87 d 5 73 d 6 65 d 4 42 d 5 39 d 5 31 d 5 20 d 5 13 d 5 5 d 6 -2 d 7 -12 d 9 -25 d 27 -96 d 7 -13 d 5 -6 d 6 2 d 2 2 d 9
 20 d 12 31 d 16 55 d 28 103 d 14 44 d 10 25 d 8 16 d 12 13 d 14 8 d 72 -21 d 32 5 d 31 7 d 17 -3 d 17 -9 d 14 -16 d 84 -149 d 5 -1 d 7 8 d 8 20 d 12 44 d 15 55 d 8 22 d 6 11 d 6 2 d 4 -3 d 5 -12 d 5 -18 d 5 -25 d 4 -30 d 4 -37 d 3 -36 d 6 -71 d 5
 -77 d 6 -82 d 5 -89 d 5 -96 d 6 -103 d 5 -110 d 5 -119 d 1 -12 d s 1 1 1 c black 0 0 1 c 663 1515 m 4 -88 d s 667 1427 m 6 -105 d 6 -102 d 5 -80 d 6 -97 d 6 -78 d 5 -71 d 6 -63 d 4 -44 d 6 -54 d 5 -48 d 6 -40 d 5 -35 d 5 -28 d 6 -22 d 5 -17 d 6 -10
 d 5 -4 d 6 3 d 5 9 d 6 17 d 5 20 d 5 28 d 5 35 d 6 43 d 5 45 d 5 58 d 6 63 d s 814 850 m 5 69 d 5 73 d 5 78 d 6 84 d 5 90 d 5 97 d 5 104 d 3 70 d s 1473 1515 m 1 -9 d s 1474 1506 m 6 -79 d 5 -64 d 6 -66 d 4 -38 d 4 -33 d 5 -29 d 5 -22 d 4 -15 d 5 -9
 d 6 -3 d 6 3 d 6 12 d 9 22 d 13 45 d 12 39 d 7 16 d 6 9 d 6 3 d 5 -3 d 7 -12 d 9 -24 d 23 -82 d 8 -22 d 7 -12 d 6 -3 d 5 3 d 4 8 d 5 14 d 4 20 d 5 29 d 3 30 d 4 36 d s 1684 1279 m 2 18 d 5 63 d 6 69 d 5 73 d 1 13 d s 1 0 0 c[ 12 12] 0 sd 1 1 1 c
 black 1 0 0 c 389 231 m 3 45 d s 392 276 m 6 89 d 7 83 d 6 69 d 7 67 d 6 41 d 5 33 d 5 25 d 6 18 d 76 -85 d 97 32 d 81 44 d 17 7 d 97 24 d 50 25 d 48 28 d 82 47 d 15 7 d 98 23 d 59 26 d 38 26 d 30 30 d 52 62 d 16 15 d 98 53 d 17 24 d 27 52 d 28 52 d
 15 23 d 10 10 d 20 10 d 78 -10 d 89 -2 d 8 2 d 24 13 d 57 43 d 17 8 d 7 7 d 9 19 d 14 43 d 16 48 d 8 19 d 6 9 d 6 2 d 6 -6 d 5 -13 d 6 -21 d 5 -28 d 4 -32 d 5 -47 d 7 -72 d 6 -78 d 6 -85 d 5 -90 d 6 -97 d 5 -102 d 5 -108 d 5 -114 d 5 -122 d 5 -130 d
 2 -61 d s[  ] 0 sd 6 lw 1 1 1 c black 1 0 0 c 413 231 m 5 53 d s 418 284 m 6 53 d 5 47 d 6 42 d 5 37 d 6 32 d 7 29 d 6 24 d 7 19 d 8 14 d 9 9 d 9 3 d 11 -4 d 13 -9 d 9 -10 d 8 -16 d 9 -22 d 9 -29 d 9 -38 d 9 -38 d 9 -47 d 8 -54 d s 586 326 m 10 -63
 d 4 -32 d s 735 1515 m 1 -12 d s 736 1503 m 9 -159 d 9 -166 d 9 -128 d 8 -121 d 9 -108 d 9 -107 d 9 -78 d 8 -72 d 2 -17 d 6 -37 d 7 -27 d 7 -17 d 7 -6 d 9 7 d 10 23 d 17 56 d 16 54 d 11 23 d 8 8 d 8 8 d 10 26 d 24 87 d 10 27 d 7 10 d 7 -1 d 7 -15 d
 6 -24 d 6 -39 d 5 -42 d 5 -55 d 2 -30 d 7 -91 d 6 -102 d 7 -114 d 2 -45 d s 1186 231 m 3 38 d s 1189 269 m 4 57 d 5 55 d 6 47 d 5 38 d 5 30 d 4 22 d 5 16 d 5 9 d 4 3 d s 1232 546 m 5 -4 d 5 -10 d 5 -17 d 5 -25 d 5 -32 d 5 -39 d 5 -49 d 4 -49 d 5 -61
 d 2 -29 d s 1317 231 m 7 98 d s 1324 329 m 11 122 d 9 97 d 10 97 d 9 88 d 11 85 d 9 69 d 11 71 d 7 41 d 8 37 d 8 31 d 10 25 d 10 20 d 54 43 d 15 10 d 19 4 d 64 -14 d 32 5 d 31 7 d 17 -3 d 17 -9 d 14 -16 d 84 -149 d 5 -1 d 7 9 d 7 19 d 12 43 d 16 57
 d 7 23 d 7 12 d 5 3 d 5 -4 d 5 -11 d 5 -18 d 4 -25 d 4 -31 d 4 -36 d 4 -40 d 6 -71 d 5 -78 d 6 -83 d 5 -89 d 5 -96 d 5 -104 d 6 -111 d 5 -120 d -7 Y s 9 lw 1 1 1 c black 1 0 0 c 461 1515 m 6 -124 d s 467 1391 m 5 -118 d 6 -110 d 6 -104 d 5 -82 d 6
 -94 d 6 -74 d 5 -65 d 6 -55 d 4 -37 d 5 -38 d 5 -28 d 5 -19 d 5 -11 d 6 -2 d 5 5 d 5 14 d 6 24 d 6 33 d 6 43 d 7 56 d 7 65 d 7 79 d 8 98 d 8 108 d 6 93 d 7 98 d 6 106 d 7 114 d s 633 1490 m 1 25 d s 777 1515 m 6 -118 d s 783 1397 m 7 -131 d 6 -118 d
 7 -102 d 5 -76 d 6 -63 d 5 -51 d 5 -38 d 6 -29 d 6 -18 d 7 -8 d 8 5 d 9 21 d 15 52 d 15 53 d 8 19 d 8 9 d 9 8 d 10 25 d 24 81 d 12 34 d 9 18 d 8 5 d 8 -9 d 6 -18 d 6 -28 d 5 -32 d 9 -66 d 8 -78 d 9 -91 d 8 -104 d 10 -133 d 8 -126 d 9 -142 d 2 -35 d
 s 1131 231 m 1 15 d s 1132 246 m 7 169 d 8 161 d 8 152 d 8 145 d 8 137 d 8 129 d 7 118 d 8 112 d 4 60 d 7 86 d s 1345 1515 m 5 -49 d s 1350 1466 m 7 -60 d 7 -62 d 8 -56 d 8 -48 d 8 -41 d 6 -27 d 5 -20 d 6 -13 d 6 -8 d 7 X 7 7 d 9 15 d 9 24 d 27 83 d
 10 23 d 8 11 d 3 3 d 20 8 d 78 -8 d 6 -4 d 7 -12 d 9 -26 d 27 -91 d 7 -17 d 6 -6 d 6 X 4 6 d 5 13 d 5 19 d 5 28 d 4 30 d 4 36 d 2 24 d 6 64 d 5 70 d 5 74 d 1 10 d s black 1247 231 m 1284 Y s
 gr  gr showpage
end
%%EOF
