%!PS-Adobe-2.0 EPSF-2.0
%%BoundingBox:  0 0 567 384
%%Title: plots/iter_3/iterationsToys_ws_mtx_mjj/ccBelts_6_iter3.eps: 
%%Creator: ROOT Version 6.16/00
%%CreationDate: Fri Nov 13 20:35:07 2020
%%DocumentNeededResources: ProcSet (FontSetInit)
%%EndComments
%%BeginProlog
80 dict begin
/s {stroke} def /l {lineto} def /m {moveto} def /t {translate} def
/r {rotate} def /rl {roll}  def /R {repeat} def
/d {rlineto} def /rm {rmoveto} def /gr {grestore} def /f {eofill} def
/c {setrgbcolor} def /black {0 setgray} def /sd {setdash} def
/cl {closepath} def /sf {scalefont setfont} def /lw {setlinewidth} def
/box {m dup 0 exch d exch 0 d 0 exch neg d cl} def
/NC{systemdict begin initclip end}def/C{NC box clip newpath}def
/bl {box s} def /bf {gsave box gsave f grestore 1 lw [] 0 sd s grestore} def /Y { 0 exch d} def /X { 0 d} def 
/K {{pop pop 0 moveto} exch kshow} bind def
/ita {/ang 15 def gsave [1 0 ang dup sin exch cos div 1 0 0] concat} def 
/mp {newpath /y exch def /x exch def} def
/side {[w .77 mul w .23 mul] .385 w mul sd w 0 l currentpoint t -144 r} def
/mr {mp x y w2 0 360 arc} def /m24 {mr s} def /m20 {mr f} def
/mb {mp x y w2 add m w2 neg 0 d 0 w neg d w 0 d 0 w d cl} def
/mt {mp x y w2 add m w2 neg w neg d w 0 d cl} def
/w4 {w 4 div} def
/w6 {w 6 div} def
/w8 {w 8 div} def
/m21 {mb f} def /m25 {mb s} def /m22 {mt f} def /m26{mt s} def
/m23 {mp x y w2 sub m w2 w d w neg 0 d cl f} def
/m27 {mp x y w2 add m w3 neg w2 neg d w3 w2 neg d w3 w2 d cl s} def
/m28 {mp x w2 sub y w2 sub w3 add m w3 0 d  0 w3 neg d w3 0 d 0 w3 d w3 0 d  0 w3 d w3 neg 0 d 0 w3 d w3 neg 0 d 0 w3 neg d w3 neg 0 d cl s } def
/m29 {mp gsave x w2 sub y w2 add w3 sub m currentpoint t 4 {side} repeat cl fill gr} def
/m30 {mp gsave x w2 sub y w2 add w3 sub m currentpoint t 4 {side} repeat cl s gr} def
/m31 {mp x y w2 sub m 0 w d x w2 sub y m w 0 d x w2 sub y w2 add m w w neg d x w2 sub y w2 sub m w w d s} def
/m32 {mp x y w2 sub m w2 w d w neg 0 d cl s} def
/m33 {mp x y w2 add m w3 neg w2 neg d w3 w2 neg d w3 w2 d cl f} def
/m34 {mp x w2 sub y w2 sub w3 add m w3 0 d  0 w3 neg d w3 0 d 0 w3 d w3 0 d  0 w3 d w3 neg 0 d 0 w3 d w3 neg 0 d 0 w3 neg d w3 neg 0 d cl f } def
/m35 {mp x y w2 add m w2 neg w2 neg d w2 w2 neg d w2 w2 d w2 neg w2 d x y w2 sub m 0 w d x w2 sub y m w 0 d s} def
/m36 {mb x w2 sub y w2 add m w w neg d x w2 sub y w2 sub m w w d s} def
/m37 {mp x y m w4 neg w2 d w4 neg w2 neg d w2 0 d  w4 neg w2 neg d w2 0 d w4 neg w2 d w2 0 d w4 neg w2 d w4 neg w2 neg d cl s} def
/m38 {mp x w4 sub y w2 add m w4 neg w4 neg d 0 w2 neg d w4 w4 neg d w2 0 d w4 w4 d 0 w2 d w4 neg w4 d w2 neg 0 d x y w2 sub m 0 w d x w2 sub y m w 0 d cl s} def
/m39 {mp x y m w4 neg w2 d w4 neg w2 neg d w2 0 d  w4 neg w2 neg d w2 0 d w4 neg w2 d w2 0 d w4 neg w2 d w4 neg w2 neg d cl f} def
/m40 {mp x y m w4 w2 d w4 w4 neg d w2 neg w4 neg d w2 w4 neg d w4 neg w4 neg d w4 neg w2 d w4 neg w2 neg d w4 neg w4 d w2 w4 d w2 neg w4 d w4 w4 d w4 w2 neg d cl s} def
/m41 {mp x y m w4 w2 d w4 w4 neg d w2 neg w4 neg d w2 w4 neg d w4 neg w4 neg d w4 neg w2 d w4 neg w2 neg d w4 neg w4 d w2 w4 d w2 neg w4 d w4 w4 d w4 w2 neg d cl f} def
/m42 {mp x y w2 add m w8 neg w2 -3 4 div mul d w2 -3 4 div mul w8 neg d w2 3 4 div mul w8 neg d w8 w2 -3 4 div mul d w8 w2 3 4 div mul d w2 3 4 div mul w8 d w2 -3 4 div mul w8 d w8 neg w2 3 4 div mul d cl s} def
/m43 {mp x y w2 add m w8 neg w2 -3 4 div mul d w2 -3 4 div mul w8 neg d w2 3 4 div mul w8 neg d w8 w2 -3 4 div mul d w8 w2 3 4 div mul d w2 3 4 div mul w8 d w2 -3 4 div mul w8 d w8 neg w2 3 4 div mul d cl f} def
/m44 {mp x y m w6 neg w2 d w2 2 3 div mul 0 d w6 neg w2 neg d w2 w6 d 0 w2 -2 3 div mul d w2 neg w6 d w6 w2 neg d w2 -2 3 div mul 0 d w6 w2 d w2 neg w6 neg d 0 w2 2 3 div mul d w2 w6 neg d cl s} def
/m45 {mp x y m w6 neg w2 d w2 2 3 div mul 0 d w6 neg w2 neg d w2 w6 d 0 w2 -2 3 div mul d w2 neg w6 d w6 w2 neg d w2 -2 3 div mul 0 d w6 w2 d w2 neg w6 neg d 0 w2 2 3 div mul d w2 w6 neg d cl f} def
/m46 {mp x y w4 add m w4 neg w4 d w4 neg w4 neg d  w4 w4 neg d w4 neg w4 neg d w4 w4 neg d w4 w4 d w4 w4 neg d w4 w4 d w4 neg w4 d w4 w4 d w4 neg w4 d w4 neg w4 neg d cl s} def
/m47 {mp x y w4 add m w4 neg w4 d w4 neg w4 neg d w4 w4 neg d w4 neg w4 neg d  w4 w4 neg d w4 w4 d w4 w4 neg d w4 w4 d w4 neg w4 d w4 w4 d w4 neg w4 d w4 neg w4 neg d cl f} def
/m48 {mp x y w4 add m w4 neg w4 d w4 neg w4 neg d w4 w4 neg d  w4 neg w4 neg d w4 w4 neg d w4 w4 d w4 w4 neg d w4 w4 d w4 neg w4 d w4 w4 d w4 neg w4 d w4 neg w4 neg d  w4 w4 neg d w4 neg w4 neg d w4 neg w4 d w4 w4 d cl f} def
/m49 {mp x w2 sub w3 add y w2 sub w3 add m  0 w3 neg d w3 0 d 0 w3 d w3 0 d 0 w3 d w3 neg 0 d 0 w3 d w3 neg 0 d 0 w3 neg d w3 neg 0 d 0 w3 neg d w3 0 d 0 w3 d w3 0 d 0 w3 neg d w3 neg 0 d cl f } def
/m2 {mp x y w2 sub m 0 w d x w2 sub y m w 0 d s} def
/m5 {mp x w2 sub y w2 sub m w w d x w2 sub y w2 add m w w neg d s} def
%%IncludeResource: ProcSet (FontSetInit)
%%IncludeResource: font Times-Roman
%%IncludeResource: font Times-Italic
%%IncludeResource: font Times-Bold
%%IncludeResource: font Times-BoldItalic
%%IncludeResource: font Helvetica
%%IncludeResource: font Helvetica-Oblique
%%IncludeResource: font Helvetica-Bold
%%IncludeResource: font Helvetica-BoldOblique
%%IncludeResource: font Courier
%%IncludeResource: font Courier-Oblique
%%IncludeResource: font Courier-Bold
%%IncludeResource: font Courier-BoldOblique
%%IncludeResource: font Symbol
%%IncludeResource: font ZapfDingbats
/reEncode {exch findfont dup length dict begin {1 index /FID eq  {pop pop} {def} ifelse } forall /Encoding exch def currentdict end dup /FontName get exch definefont pop } def [/Times-Bold /Times-Italic /Times-BoldItalic /Helvetica /Helvetica-Oblique
 /Helvetica-Bold /Helvetica-BoldOblique /Courier /Courier-Oblique /Courier-Bold /Courier-BoldOblique /Times-Roman /AvantGarde-Book /AvantGarde-BookOblique /AvantGarde-Demi /AvantGarde-DemiOblique /Bookman-Demi /Bookman-DemiItalic /Bookman-Light
 /Bookman-LightItalic /Helvetica-Narrow /Helvetica-Narrow-Bold /Helvetica-Narrow-BoldOblique /Helvetica-Narrow-Oblique /NewCenturySchlbk-Roman /NewCenturySchlbk-Bold /NewCenturySchlbk-BoldItalic /NewCenturySchlbk-Italic /Palatino-Bold
 /Palatino-BoldItalic /Palatino-Italic /Palatino-Roman ] {ISOLatin1Encoding reEncode } forall
%%EndProlog
%%BeginSetup
%%EndSetup
newpath  gsave  .25 .25 scale  gsave  0 0 t black[  ] 0 sd 3 lw 1 1 1 c 2268 1538 0 0 bf black 1 1 1 c 1950 1284 272 231 bf black 1950 1284 272 231 bl 1 1 1 c 6 lw black 1 1 1 c 272 247 m 1950 X -16 Y s black 3 lw 272 231 m 1950 X s 297 270 m -39 Y s
 380 251 m -20 Y s 464 251 m -20 Y s 547 251 m -20 Y s 631 251 m -20 Y s 714 270 m -39 Y s 798 251 m -20 Y s 881 251 m -20 Y s 965 251 m -20 Y s 1049 251 m -20 Y s 1132 270 m -39 Y s 1216 251 m -20 Y s 1299 251 m -20 Y s 1383 251 m -20 Y s 1466 251 m
 -20 Y s 1550 270 m -39 Y s 1633 251 m -20 Y s 1717 251 m -20 Y s 1801 251 m -20 Y s 1884 251 m -20 Y s 1968 270 m -39 Y s 297 270 m -39 Y s 1968 270 m -39 Y s 2051 251 m -20 Y s 2135 251 m -20 Y s 2218 251 m -20 Y s
 gsave  2268 1538 0 0 C 280.206 172.685 t 0 r /Helvetica findfont 61.9061 sf 0 0 m (0) show NC gr 
 gsave  2268 1538 0 0 C 651.643 172.685 t 0 r /Helvetica findfont 61.9061 sf 0 0 m (0.05) show NC gr 
 gsave  2268 1538 0 0 C 1091.5 172.685 t 0 r /Helvetica findfont 61.9061 sf 0 0 m (0.1) show NC gr 
 gsave  2268 1538 0 0 C 1485.75 172.685 t 0 r /Helvetica findfont 61.9061 sf 0 0 m (0.15) show NC gr 
 gsave  2268 1538 0 0 C 1922.35 172.685 t 0 r /Helvetica findfont 61.9061 sf 0 0 m (0.2) show NC gr 
 gsave  2268 1538 0 0 C 2101.55 78.1971 t 0 r /Helvetica findfont 74.9389 sf 0 0 m ( [fb]) show NC gr 
 gsave  2268 1538 0 0 C 1987.51 52.1314 t 0 r /Helvetica findfont 52.1314 sf 0 0 m (fit) show NC gr 
 gsave  2268 1538 0 0 C 1987.51 110.779 t 0 r /Helvetica findfont 52.1314 sf 0 0 m (bin,6) show NC gr 
 gsave  2268 1538 0 0 C 1941.9 78.1971 t 0 r /Symbol findfont 74.9389 sf 0 0 m (s) show NC gr  272 1515 m 1950 X s 297 1475 m 40 Y s 380 1495 m 20 Y s 464 1495 m 20 Y s 547 1495 m 20 Y s 631 1495 m 20 Y s 714 1475 m 40 Y s 798 1495 m 20 Y s 881 1495
 m 20 Y s 965 1495 m 20 Y s 1049 1495 m 20 Y s 1132 1475 m 40 Y s 1216 1495 m 20 Y s 1299 1495 m 20 Y s 1383 1495 m 20 Y s 1466 1495 m 20 Y s 1550 1475 m 40 Y s 1633 1495 m 20 Y s 1717 1495 m 20 Y s 1801 1495 m 20 Y s 1884 1495 m 20 Y s 1968 1475 m
 40 Y s 297 1475 m 40 Y s 1968 1475 m 40 Y s 2051 1495 m 20 Y s 2135 1495 m 20 Y s 2218 1495 m 20 Y s 272 231 m 1284 Y s 329 247 m -57 X s 301 302 m -29 X s 301 357 m -29 X s 301 412 m -29 X s 301 467 m -29 X s 329 522 m -57 X s 301 577 m -29 X s 301
 632 m -29 X s 301 687 m -29 X s 301 742 m -29 X s 329 797 m -57 X s 301 852 m -29 X s 301 907 m -29 X s 301 962 m -29 X s 301 1017 m -29 X s 329 1072 m -57 X s 301 1127 m -29 X s 301 1182 m -29 X s 301 1237 m -29 X s 301 1292 m -29 X s 329 1347 m
 -57 X s 329 247 m -57 X s 329 1347 m -57 X s 301 1402 m -29 X s 301 1457 m -29 X s 301 1512 m -29 X s
 gsave  2268 1538 0 0 C 228.075 224.817 t 0 r /Helvetica findfont 61.9061 sf 0 0 m (0) show NC gr 
 gsave  2268 1538 0 0 C 140.103 501.765 t 0 r /Helvetica findfont 61.9061 sf 0 0 m (0.05) show NC gr 
 gsave  2268 1538 0 0 C 185.718 775.455 t 0 r /Helvetica findfont 61.9061 sf 0 0 m (0.1) show NC gr 
 gsave  2268 1538 0 0 C 140.103 1052.4 t 0 r /Helvetica findfont 61.9061 sf 0 0 m (0.15) show NC gr 
 gsave  2268 1538 0 0 C 175.944 1326.09 t 0 r /Helvetica findfont 61.9061 sf 0 0 m (0.2) show NC gr 
 gsave  2268 1538 0 0 C 120.554 1394.52 t 90 r /Helvetica findfont 74.9389 sf 0 0 m ( [fb]) show NC gr 
 gsave  2268 1538 0 0 C 146.62 1280.48 t 90 r /Helvetica findfont 52.1314 sf 0 0 m (true) show NC gr 
 gsave  2268 1538 0 0 C 87.9718 1280.48 t 90 r /Helvetica findfont 52.1314 sf 0 0 m (bin,6) show NC gr 
 gsave  2268 1538 0 0 C 120.554 1234.86 t 90 r /Symbol findfont 74.9389 sf 0 0 m (s) show NC gr  2222 231 m 1284 Y s 2166 247 m 56 X s 2194 302 m 28 X s 2194 357 m 28 X s 2194 412 m 28 X s 2194 467 m 28 X s 2166 522 m 56 X s 2194 577 m 28 X s 2194
 632 m 28 X s 2194 687 m 28 X s 2194 742 m 28 X s 2166 797 m 56 X s 2194 852 m 28 X s 2194 907 m 28 X s 2194 962 m 28 X s 2194 1017 m 28 X s 2166 1072 m 56 X s 2194 1127 m 28 X s 2194 1182 m 28 X s 2194 1237 m 28 X s 2194 1292 m 28 X s 2166 1347 m 56
 X s 2166 247 m 56 X s 2166 1347 m 56 X s 2194 1402 m 28 X s 2194 1457 m 28 X s 2194 1512 m 28 X s 1 0 0 c 1 1 1 c 1 0 0 c 40 26 398 507 bl 1 1 1 c 1 0 0 c 56 37 488 565 bl 1 1 1 c 1 0 0 c 40 26 496 635 bl 1 1 1 c 1 0 0 c 79 52 574 622 bl 1 1 1 c 1 0
 0 c 39 26 594 699 bl 1 1 1 c 1 0 0 c 69 45 676 690 bl 1 1 1 c 1 0 0 c 40 27 691 763 bl 1 1 1 c 1 0 0 c 97 64 760 809 bl 1 1 1 c 1 0 0 c 40 26 886 828 bl 1 1 1 c 1 0 0 c 40 26 886 892 bl 1 1 1 c 1 0 0 c 97 64 955 937 bl 1 1 1 c 1 0 0 c 40 26 1081 956
 bl 1 1 1 c 1 0 0 c 80 52 1061 1007 bl 1 1 1 c 1 0 0 c 69 45 1164 1075 bl 1 1 1 c 1 0 0 c 39 26 1179 1149 bl 1 1 1 c 1 0 0 c 56 37 1268 1143 bl 1 1 1 c 1 0 0 c 40 26 1471 1277 bl 1 1 1 c 1 0 0 c 39 26 1569 1341 bl 1 1 1 c black 1 1 1 c black 40 26
 398 507 bl 1 1 1 c black 56 37 488 565 bl 1 1 1 c black 40 26 496 635 bl 1 1 1 c black 79 52 574 622 bl 1 1 1 c black 39 26 594 699 bl 1 1 1 c black 80 52 671 686 bl 1 1 1 c black 40 27 691 763 bl 1 1 1 c black 57 37 780 758 bl 1 1 1 c black 97 64
 760 809 bl 1 1 1 c black 40 26 886 828 bl 1 1 1 c black 69 46 871 882 bl 1 1 1 c black 39 26 984 892 bl 1 1 1 c black 97 64 955 937 bl 1 1 1 c black 40 26 1081 956 bl 1 1 1 c black 89 59 1056 1004 bl 1 1 1 c black 69 45 1164 1075 bl 1 1 1 c black 39
 26 1179 1149 bl 1 1 1 c black 56 37 1268 1143 bl 1 1 1 c black 39 26 1374 1149 bl 1 1 1 c black 40 26 1471 1277 bl 1 1 1 c black 39 26 1569 1341 bl 1 1 1 c 0 0 1 c 1 1 1 c 0 0 1 c 56 37 293 373 bl 1 1 1 c 0 0 1 c 40 26 301 507 bl 1 1 1 c 0 0 1 c 56
 37 293 565 bl 1 1 1 c 0 0 1 c 89 58 276 619 bl 1 1 1 c 0 0 1 c 80 52 281 686 bl 1 1 1 c 0 0 1 c 40 27 301 763 bl 1 1 1 c 0 0 1 c 98 64 272 809 bl 1 1 1 c 0 0 1 c 40 26 301 892 bl 1 1 1 c 0 0 1 c 98 64 272 937 bl 1 1 1 c 0 0 1 c 80 52 281 1007 bl 1 1
 1 c 0 0 1 c 69 45 286 1075 bl 1 1 1 c 0 0 1 c 69 45 286 1139 bl 1 1 1 c 0 0 1 c 40 26 301 1277 bl 1 1 1 c 0 0 1 c 40 26 301 1341 bl 1 1 1 c black[ 12 12] 0 sd 9 lw 1 1 1 c black 321 434 m 41 23 d 43 28 d 13 9 d 33 25 d 65 52 d 33 30 d 33 30 d 19 14
 d 12 8 d 17 7 d 81 16 d 21 11 d 45 30 d 26 16 d 5 3 d 98 40 d 20 14 d 36 30 d 31 25 d 10 8 d 51 35 d 34 20 d 13 7 d 25 10 d 60 21 d 12 6 d 20 13 d 28 23 d 29 23 d 17 12 d 4 2 d 18 7 d 80 18 d 25 13 d 36 24 d 36 25 d 39 29 d 39 29 d 20 13 d 79 32 d
 18 11 d 14 12 d 20 21 d 32 38 d 16 15 d 12 8 d 4 2 d 97 X 7 3 d 8 7 d 10 14 d 22 35 d 8 10 d 7 6 d 6 3 d 6 -1 d 6 -4 d 5 -8 d 5 -10 d 4 -12 d 4 -11 d 3 -15 d 4 -19 d 4 -26 d 4 -26 d 3 -30 d 4 -34 d 3 -39 d 4 -50 d 4 -55 d 4 -67 d 6 -91 d 16 -274 d 4
 -76 d 5 -60 d 3 -49 d 4 -38 d 3 -31 d 3 -32 d 4 -28 d 4 -25 d 3 -20 d 4 -17 d 1 -5 d 5 -16 d s 2169 231 m 5 16 d s[  ] 0 sd 1 1 1 c black 554 1515 m 3 -56 d s 557 1459 m 5 -106 d 5 -102 d 6 -97 d 5 -91 d 6 -85 d 4 -69 d 6 -75 d 5 -69 d 5 -63 d 5 -56
 d 4 -39 d 6 -47 d 5 -40 d 5 -34 d 5 -28 d 5 -23 d 5 -18 d 5 -13 d 6 -8 d 5 -3 d 6 3 d 6 8 d 6 15 d 5 18 d 6 26 d 6 32 d 6 38 d 7 44 d 3 26 d s 711 603 m 6 48 d 5 53 d 6 57 d 5 62 d 6 67 d 6 74 d 5 80 d 6 86 d 6 93 d 6 99 d 6 110 d 5 83 d s 927 231 m
 1 31 d s 928 262 m 4 108 d 5 101 d 4 97 d 4 92 d 4 88 d 5 84 d 4 80 d 5 76 d 4 72 d 5 65 d 5 63 d 4 48 d 5 56 d 5 44 d 4 38 d 5 31 d 3 21 d 4 16 d 3 10 d 3 4 d 4 X 4 -7 d 4 -14 d 4 -21 d 5 -27 d 5 -38 d 5 -47 d 7 -63 d 9 -99 d 14 -149 d 6 -63 d 6
 -49 d 5 -40 d 4 -28 d 4 -23 d 2 -9 d 10 -41 d 11 -36 d 12 -34 d 10 -23 d 10 -20 d 11 -15 d 12 -9 d 11 -3 d 10 1 d 7 6 d 6 11 d 8 19 d 9 30 d 12 45 d 17 66 d 10 33 d 8 22 d 7 15 d 6 8 d 6 2 d 2 X 8 -6 d 9 -11 d 9 -18 d 10 -24 d 9 -30 d s 1341 767 m
 11 -38 d 11 -46 d 12 -57 d 13 -69 d 6 -28 d 11 -64 d 11 -70 d 12 -78 d 9 -70 d 2 -16 d s 1742 231 m 5 162 d s 1747 393 m 6 168 d 5 135 d 6 160 d 5 131 d 5 119 d 6 107 d 4 74 d 4 65 d 4 56 d 4 51 d 5 38 d 3 18 d s 1831 1515 m 6 -27 d s 1837 1488 m 15
 -81 d 12 -66 d 8 -33 d 6 -17 d 3 -4 d 30 -15 d 21 -14 d 15 -21 d 10 -27 d 10 -31 d 9 -41 d 3 -13 d 7 -43 d 7 -59 d 9 -82 d 12 -118 d 33 -354 d 9 -88 d 7 -58 d 7 -45 d 6 -31 d 4 -16 d s 2170 231 m 4 16 d s 1 1 1 c black 321 497 m 5 -99 d 5 -88 d 5
 -76 d 1 -3 d s 415 231 m 3 46 d s 418 277 m 6 86 d 5 93 d 5 102 d 5 108 d 5 117 d 5 124 d 5 134 d 5 145 d s 459 1186 m 5 155 d 5 167 d 7 Y s 576 1515 m 2 -55 d s 578 1460 m 5 -126 d 6 -125 d 6 -115 d 6 -113 d 6 -90 d 6 -98 d 6 -79 d 6 -68 d 6 -58 d
 6 -50 d 5 -41 d 6 -32 d 5 -23 d 6 -15 d 5 -5 d 6 5 d 5 13 d 6 24 d 4 27 d 6 46 d 6 50 d 5 59 d 5 65 d 4 64 d 5 90 d 6 97 d s 722 962 m 5 104 d 5 112 d 5 119 d 5 128 d 3 90 d s 891 1515 m 2 -21 d s 893 1494 m 5 -35 d 3 -23 d 5 -19 d 4 -9 d 4 -1 d 5 7
 d s 919 1414 m 4 16 d 4 23 d 4 31 d 4 31 d s 1074 1515 m 4 -64 d s 1078 1451 m 8 -122 d 7 -98 d 8 -96 d 6 -56 d 5 -44 d 6 -34 d 7 -23 d 7 -13 d 8 X 10 15 d 17 45 d 16 46 d 9 15 d 6 4 d 27 7 d 45 23 d 19 X 7 -3 d 31 -22 d 22 -24 d 18 -29 d 18 -40 d 9
 -24 d 29 -78 d 16 -48 d 13 -47 d 12 -62 d 10 -58 d 8 -63 d 9 -78 d 11 -112 d 11 -124 d 6 -77 d s 1725 231 m 8 Y s 1725 239 m 7 175 d 7 162 d 7 152 d 6 120 d 6 129 d 7 119 d 7 106 d 7 93 d 5 63 d 4 46 d 5 39 d 5 27 d 5 15 d 78 -127 d 9 68 d 8 80 d 1
 9 d s 2016 1515 m 4 -105 d s 2020 1410 m 5 -145 d 5 -139 d 6 -132 d 5 -124 d 5 -117 d 5 -94 d 5 -102 d 6 -95 d 5 -86 d 5 -77 d 4 -52 d 1 -16 d s 2172 231 m 2 16 d s 0 0 1 c[ 12 12] 0 sd 1 1 1 c black 0 0 1 c 321 247 m 1853 X s[  ] 0 sd 1 1 1 c black
 0 0 1 c 321 247 m 1853 X s 1 1 1 c black 0 0 1 c 321 247 m 1853 X s 1 0 0 c[ 12 12] 0 sd 1 1 1 c black 1 0 0 c 321 434 m 41 23 d 43 28 d 13 9 d 36 27 d 62 50 d 32 28 d 32 27 d 17 13 d 16 9 d 14 4 d 84 6 d 15 8 d 15 12 d 45 39 d 16 12 d 6 4 d 16 6 d
 23 4 d 34 5 d 14 5 d 11 6 d 14 11 d 18 18 d 31 36 d 21 23 d 13 13 d 33 25 d 29 20 d 36 19 d 20 8 d 68 18 d 9 4 d 17 12 d 24 21 d 30 28 d 14 11 d 13 7 d 14 5 d 84 3 d 16 8 d 18 12 d 63 48 d 76 55 d 22 14 d 97 48 d 16 14 d 22 24 d 28 33 d 16 15 d 12 9
 d 4 1 d 97 X 7 3 d 8 7 d 10 14 d 22 35 d 8 10 d 7 6 d 6 3 d 6 -1 d 6 -4 d 5 -8 d 5 -10 d 4 -12 d 4 -11 d 3 -15 d 4 -19 d 4 -26 d 4 -26 d 3 -30 d 4 -34 d 3 -39 d 4 -50 d 4 -55 d 4 -67 d 6 -91 d 16 -274 d 4 -76 d 5 -60 d 3 -49 d 4 -38 d 3 -31 d 3 -32
 d 4 -28 d 4 -25 d 3 -20 d 4 -17 d 1 -5 d 5 -16 d s 2169 231 m 5 16 d s[  ] 0 sd 6 lw 1 1 1 c black 1 0 0 c 554 1515 m 8 -156 d s 562 1359 m 8 -152 d 10 -178 d 9 -141 d 9 -123 d 9 -105 d 6 -66 d 7 -55 d 7 -42 d 8 -28 d 8 -14 d 10 4 d 10 20 d 17 51 d
 17 48 d 10 16 d 4 1 d 7 10 d 9 31 d 12 69 d 18 106 d 8 35 d 7 18 d 6 3 d 7 -16 d 6 -30 d 6 -50 d 4 -55 d 5 -72 d 2 -40 d 7 -124 d 6 -138 d 5 -111 d s 986 231 m 5 161 d s 991 392 m 10 337 d 2 79 d 11 313 d 10 296 d 4 98 d s 1160 1515 m 1 -26 d s 1161
 1489 m 9 -153 d 9 -152 d 9 -114 d 8 -104 d 2 -26 d 6 -45 d 5 -27 d 5 -10 d 6 6 d 8 26 d 10 63 d 18 119 d 7 38 d 7 16 d 5 -1 d 6 -16 d 5 -33 d 4 -42 d 4 -57 d 2 -27 d 7 -116 d 6 -130 d 7 -146 d 6 -163 d 6 -164 d s 1462 231 m 3 88 d s 1465 319 m 6 125
 d 5 116 d 6 106 d 5 94 d 4 72 d 5 76 d 5 66 d 5 55 d 5 45 d 5 37 d 5 29 d 6 20 d 5 12 d 5 3 d 6 -7 d 6 -16 d 6 -28 d 5 -31 d 6 -46 d 6 -57 d 7 -66 d 6 -78 d 4 -45 d s 1589 801 m 5 -83 d 6 -89 d 6 -98 d 5 -106 d 6 -116 d 3 -78 d s 1738 231 m 4 126 d
 s 1742 357 m 5 151 d 6 147 d 5 117 d 6 140 d 5 114 d 5 103 d 6 93 d 4 65 d 4 56 d 4 49 d 4 45 d 5 33 d 5 24 d 5 15 d 5 6 d s 1817 1515 m 5 -3 d s 1822 1512 m 6 -15 d 8 -28 d 15 -73 d 13 -61 d 8 -30 d 6 -15 d 3 -3 d 25 -13 d 22 -12 d 13 -15 d 12 -25
 d 9 -27 d 9 -33 d 8 -37 d 6 -40 d 7 -53 d 8 -72 d 10 -96 d 20 -222 d 15 -151 d 9 -95 d 8 -61 d 6 -44 d 6 -36 d 2 -8 d 4 -16 d s 2170 231 m 4 16 d s 9 lw 1 1 1 c black 1 0 0 c 321 497 m 5 -99 d 5 -88 d 5 -76 d 1 -3 d s 415 231 m 3 46 d s 418 277 m 6
 86 d 5 93 d 5 102 d 5 108 d 5 117 d 5 124 d 5 134 d 5 145 d s 459 1186 m 5 155 d 5 167 d 7 Y s 575 1515 m 7 -167 d s 582 1348 m 7 -163 d 8 -162 d 7 -124 d 8 -116 d 1 -25 d 6 -70 d 6 -54 d 5 -41 d 7 -29 d 6 -15 d 8 1 d 10 20 d 14 52 d 18 75 d 10 26 d
 8 7 d 9 7 d 10 28 d 24 93 d 13 37 d 9 11 d 8 -7 d 6 -21 d 7 -35 d 5 -43 d 6 -67 d 8 -98 d 8 -114 d 7 -131 d 8 -148 d 1 -11 d s 982 231 m s 982 231 m 13 367 d 8 275 d 13 408 d 7 234 d s 1178 1515 m 2 -50 d s 1180 1465 m 7 -150 d 6 -130 d 5 -95 d 5
 -64 d 5 -55 d 5 -37 d 5 -20 d 5 -4 d 6 13 d 8 34 d 8 54 d 17 131 d 8 42 d 6 22 d 7 4 d 4 -11 d 5 -25 d 4 -34 d 8 -91 d 9 -109 d 9 -126 d 8 -143 d 10 -179 d 8 -168 d 4 -93 d s 1434 231 m 1 24 d s 1435 255 m 5 117 d 6 112 d 5 106 d 6 113 d 5 90 d 6 87
 d 5 81 d 6 81 d 5 65 d 6 61 d 1 14 d 5 53 d 6 45 d 5 39 d 5 33 d 5 27 d 5 22 d 5 16 d 6 11 d 5 5 d 6 -2 d 5 -8 d 6 -15 d 6 -18 d 6 -31 d 6 -33 d 6 -41 d 6 -46 d 4 -35 d s 1589 1204 m 5 -55 d 6 -59 d 5 -64 d 5 -70 d 6 -75 d 5 -82 d 6 -88 d 5 -95 d 6
 -103 d 5 -110 d 6 -116 d 3 -56 d s 1718 231 m 2 57 d s 1720 288 m 7 160 d 7 150 d 8 150 d 6 118 d 7 119 d 7 109 d 8 102 d 6 83 d 8 79 d 4 39 d 5 33 d 5 21 d 5 11 d 6 X 7 -11 d 8 -27 d 28 -109 d 6 -15 d 6 -3 d 6 7 d 4 15 d 5 25 d 2 14 d 8 64 d 8 74 d
 2 19 d s 2016 1515 m 4 -105 d s 2020 1410 m 5 -145 d 5 -139 d 6 -132 d 5 -124 d 5 -117 d 5 -94 d 5 -102 d 6 -95 d 5 -86 d 5 -77 d 4 -52 d 1 -16 d s 2172 231 m 2 16 d s black 1247 231 m 1284 Y s
 gr  gr showpage
end
%%EOF
