%!PS-Adobe-2.0 EPSF-2.0
%%BoundingBox:  0 0 567 384
%%Title: plots/iter_3/iterationsToys_ws_mtx_mjj/ccBelts_2_iter3.eps: 
%%Creator: ROOT Version 6.16/00
%%CreationDate: Fri Nov 13 20:34:59 2020
%%DocumentNeededResources: ProcSet (FontSetInit)
%%EndComments
%%BeginProlog
80 dict begin
/s {stroke} def /l {lineto} def /m {moveto} def /t {translate} def
/r {rotate} def /rl {roll}  def /R {repeat} def
/d {rlineto} def /rm {rmoveto} def /gr {grestore} def /f {eofill} def
/c {setrgbcolor} def /black {0 setgray} def /sd {setdash} def
/cl {closepath} def /sf {scalefont setfont} def /lw {setlinewidth} def
/box {m dup 0 exch d exch 0 d 0 exch neg d cl} def
/NC{systemdict begin initclip end}def/C{NC box clip newpath}def
/bl {box s} def /bf {gsave box gsave f grestore 1 lw [] 0 sd s grestore} def /Y { 0 exch d} def /X { 0 d} def 
/K {{pop pop 0 moveto} exch kshow} bind def
/ita {/ang 15 def gsave [1 0 ang dup sin exch cos div 1 0 0] concat} def 
/mp {newpath /y exch def /x exch def} def
/side {[w .77 mul w .23 mul] .385 w mul sd w 0 l currentpoint t -144 r} def
/mr {mp x y w2 0 360 arc} def /m24 {mr s} def /m20 {mr f} def
/mb {mp x y w2 add m w2 neg 0 d 0 w neg d w 0 d 0 w d cl} def
/mt {mp x y w2 add m w2 neg w neg d w 0 d cl} def
/w4 {w 4 div} def
/w6 {w 6 div} def
/w8 {w 8 div} def
/m21 {mb f} def /m25 {mb s} def /m22 {mt f} def /m26{mt s} def
/m23 {mp x y w2 sub m w2 w d w neg 0 d cl f} def
/m27 {mp x y w2 add m w3 neg w2 neg d w3 w2 neg d w3 w2 d cl s} def
/m28 {mp x w2 sub y w2 sub w3 add m w3 0 d  0 w3 neg d w3 0 d 0 w3 d w3 0 d  0 w3 d w3 neg 0 d 0 w3 d w3 neg 0 d 0 w3 neg d w3 neg 0 d cl s } def
/m29 {mp gsave x w2 sub y w2 add w3 sub m currentpoint t 4 {side} repeat cl fill gr} def
/m30 {mp gsave x w2 sub y w2 add w3 sub m currentpoint t 4 {side} repeat cl s gr} def
/m31 {mp x y w2 sub m 0 w d x w2 sub y m w 0 d x w2 sub y w2 add m w w neg d x w2 sub y w2 sub m w w d s} def
/m32 {mp x y w2 sub m w2 w d w neg 0 d cl s} def
/m33 {mp x y w2 add m w3 neg w2 neg d w3 w2 neg d w3 w2 d cl f} def
/m34 {mp x w2 sub y w2 sub w3 add m w3 0 d  0 w3 neg d w3 0 d 0 w3 d w3 0 d  0 w3 d w3 neg 0 d 0 w3 d w3 neg 0 d 0 w3 neg d w3 neg 0 d cl f } def
/m35 {mp x y w2 add m w2 neg w2 neg d w2 w2 neg d w2 w2 d w2 neg w2 d x y w2 sub m 0 w d x w2 sub y m w 0 d s} def
/m36 {mb x w2 sub y w2 add m w w neg d x w2 sub y w2 sub m w w d s} def
/m37 {mp x y m w4 neg w2 d w4 neg w2 neg d w2 0 d  w4 neg w2 neg d w2 0 d w4 neg w2 d w2 0 d w4 neg w2 d w4 neg w2 neg d cl s} def
/m38 {mp x w4 sub y w2 add m w4 neg w4 neg d 0 w2 neg d w4 w4 neg d w2 0 d w4 w4 d 0 w2 d w4 neg w4 d w2 neg 0 d x y w2 sub m 0 w d x w2 sub y m w 0 d cl s} def
/m39 {mp x y m w4 neg w2 d w4 neg w2 neg d w2 0 d  w4 neg w2 neg d w2 0 d w4 neg w2 d w2 0 d w4 neg w2 d w4 neg w2 neg d cl f} def
/m40 {mp x y m w4 w2 d w4 w4 neg d w2 neg w4 neg d w2 w4 neg d w4 neg w4 neg d w4 neg w2 d w4 neg w2 neg d w4 neg w4 d w2 w4 d w2 neg w4 d w4 w4 d w4 w2 neg d cl s} def
/m41 {mp x y m w4 w2 d w4 w4 neg d w2 neg w4 neg d w2 w4 neg d w4 neg w4 neg d w4 neg w2 d w4 neg w2 neg d w4 neg w4 d w2 w4 d w2 neg w4 d w4 w4 d w4 w2 neg d cl f} def
/m42 {mp x y w2 add m w8 neg w2 -3 4 div mul d w2 -3 4 div mul w8 neg d w2 3 4 div mul w8 neg d w8 w2 -3 4 div mul d w8 w2 3 4 div mul d w2 3 4 div mul w8 d w2 -3 4 div mul w8 d w8 neg w2 3 4 div mul d cl s} def
/m43 {mp x y w2 add m w8 neg w2 -3 4 div mul d w2 -3 4 div mul w8 neg d w2 3 4 div mul w8 neg d w8 w2 -3 4 div mul d w8 w2 3 4 div mul d w2 3 4 div mul w8 d w2 -3 4 div mul w8 d w8 neg w2 3 4 div mul d cl f} def
/m44 {mp x y m w6 neg w2 d w2 2 3 div mul 0 d w6 neg w2 neg d w2 w6 d 0 w2 -2 3 div mul d w2 neg w6 d w6 w2 neg d w2 -2 3 div mul 0 d w6 w2 d w2 neg w6 neg d 0 w2 2 3 div mul d w2 w6 neg d cl s} def
/m45 {mp x y m w6 neg w2 d w2 2 3 div mul 0 d w6 neg w2 neg d w2 w6 d 0 w2 -2 3 div mul d w2 neg w6 d w6 w2 neg d w2 -2 3 div mul 0 d w6 w2 d w2 neg w6 neg d 0 w2 2 3 div mul d w2 w6 neg d cl f} def
/m46 {mp x y w4 add m w4 neg w4 d w4 neg w4 neg d  w4 w4 neg d w4 neg w4 neg d w4 w4 neg d w4 w4 d w4 w4 neg d w4 w4 d w4 neg w4 d w4 w4 d w4 neg w4 d w4 neg w4 neg d cl s} def
/m47 {mp x y w4 add m w4 neg w4 d w4 neg w4 neg d w4 w4 neg d w4 neg w4 neg d  w4 w4 neg d w4 w4 d w4 w4 neg d w4 w4 d w4 neg w4 d w4 w4 d w4 neg w4 d w4 neg w4 neg d cl f} def
/m48 {mp x y w4 add m w4 neg w4 d w4 neg w4 neg d w4 w4 neg d  w4 neg w4 neg d w4 w4 neg d w4 w4 d w4 w4 neg d w4 w4 d w4 neg w4 d w4 w4 d w4 neg w4 d w4 neg w4 neg d  w4 w4 neg d w4 neg w4 neg d w4 neg w4 d w4 w4 d cl f} def
/m49 {mp x w2 sub w3 add y w2 sub w3 add m  0 w3 neg d w3 0 d 0 w3 d w3 0 d 0 w3 d w3 neg 0 d 0 w3 d w3 neg 0 d 0 w3 neg d w3 neg 0 d 0 w3 neg d w3 0 d 0 w3 d w3 0 d 0 w3 neg d w3 neg 0 d cl f } def
/m2 {mp x y w2 sub m 0 w d x w2 sub y m w 0 d s} def
/m5 {mp x w2 sub y w2 sub m w w d x w2 sub y w2 add m w w neg d s} def
%%IncludeResource: ProcSet (FontSetInit)
%%IncludeResource: font Times-Roman
%%IncludeResource: font Times-Italic
%%IncludeResource: font Times-Bold
%%IncludeResource: font Times-BoldItalic
%%IncludeResource: font Helvetica
%%IncludeResource: font Helvetica-Oblique
%%IncludeResource: font Helvetica-Bold
%%IncludeResource: font Helvetica-BoldOblique
%%IncludeResource: font Courier
%%IncludeResource: font Courier-Oblique
%%IncludeResource: font Courier-Bold
%%IncludeResource: font Courier-BoldOblique
%%IncludeResource: font Symbol
%%IncludeResource: font ZapfDingbats
/reEncode {exch findfont dup length dict begin {1 index /FID eq  {pop pop} {def} ifelse } forall /Encoding exch def currentdict end dup /FontName get exch definefont pop } def [/Times-Bold /Times-Italic /Times-BoldItalic /Helvetica /Helvetica-Oblique
 /Helvetica-Bold /Helvetica-BoldOblique /Courier /Courier-Oblique /Courier-Bold /Courier-BoldOblique /Times-Roman /AvantGarde-Book /AvantGarde-BookOblique /AvantGarde-Demi /AvantGarde-DemiOblique /Bookman-Demi /Bookman-DemiItalic /Bookman-Light
 /Bookman-LightItalic /Helvetica-Narrow /Helvetica-Narrow-Bold /Helvetica-Narrow-BoldOblique /Helvetica-Narrow-Oblique /NewCenturySchlbk-Roman /NewCenturySchlbk-Bold /NewCenturySchlbk-BoldItalic /NewCenturySchlbk-Italic /Palatino-Bold
 /Palatino-BoldItalic /Palatino-Italic /Palatino-Roman ] {ISOLatin1Encoding reEncode } forall
%%EndProlog
%%BeginSetup
%%EndSetup
newpath  gsave  .25 .25 scale  gsave  0 0 t black[  ] 0 sd 3 lw 1 1 1 c 2268 1538 0 0 bf black 1 1 1 c 1950 1284 272 231 bf black 1950 1284 272 231 bl 1 1 1 c 6 lw black 1 1 1 c 272 231 m 1950 X s black 3 lw 272 231 m 1950 X s 799 270 m -39 Y s 937
 251 m -20 Y s 1076 251 m -20 Y s 1214 251 m -20 Y s 1352 270 m -39 Y s 1491 251 m -20 Y s 1629 251 m -20 Y s 1767 251 m -20 Y s 1906 270 m -39 Y s 799 270 m -39 Y s 661 251 m -20 Y s 522 251 m -20 Y s 384 251 m -20 Y s 1906 270 m -39 Y s 2044 251 m
 -20 Y s 2182 251 m -20 Y s
 gsave  2268 1538 0 0 C 755.906 172.685 t 0 r /Helvetica findfont 61.9061 sf 0 0 m (0.2) show NC gr 
 gsave  2268 1538 0 0 C 1309.8 172.685 t 0 r /Helvetica findfont 61.9061 sf 0 0 m (0.4) show NC gr 
 gsave  2268 1538 0 0 C 1860.44 172.685 t 0 r /Helvetica findfont 61.9061 sf 0 0 m (0.6) show NC gr 
 gsave  2268 1538 0 0 C 2101.55 78.1971 t 0 r /Helvetica findfont 74.9389 sf 0 0 m ( [fb]) show NC gr 
 gsave  2268 1538 0 0 C 1987.51 52.1314 t 0 r /Helvetica findfont 52.1314 sf 0 0 m (fit) show NC gr 
 gsave  2268 1538 0 0 C 1987.51 110.779 t 0 r /Helvetica findfont 52.1314 sf 0 0 m (bin,2) show NC gr 
 gsave  2268 1538 0 0 C 1941.9 78.1971 t 0 r /Symbol findfont 74.9389 sf 0 0 m (s) show NC gr  272 1515 m 1950 X s 799 1475 m 40 Y s 937 1495 m 20 Y s 1076 1495 m 20 Y s 1214 1495 m 20 Y s 1352 1475 m 40 Y s 1491 1495 m 20 Y s 1629 1495 m 20 Y s 1767
 1495 m 20 Y s 1906 1475 m 40 Y s 799 1475 m 40 Y s 661 1495 m 20 Y s 522 1495 m 20 Y s 384 1495 m 20 Y s 1906 1475 m 40 Y s 2044 1495 m 20 Y s 2182 1495 m 20 Y s 272 231 m 1284 Y s 329 395 m -57 X s 301 432 m -29 X s 301 468 m -29 X s 301 505 m -29
 X s 301 541 m -29 X s 329 578 m -57 X s 301 614 m -29 X s 301 650 m -29 X s 301 687 m -29 X s 301 723 m -29 X s 329 760 m -57 X s 301 796 m -29 X s 301 833 m -29 X s 301 869 m -29 X s 301 905 m -29 X s 329 942 m -57 X s 301 978 m -29 X s 301 1015 m
 -29 X s 301 1051 m -29 X s 301 1088 m -29 X s 329 1124 m -57 X s 301 1160 m -29 X s 301 1197 m -29 X s 301 1233 m -29 X s 301 1270 m -29 X s 329 1306 m -57 X s 301 1343 m -29 X s 301 1379 m -29 X s 301 1415 m -29 X s 301 1452 m -29 X s 329 1488 m
 -57 X s 329 395 m -57 X s 301 359 m -29 X s 301 323 m -29 X s 301 286 m -29 X s 301 250 m -29 X s 329 1488 m -57 X s
 gsave  2268 1538 0 0 C 185.718 374.695 t 0 r /Helvetica findfont 61.9061 sf 0 0 m (0.1) show NC gr 
 gsave  2268 1538 0 0 C 175.944 557.154 t 0 r /Helvetica findfont 61.9061 sf 0 0 m (0.2) show NC gr 
 gsave  2268 1538 0 0 C 175.944 739.614 t 0 r /Helvetica findfont 61.9061 sf 0 0 m (0.3) show NC gr 
 gsave  2268 1538 0 0 C 175.944 922.074 t 0 r /Helvetica findfont 61.9061 sf 0 0 m (0.4) show NC gr 
 gsave  2268 1538 0 0 C 175.944 1101.28 t 0 r /Helvetica findfont 61.9061 sf 0 0 m (0.5) show NC gr 
 gsave  2268 1538 0 0 C 175.944 1283.74 t 0 r /Helvetica findfont 61.9061 sf 0 0 m (0.6) show NC gr 
 gsave  2268 1538 0 0 C 175.944 1466.2 t 0 r /Helvetica findfont 61.9061 sf 0 0 m (0.7) show NC gr 
 gsave  2268 1538 0 0 C 120.554 1394.52 t 90 r /Helvetica findfont 74.9389 sf 0 0 m ( [fb]) show NC gr 
 gsave  2268 1538 0 0 C 146.62 1280.48 t 90 r /Helvetica findfont 52.1314 sf 0 0 m (true) show NC gr 
 gsave  2268 1538 0 0 C 87.9718 1280.48 t 90 r /Helvetica findfont 52.1314 sf 0 0 m (bin,2) show NC gr 
 gsave  2268 1538 0 0 C 120.554 1234.86 t 90 r /Symbol findfont 74.9389 sf 0 0 m (s) show NC gr  2222 231 m 1284 Y s 2166 395 m 56 X s 2194 432 m 28 X s 2194 468 m 28 X s 2194 505 m 28 X s 2194 541 m 28 X s 2166 578 m 56 X s 2194 614 m 28 X s 2194
 650 m 28 X s 2194 687 m 28 X s 2194 723 m 28 X s 2166 760 m 56 X s 2194 796 m 28 X s 2194 833 m 28 X s 2194 869 m 28 X s 2194 905 m 28 X s 2166 942 m 56 X s 2194 978 m 28 X s 2194 1015 m 28 X s 2194 1051 m 28 X s 2194 1088 m 28 X s 2166 1124 m 56 X
 s 2194 1160 m 28 X s 2194 1197 m 28 X s 2194 1233 m 28 X s 2194 1270 m 28 X s 2166 1306 m 56 X s 2194 1343 m 28 X s 2194 1379 m 28 X s 2194 1415 m 28 X s 2194 1452 m 28 X s 2166 1488 m 56 X s 2166 395 m 56 X s 2194 359 m 28 X s 2194 323 m 28 X s
 2194 286 m 28 X s 2194 250 m 28 X s 2166 1488 m 56 X s 1 0 0 c 1 1 1 c 1 0 0 c 37 25 302 507 bl 1 1 1 c 1 0 0 c 52 35 392 502 bl 1 1 1 c 1 0 0 c 74 48 479 560 bl 1 1 1 c 1 0 0 c 37 24 595 636 bl 1 1 1 c 1 0 0 c 37 24 790 829 bl 1 1 1 c 1 0 0 c 98 64
 857 809 bl 1 1 1 c 1 0 0 c 52 34 880 888 bl 1 1 1 c 1 0 0 c 97 64 955 873 bl 1 1 1 c 1 0 0 c 53 34 977 952 bl 1 1 1 c 1 0 0 c 64 42 1069 948 bl 1 1 1 c 1 0 0 c 36 24 1083 1021 bl 1 1 1 c 1 0 0 c 53 34 1172 1016 bl 1 1 1 c 1 0 0 c 53 35 1172 1080 bl
 1 1 1 c 1 0 0 c 36 24 1278 1150 bl 1 1 1 c 1 0 0 c 53 34 1367 1145 bl 1 1 1 c 1 0 0 c 37 24 1375 1214 bl 1 1 1 c 1 0 0 c 36 24 1473 1214 bl 1 1 1 c 1 0 0 c 36 24 1473 1278 bl 1 1 1 c black 1 1 1 c black 73 49 382 495 bl 1 1 1 c black 82 54 475 557
 bl 1 1 1 c black 37 24 595 636 bl 1 1 1 c black 36 24 693 700 bl 1 1 1 c black 52 35 685 759 bl 1 1 1 c black 37 24 790 829 bl 1 1 1 c black 98 64 857 809 bl 1 1 1 c black 64 42 874 884 bl 1 1 1 c black 91 60 958 875 bl 1 1 1 c black 63 42 972 948
 bl 1 1 1 c black 74 48 1064 945 bl 1 1 1 c black 36 24 1083 1021 bl 1 1 1 c black 53 34 1172 1016 bl 1 1 1 c black 53 35 1172 1080 bl 1 1 1 c black 36 24 1278 1150 bl 1 1 1 c black 53 34 1367 1145 bl 1 1 1 c black 37 24 1375 1214 bl 1 1 1 c black 52
 34 1465 1209 bl 1 1 1 c black 36 24 1473 1278 bl 1 1 1 c 0 0 1 c 1 1 1 c black[ 12 12] 0 sd 9 lw 1 1 1 c black 321 494 m 33 19 d 28 13 d 29 11 d 7 2 d 98 10 d 35 9 d 62 20 d 28 6 d 33 6 d 17 6 d 13 8 d 7 5 d 13 12 d 15 19 d 23 33 d 32 47 d 14 19 d
 48 59 d 24 25 d 17 17 d 9 7 d 16 11 d 18 8 d 63 20 d 36 9 d 62 12 d 86 18 d 11 4 d 27 13 d 34 21 d 37 25 d 24 18 d 74 63 d 63 53 d 24 17 d 10 7 d 25 12 d 37 14 d 36 11 d 97 25 d 56 18 d 42 16 d 6 5 d 8 9 d 10 16 d 23 40 d 7 12 d 7 7 d 6 3 d 5 1 d 6
 -3 d 5 -5 d 5 -9 d 4 -11 d 4 -14 d 1 -3 d 7 -26 d 6 -29 d 6 -32 d 5 -33 d 6 -36 d 5 -39 d 5 -40 d 5 -43 d 5 -46 d 5 -49 d 4 -51 d 5 -55 d 5 -58 d 4 -60 d 4 -67 d 4 -59 d 4 -66 d 3 -67 d 4 -73 d 2 -66 d 3 -64 d s[  ] 0 sd 1 1 1 c black 321 433 m 35
 27 d 33 16 d 29 7 d 24 -3 d 68 -26 d 6 X 6 7 d 6 18 d 8 33 d 9 51 d 16 91 d 8 39 d 6 22 d 6 9 d 5 -1 d 4 -9 d 5 -18 d 4 -27 d 5 -40 d 4 -41 d 4 -51 d 1 -28 d 6 -91 d 5 -98 d 4 -89 d s 849 1515 m 8 -124 d s 857 1391 m 10 -134 d 10 -120 d 10 -108 d 10
 -87 d 9 -75 d 7 -45 d 8 -35 d 8 -24 d 10 -11 d 12 4 d 18 25 d 21 36 d 12 8 d 1 X 34 1 d 53 6 d 11 -2 d 7 5 d 10 23 d 14 60 d 16 62 d 7 21 d 7 9 d 7 -4 d 7 -20 d 5 -30 d 6 -45 d 5 -50 d 4 -63 d 2 -31 d 7 -105 d 6 -118 d 6 -131 d 7 -145 d 1 -37 d s
 1465 231 m 3 106 d s 1468 337 m 6 178 d 6 172 d 5 142 d 6 141 d 4 86 d 5 83 d 5 65 d 5 50 d 5 37 d 74 -189 d 97 31 d 34 30 d 42 41 d 22 10 d 16 9 d 32 29 d 15 X 12 -14 d 9 -22 d 9 -36 d 4 -18 d 12 -70 d 13 -90 d 12 -89 d 12 -113 d 12 -127 d 13 -146
 d 12 -148 d 10 -148 d s 1 1 1 c black 321 545 m 15 43 d 15 38 d 15 30 d 15 24 d 14 17 d 15 12 d 8 3 d 98 -109 d 6 1 d 6 8 d 7 17 d 10 32 d 16 53 d 8 22 d 7 12 d 6 4 d 4 -2 d 5 -8 d 5 -14 d 4 -19 d 5 -27 d 4 -28 d 4 -36 d -9 Y 6 -60 d 5 -65 d 6 -70 d
 5 -75 d 5 -81 d 2 -27 d s 875 1515 m 6 -90 d s 881 1425 m 9 -118 d 8 -96 d 8 -91 d 6 -54 d 6 -45 d 7 -36 d 7 -27 d 8 -16 d 10 -5 d 10 6 d 20 28 d 15 16 d 8 -1 d 24 -9 d 27 1 d 47 9 d 8 8 d 11 23 d 24 82 d 11 30 d 8 12 d 8 -2 d 7 -13 d 7 -26 d 5 -33
 d 6 -43 d 2 -28 d 8 -79 d 7 -91 d 7 -103 d 8 -117 d 7 -130 d 8 -142 d 5 -104 d s 1442 231 m 4 97 d s 1446 328 m 7 180 d 6 142 d 6 138 d 6 126 d 7 127 d 5 99 d 6 94 d 2 22 d 5 62 d 5 49 d 5 37 d 5 27 d 6 17 d 5 7 d 7 -4 d 7 -17 d 10 -37 d 26 -113 d 7
 -20 d 7 -10 d 3 -1 d 97 2 d 15 -6 d 45 -40 d 12 3 d 9 12 d 8 20 d 9 29 d 11 53 d 12 64 d 11 74 d 7 51 d s 0 0 1 c[ 12 12] 0 sd 1 1 1 c black 0 0 1 c[  ] 0 sd 1 1 1 c black 0 0 1 c 1 1 1 c black 1 0 0 c[ 12 12] 0 sd 1 1 1 c black 1 0 0 c 321 488 m 32
 20 d 28 14 d 30 11 d 7 3 d 25 5 d 73 7 d 54 12 d 33 6 d 10 2 d 14 -1 d 26 -7 d 19 -4 d 12 X 10 2 d 10 4 d 7 6 d 9 10 d 10 14 d 12 21 d 16 34 d 28 59 d 11 21 d 11 20 d 25 35 d 23 30 d 19 22 d 18 17 d 13 11 d 16 11 d 17 7 d 64 16 d 33 7 d 65 10 d 47 3
 d 30 4 d 20 6 d 22 10 d 26 17 d 50 36 d 31 26 d 54 47 d 13 10 d 49 36 d 32 21 d 16 9 d 31 15 d 39 15 d 28 10 d 91 24 d 6 2 d 36 15 d 62 28 d 6 5 d 8 9 d 11 17 d 20 35 d 8 12 d 7 7 d 6 3 d 5 1 d 6 -3 d 5 -5 d 5 -9 d 5 -11 d 4 -14 d 1 -4 d 7 -26 d 6
 -29 d 6 -32 d 5 -34 d 6 -36 d 5 -39 d 5 -41 d 5 -43 d 5 -46 d 5 -49 d 4 -52 d 5 -55 d 5 -57 d 4 -61 d 4 -66 d 4 -59 d 4 -66 d 3 -68 d 4 -72 d 2 -66 d 3 -62 d s[  ] 0 sd 6 lw 1 1 1 c black 1 0 0 c 321 426 m 22 30 d 25 25 d 22 14 d 22 8 d 6 1 d 15 -3
 d 83 -55 d 17 6 d 25 18 d 38 33 d 17 10 d 6 -2 d 7 -10 d 8 -22 d 33 -111 d 7 -12 d 5 -3 d 5 3 d 5 10 d 5 16 d 4 23 d 5 29 d 3 32 d 4 40 d 1 7 d 5 66 d 6 72 d 5 77 d 5 82 d 6 89 d 5 95 d 5 102 d 5 111 d 6 118 d 5 127 d 2 63 d s 858 1515 m 3 -64 d s
 861 1451 m 9 -166 d 9 -150 d 9 -139 d 8 -110 d 10 -107 d 6 -55 d 7 -41 d 7 -28 d 8 -13 d 9 3 d 10 22 d 17 58 d 17 58 d 10 20 d 6 4 d 47 -14 d 51 -28 d 8 4 d 9 26 d 15 68 d 15 67 d 9 25 d 8 6 d 7 -10 d 6 -26 d 5 -39 d 6 -53 d 5 -62 d 4 -78 d 7 -123 d
 7 -138 d 6 -154 d 2 -47 d s 1462 231 m 2 34 d s 1464 265 m 5 157 d 6 147 d 6 134 d 5 120 d 5 89 d 4 74 d 5 70 d 5 56 d 5 44 d 5 33 d 5 24 d 6 13 d 7 1 d 8 -12 d 10 -33 d 22 -80 d 7 -17 d 7 -5 d 2 X 12 -2 d 56 -82 d 15 -14 d 12 X 2 2 d 12 14 d 14 32
 d 24 69 d 23 69 d 12 29 d 13 18 d 39 42 d 14 6 d 12 -6 d 10 -17 d 9 -24 d 9 -35 d 4 -19 d 11 -63 d 11 -75 d 12 -90 d 10 -86 d 12 -124 d 12 -123 d 11 -133 d 10 -142 d 7 -95 d s 9 lw 1 1 1 c black 1 0 0 c 321 544 m 15 72 d 13 52 d 16 55 d 14 37 d 15
 28 d 14 17 d 10 6 d 10 -2 d 12 -14 d 56 -148 d 12 -25 d 8 -11 d 16 -11 d 18 -3 d 63 15 d 6 -5 d 7 -19 d 9 -36 d 29 -145 d 7 -22 d 6 -9 d 5 2 d 5 10 d 5 20 d 4 29 d 5 43 d 4 44 d 4 54 d 2 34 d 5 96 d 6 103 d 5 111 d 5 119 d 5 128 d 6 136 d 5 147 d 2
 63 d s 880 1515 m 6 -138 d s 886 1377 m 7 -145 d 7 -125 d 6 -88 d 5 -74 d 6 -58 d 6 -45 d 6 -32 d 7 -19 d 7 -3 d 9 14 d 13 42 d 21 83 d 10 27 d 7 6 d 30 X 68 18 d 9 10 d 12 32 d 27 103 d 12 24 d 8 3 d 7 -13 d 7 -29 d 6 -38 d 6 -52 d 3 -37 d 8 -99 d
 8 -115 d 8 -132 d 8 -149 d 8 -166 d 4 -89 d s 1432 231 m 4 95 d s 1436 326 m 6 139 d 6 130 d 7 124 d 5 99 d 8 117 d 6 95 d 6 85 d 6 76 d 5 50 d 5 49 d 5 37 d 5 29 d 6 21 d 5 13 d 7 5 d 6 -4 d 9 -15 d 11 -32 d 21 -68 d 9 -19 d 7 -7 d 2 -1 d 97 -26 d
 15 -3 d 38 -21 d 12 4 d 10 12 d 9 17 d 8 24 d 6 23 d 10 50 d 11 60 d 12 75 d 7 51 d s black 1247 231 m 1284 Y s
 gr  gr showpage
end
%%EOF
