%!PS-Adobe-2.0 EPSF-2.0
%%BoundingBox:  0 0 567 384
%%Title: plots/iter_3/iterationsToys_ws_mtx_mjj/ccBelts_1_iter3.eps: 
%%Creator: ROOT Version 6.16/00
%%CreationDate: Fri Nov 13 20:34:57 2020
%%DocumentNeededResources: ProcSet (FontSetInit)
%%EndComments
%%BeginProlog
80 dict begin
/s {stroke} def /l {lineto} def /m {moveto} def /t {translate} def
/r {rotate} def /rl {roll}  def /R {repeat} def
/d {rlineto} def /rm {rmoveto} def /gr {grestore} def /f {eofill} def
/c {setrgbcolor} def /black {0 setgray} def /sd {setdash} def
/cl {closepath} def /sf {scalefont setfont} def /lw {setlinewidth} def
/box {m dup 0 exch d exch 0 d 0 exch neg d cl} def
/NC{systemdict begin initclip end}def/C{NC box clip newpath}def
/bl {box s} def /bf {gsave box gsave f grestore 1 lw [] 0 sd s grestore} def /Y { 0 exch d} def /X { 0 d} def 
/K {{pop pop 0 moveto} exch kshow} bind def
/ita {/ang 15 def gsave [1 0 ang dup sin exch cos div 1 0 0] concat} def 
/mp {newpath /y exch def /x exch def} def
/side {[w .77 mul w .23 mul] .385 w mul sd w 0 l currentpoint t -144 r} def
/mr {mp x y w2 0 360 arc} def /m24 {mr s} def /m20 {mr f} def
/mb {mp x y w2 add m w2 neg 0 d 0 w neg d w 0 d 0 w d cl} def
/mt {mp x y w2 add m w2 neg w neg d w 0 d cl} def
/w4 {w 4 div} def
/w6 {w 6 div} def
/w8 {w 8 div} def
/m21 {mb f} def /m25 {mb s} def /m22 {mt f} def /m26{mt s} def
/m23 {mp x y w2 sub m w2 w d w neg 0 d cl f} def
/m27 {mp x y w2 add m w3 neg w2 neg d w3 w2 neg d w3 w2 d cl s} def
/m28 {mp x w2 sub y w2 sub w3 add m w3 0 d  0 w3 neg d w3 0 d 0 w3 d w3 0 d  0 w3 d w3 neg 0 d 0 w3 d w3 neg 0 d 0 w3 neg d w3 neg 0 d cl s } def
/m29 {mp gsave x w2 sub y w2 add w3 sub m currentpoint t 4 {side} repeat cl fill gr} def
/m30 {mp gsave x w2 sub y w2 add w3 sub m currentpoint t 4 {side} repeat cl s gr} def
/m31 {mp x y w2 sub m 0 w d x w2 sub y m w 0 d x w2 sub y w2 add m w w neg d x w2 sub y w2 sub m w w d s} def
/m32 {mp x y w2 sub m w2 w d w neg 0 d cl s} def
/m33 {mp x y w2 add m w3 neg w2 neg d w3 w2 neg d w3 w2 d cl f} def
/m34 {mp x w2 sub y w2 sub w3 add m w3 0 d  0 w3 neg d w3 0 d 0 w3 d w3 0 d  0 w3 d w3 neg 0 d 0 w3 d w3 neg 0 d 0 w3 neg d w3 neg 0 d cl f } def
/m35 {mp x y w2 add m w2 neg w2 neg d w2 w2 neg d w2 w2 d w2 neg w2 d x y w2 sub m 0 w d x w2 sub y m w 0 d s} def
/m36 {mb x w2 sub y w2 add m w w neg d x w2 sub y w2 sub m w w d s} def
/m37 {mp x y m w4 neg w2 d w4 neg w2 neg d w2 0 d  w4 neg w2 neg d w2 0 d w4 neg w2 d w2 0 d w4 neg w2 d w4 neg w2 neg d cl s} def
/m38 {mp x w4 sub y w2 add m w4 neg w4 neg d 0 w2 neg d w4 w4 neg d w2 0 d w4 w4 d 0 w2 d w4 neg w4 d w2 neg 0 d x y w2 sub m 0 w d x w2 sub y m w 0 d cl s} def
/m39 {mp x y m w4 neg w2 d w4 neg w2 neg d w2 0 d  w4 neg w2 neg d w2 0 d w4 neg w2 d w2 0 d w4 neg w2 d w4 neg w2 neg d cl f} def
/m40 {mp x y m w4 w2 d w4 w4 neg d w2 neg w4 neg d w2 w4 neg d w4 neg w4 neg d w4 neg w2 d w4 neg w2 neg d w4 neg w4 d w2 w4 d w2 neg w4 d w4 w4 d w4 w2 neg d cl s} def
/m41 {mp x y m w4 w2 d w4 w4 neg d w2 neg w4 neg d w2 w4 neg d w4 neg w4 neg d w4 neg w2 d w4 neg w2 neg d w4 neg w4 d w2 w4 d w2 neg w4 d w4 w4 d w4 w2 neg d cl f} def
/m42 {mp x y w2 add m w8 neg w2 -3 4 div mul d w2 -3 4 div mul w8 neg d w2 3 4 div mul w8 neg d w8 w2 -3 4 div mul d w8 w2 3 4 div mul d w2 3 4 div mul w8 d w2 -3 4 div mul w8 d w8 neg w2 3 4 div mul d cl s} def
/m43 {mp x y w2 add m w8 neg w2 -3 4 div mul d w2 -3 4 div mul w8 neg d w2 3 4 div mul w8 neg d w8 w2 -3 4 div mul d w8 w2 3 4 div mul d w2 3 4 div mul w8 d w2 -3 4 div mul w8 d w8 neg w2 3 4 div mul d cl f} def
/m44 {mp x y m w6 neg w2 d w2 2 3 div mul 0 d w6 neg w2 neg d w2 w6 d 0 w2 -2 3 div mul d w2 neg w6 d w6 w2 neg d w2 -2 3 div mul 0 d w6 w2 d w2 neg w6 neg d 0 w2 2 3 div mul d w2 w6 neg d cl s} def
/m45 {mp x y m w6 neg w2 d w2 2 3 div mul 0 d w6 neg w2 neg d w2 w6 d 0 w2 -2 3 div mul d w2 neg w6 d w6 w2 neg d w2 -2 3 div mul 0 d w6 w2 d w2 neg w6 neg d 0 w2 2 3 div mul d w2 w6 neg d cl f} def
/m46 {mp x y w4 add m w4 neg w4 d w4 neg w4 neg d  w4 w4 neg d w4 neg w4 neg d w4 w4 neg d w4 w4 d w4 w4 neg d w4 w4 d w4 neg w4 d w4 w4 d w4 neg w4 d w4 neg w4 neg d cl s} def
/m47 {mp x y w4 add m w4 neg w4 d w4 neg w4 neg d w4 w4 neg d w4 neg w4 neg d  w4 w4 neg d w4 w4 d w4 w4 neg d w4 w4 d w4 neg w4 d w4 w4 d w4 neg w4 d w4 neg w4 neg d cl f} def
/m48 {mp x y w4 add m w4 neg w4 d w4 neg w4 neg d w4 w4 neg d  w4 neg w4 neg d w4 w4 neg d w4 w4 d w4 w4 neg d w4 w4 d w4 neg w4 d w4 w4 d w4 neg w4 d w4 neg w4 neg d  w4 w4 neg d w4 neg w4 neg d w4 neg w4 d w4 w4 d cl f} def
/m49 {mp x w2 sub w3 add y w2 sub w3 add m  0 w3 neg d w3 0 d 0 w3 d w3 0 d 0 w3 d w3 neg 0 d 0 w3 d w3 neg 0 d 0 w3 neg d w3 neg 0 d 0 w3 neg d w3 0 d 0 w3 d w3 0 d 0 w3 neg d w3 neg 0 d cl f } def
/m2 {mp x y w2 sub m 0 w d x w2 sub y m w 0 d s} def
/m5 {mp x w2 sub y w2 sub m w w d x w2 sub y w2 add m w w neg d s} def
%%IncludeResource: ProcSet (FontSetInit)
%%IncludeResource: font Times-Roman
%%IncludeResource: font Times-Italic
%%IncludeResource: font Times-Bold
%%IncludeResource: font Times-BoldItalic
%%IncludeResource: font Helvetica
%%IncludeResource: font Helvetica-Oblique
%%IncludeResource: font Helvetica-Bold
%%IncludeResource: font Helvetica-BoldOblique
%%IncludeResource: font Courier
%%IncludeResource: font Courier-Oblique
%%IncludeResource: font Courier-Bold
%%IncludeResource: font Courier-BoldOblique
%%IncludeResource: font Symbol
%%IncludeResource: font ZapfDingbats
/reEncode {exch findfont dup length dict begin {1 index /FID eq  {pop pop} {def} ifelse } forall /Encoding exch def currentdict end dup /FontName get exch definefont pop } def [/Times-Bold /Times-Italic /Times-BoldItalic /Helvetica /Helvetica-Oblique
 /Helvetica-Bold /Helvetica-BoldOblique /Courier /Courier-Oblique /Courier-Bold /Courier-BoldOblique /Times-Roman /AvantGarde-Book /AvantGarde-BookOblique /AvantGarde-Demi /AvantGarde-DemiOblique /Bookman-Demi /Bookman-DemiItalic /Bookman-Light
 /Bookman-LightItalic /Helvetica-Narrow /Helvetica-Narrow-Bold /Helvetica-Narrow-BoldOblique /Helvetica-Narrow-Oblique /NewCenturySchlbk-Roman /NewCenturySchlbk-Bold /NewCenturySchlbk-BoldItalic /NewCenturySchlbk-Italic /Palatino-Bold
 /Palatino-BoldItalic /Palatino-Italic /Palatino-Roman ] {ISOLatin1Encoding reEncode } forall
%%EndProlog
%%BeginSetup
%%EndSetup
newpath  gsave  .25 .25 scale  gsave  0 0 t black[  ] 0 sd 3 lw 1 1 1 c 2268 1538 0 0 bf black 1 1 1 c 1950 1284 272 231 bf black 1950 1284 272 231 bl 1 1 1 c 6 lw black 1 1 1 c 272 231 m 1950 X s black 3 lw 272 231 m 1950 X s 547 270 m -39 Y s 665
 251 m -20 Y s 782 251 m -20 Y s 900 251 m -20 Y s 1017 270 m -39 Y s 1135 251 m -20 Y s 1252 251 m -20 Y s 1370 251 m -20 Y s 1487 270 m -39 Y s 1605 251 m -20 Y s 1722 251 m -20 Y s 1839 251 m -20 Y s 1957 270 m -39 Y s 547 270 m -39 Y s 430 251 m
 -20 Y s 313 251 m -20 Y s 1957 270 m -39 Y s 2074 251 m -20 Y s 2192 251 m -20 Y s
 gsave  2268 1538 0 0 C 505.023 172.685 t 0 r /Helvetica findfont 61.9061 sf 0 0 m (0.2) show NC gr 
 gsave  2268 1538 0 0 C 974.206 172.685 t 0 r /Helvetica findfont 61.9061 sf 0 0 m (0.4) show NC gr 
 gsave  2268 1538 0 0 C 1443.39 172.685 t 0 r /Helvetica findfont 61.9061 sf 0 0 m (0.6) show NC gr 
 gsave  2268 1538 0 0 C 1912.57 172.685 t 0 r /Helvetica findfont 61.9061 sf 0 0 m (0.8) show NC gr 
 gsave  2268 1538 0 0 C 2101.55 78.1971 t 0 r /Helvetica findfont 74.9389 sf 0 0 m ( [fb]) show NC gr 
 gsave  2268 1538 0 0 C 1997.28 52.1314 t 0 r /Helvetica findfont 52.1314 sf 0 0 m (fit) show NC gr 
 gsave  2268 1538 0 0 C 1997.28 110.779 t 0 r /Helvetica findfont 52.1314 sf 0 0 m (bin,1) show NC gr 
 gsave  2268 1538 0 0 C 1951.67 78.1971 t 0 r /Symbol findfont 74.9389 sf 0 0 m (s) show NC gr  272 1515 m 1950 X s 547 1475 m 40 Y s 665 1495 m 20 Y s 782 1495 m 20 Y s 900 1495 m 20 Y s 1017 1475 m 40 Y s 1135 1495 m 20 Y s 1252 1495 m 20 Y s 1370
 1495 m 20 Y s 1487 1475 m 40 Y s 1605 1495 m 20 Y s 1722 1495 m 20 Y s 1839 1495 m 20 Y s 1957 1475 m 40 Y s 547 1475 m 40 Y s 430 1495 m 20 Y s 313 1495 m 20 Y s 1957 1475 m 40 Y s 2074 1495 m 20 Y s 2192 1495 m 20 Y s 272 231 m 1284 Y s 329 257 m
 -57 X s 301 288 m -29 X s 301 319 m -29 X s 301 350 m -29 X s 301 381 m -29 X s 329 412 m -57 X s 301 443 m -29 X s 301 474 m -29 X s 301 505 m -29 X s 301 536 m -29 X s 329 567 m -57 X s 301 598 m -29 X s 301 629 m -29 X s 301 659 m -29 X s 301 690
 m -29 X s 329 721 m -57 X s 301 752 m -29 X s 301 783 m -29 X s 301 814 m -29 X s 301 845 m -29 X s 329 876 m -57 X s 301 907 m -29 X s 301 938 m -29 X s 301 969 m -29 X s 301 1000 m -29 X s 329 1031 m -57 X s 301 1062 m -29 X s 301 1093 m -29 X s
 301 1123 m -29 X s 301 1154 m -29 X s 329 1185 m -57 X s 301 1216 m -29 X s 301 1247 m -29 X s 301 1278 m -29 X s 301 1309 m -29 X s 329 1340 m -57 X s 301 1371 m -29 X s 301 1402 m -29 X s 301 1433 m -29 X s 301 1464 m -29 X s 329 1495 m -57 X s
 329 257 m -57 X s 329 1495 m -57 X s
 gsave  2268 1538 0 0 C 185.718 234.591 t 0 r /Helvetica findfont 61.9061 sf 0 0 m (0.1) show NC gr 
 gsave  2268 1538 0 0 C 175.944 390.986 t 0 r /Helvetica findfont 61.9061 sf 0 0 m (0.2) show NC gr 
 gsave  2268 1538 0 0 C 175.944 544.122 t 0 r /Helvetica findfont 61.9061 sf 0 0 m (0.3) show NC gr 
 gsave  2268 1538 0 0 C 175.944 700.516 t 0 r /Helvetica findfont 61.9061 sf 0 0 m (0.4) show NC gr 
 gsave  2268 1538 0 0 C 175.944 853.652 t 0 r /Helvetica findfont 61.9061 sf 0 0 m (0.5) show NC gr 
 gsave  2268 1538 0 0 C 175.944 1010.05 t 0 r /Helvetica findfont 61.9061 sf 0 0 m (0.6) show NC gr 
 gsave  2268 1538 0 0 C 175.944 1163.18 t 0 r /Helvetica findfont 61.9061 sf 0 0 m (0.7) show NC gr 
 gsave  2268 1538 0 0 C 175.944 1319.58 t 0 r /Helvetica findfont 61.9061 sf 0 0 m (0.8) show NC gr 
 gsave  2268 1538 0 0 C 175.944 1472.71 t 0 r /Helvetica findfont 61.9061 sf 0 0 m (0.9) show NC gr 
 gsave  2268 1538 0 0 C 120.554 1394.52 t 90 r /Helvetica findfont 74.9389 sf 0 0 m ( [fb]) show NC gr 
 gsave  2268 1538 0 0 C 146.62 1290.25 t 90 r /Helvetica findfont 52.1314 sf 0 0 m (true) show NC gr 
 gsave  2268 1538 0 0 C 87.9718 1290.25 t 90 r /Helvetica findfont 52.1314 sf 0 0 m (bin,1) show NC gr 
 gsave  2268 1538 0 0 C 120.554 1244.64 t 90 r /Symbol findfont 74.9389 sf 0 0 m (s) show NC gr  2222 231 m 1284 Y s 2166 257 m 56 X s 2194 288 m 28 X s 2194 319 m 28 X s 2194 350 m 28 X s 2194 381 m 28 X s 2166 412 m 56 X s 2194 443 m 28 X s 2194
 474 m 28 X s 2194 505 m 28 X s 2194 536 m 28 X s 2166 567 m 56 X s 2194 598 m 28 X s 2194 629 m 28 X s 2194 659 m 28 X s 2194 690 m 28 X s 2166 721 m 56 X s 2194 752 m 28 X s 2194 783 m 28 X s 2194 814 m 28 X s 2194 845 m 28 X s 2166 876 m 56 X s
 2194 907 m 28 X s 2194 938 m 28 X s 2194 969 m 28 X s 2194 1000 m 28 X s 2166 1031 m 56 X s 2194 1062 m 28 X s 2194 1093 m 28 X s 2194 1123 m 28 X s 2194 1154 m 28 X s 2166 1185 m 56 X s 2194 1216 m 28 X s 2194 1247 m 28 X s 2194 1278 m 28 X s 2194
 1309 m 28 X s 2166 1340 m 56 X s 2194 1371 m 28 X s 2194 1402 m 28 X s 2194 1433 m 28 X s 2194 1464 m 28 X s 2166 1495 m 56 X s 2166 257 m 56 X s 2166 1495 m 56 X s 1 0 0 c 1 1 1 c 1 0 0 c 49 32 394 504 bl 1 1 1 c 1 0 0 c 49 32 394 568 bl 1 1 1 c 1
 0 0 c 48 32 492 632 bl 1 1 1 c 1 0 0 c 49 32 589 632 bl 1 1 1 c 1 0 0 c 85 56 571 684 bl 1 1 1 c 1 0 0 c 48 32 687 696 bl 1 1 1 c 1 0 0 c 98 65 662 744 bl 1 1 1 c 1 0 0 c 97 64 760 809 bl 1 1 1 c 1 0 0 c 84 55 864 813 bl 1 1 1 c 1 0 0 c 49 32 784
 889 bl 1 1 1 c 1 0 0 c 84 56 864 877 bl 1 1 1 c 1 0 0 c 49 32 979 889 bl 1 1 1 c 1 0 0 c 85 56 961 941 bl 1 1 1 c 1 0 0 c 84 56 1059 1005 bl 1 1 1 c 1 0 0 c 49 32 1174 1017 bl 1 1 1 c 1 0 0 c 85 55 1156 1070 bl 1 1 1 c 1 0 0 c 84 55 1254 1134 bl 1 1
 1 c 1 0 0 c 49 32 1369 1210 bl 1 1 1 c 1 0 0 c 48 32 1467 1274 bl 1 1 1 c 1 0 0 c 49 32 1564 1338 bl 1 1 1 c black 1 1 1 c black 69 45 384 497 bl 1 1 1 c black 49 32 394 568 bl 1 1 1 c black 48 32 492 568 bl 1 1 1 c black 48 32 492 632 bl 1 1 1 c
 black 49 32 589 632 bl 1 1 1 c black 85 56 571 684 bl 1 1 1 c black 48 32 687 696 bl 1 1 1 c black 98 65 662 744 bl 1 1 1 c black 69 45 774 754 bl 1 1 1 c black 97 64 760 809 bl 1 1 1 c black 98 64 857 809 bl 1 1 1 c black 98 64 857 873 bl 1 1 1 c
 black 49 32 979 889 bl 1 1 1 c black 97 64 955 937 bl 1 1 1 c black 84 56 1059 1005 bl 1 1 1 c black 49 32 1174 1017 bl 1 1 1 c black 97 65 1150 1065 bl 1 1 1 c black 84 55 1254 1134 bl 1 1 1 c black 49 32 1369 1210 bl 1 1 1 c black 48 32 1467 1274
 bl 1 1 1 c black 49 32 1564 1338 bl 1 1 1 c 0 0 1 c 1 1 1 c black[ 12 12] 0 sd 9 lw 1 1 1 c black 321 455 m 37 14 d 38 17 d 22 12 d 28 18 d 60 43 d 10 6 d 91 50 d 6 4 d 38 25 d 60 44 d 42 34 d 35 27 d 20 13 d 24 13 d 74 29 d 97 34 d 55 24 d 43 22 d
 59 33 d 38 25 d 26 20 d 53 45 d 19 13 d 30 18 d 68 31 d 97 48 d 98 58 d 97 51 d 36 24 d 42 29 d 20 11 d 30 12 d 67 20 d 7 5 d 8 9 d 11 18 d 20 34 d 8 12 d 7 6 d 5 3 d 6 X 6 -4 d 5 -7 d 5 -11 d 4 -13 d 5 -16 d 1 -4 d 6 -31 d 6 -34 d 6 -37 d 6 -40 d 6
 -42 d 5 -45 d 5 -48 d 5 -50 d 5 -54 d 5 -57 d 5 -60 d 4 -64 d 5 -67 d 4 -70 d 5 -77 d 3 -69 d 4 -76 d 3 -77 d 3 -84 d 2 -41 d s[  ] 0 sd 1 1 1 c black 439 1515 m 1 -22 d s 440 1493 m 4 -119 d 4 -109 d 4 -101 d 4 -92 d 3 -85 d 4 -79 d 4 -72 d 4 -67 d
 4 -60 d 4 -55 d 4 -48 d 4 -41 d 5 -36 d 3 -25 d 4 -19 d 5 -13 d 4 -5 d 4 2 d 4 9 d 4 17 d 4 23 d 5 35 d s 529 553 m 4 42 d 4 49 d 4 55 d 4 60 d 4 66 d 4 72 d 4 78 d 4 84 d 4 91 d 4 98 d 4 106 d 4 115 d 1 46 d s 845 1515 m 3 -66 d s 848 1449 m 9 -147
 d 10 -150 d 10 -133 d 10 -120 d 10 -96 d 9 -82 d 7 -47 d 7 -34 d 9 -21 d 9 -6 d 11 12 d 18 43 d 19 45 d 10 12 d 7 X 8 3 d 10 23 d 24 95 d 10 28 d 7 7 d 7 -6 d 7 -21 d 5 -35 d 7 -56 d 5 -59 d 4 -73 d 4 -61 d 6 -127 d 7 -141 d 3 -71 d s 1331 231 m 4
 62 d s 1335 293 m 9 127 d 8 99 d 8 96 d 8 87 d 8 84 d 8 65 d 8 60 d 2 12 d 19 128 d 9 55 d 8 38 d 7 26 d 6 16 d 6 6 d 7 -3 d 5 -12 d 5 -18 d 5 -27 d 5 -34 d 5 -47 d 4 -47 d 4 -57 d 2 -25 d 5 -84 d 6 -90 d 5 -98 d 5 -104 d 5 -112 d 5 -119 d 4 -84 d s
 1758 231 m 7 156 d s 1765 387 m 7 148 d 6 133 d 6 98 d 5 87 d 5 75 d 6 64 d 5 55 d 7 53 d 7 38 d 8 31 d 54 118 d 37 178 d 11 50 d s 1 1 1 c black 465 1515 m -2 Y s 465 1513 m 4 -125 d 4 -116 d 4 -107 d 4 -96 d 4 -87 d 4 -74 d 4 -67 d 3 -46 d 4 -41 d
 4 -30 d 4 -17 d 4 -6 d 4 5 d 4 16 d 4 28 d s 524 750 m 4 39 d 4 57 d 4 69 d 4 79 d 4 89 d 4 99 d 4 108 d 4 116 d 3 109 d s 871 1515 m 8 -165 d s 879 1350 m 8 -133 d 7 -119 d 7 -103 d 5 -69 d 5 -60 d 6 -47 d 6 -35 d 6 -23 d 6 -12 d 8 2 d 8 18 d 12 43
 d 21 88 d 10 32 d 9 13 d 9 11 d 10 29 d 24 97 d 12 37 d 8 17 d 8 2 d 7 -11 d 6 -25 d 6 -33 d 5 -45 d 3 -25 d 7 -83 d 8 -97 d 7 -111 d 8 -126 d 8 -140 d 8 -154 d 2 -57 d s 1250 231 m 5 104 d s 1255 335 m 6 120 d 5 96 d 6 98 d 6 92 d 6 88 d 6 73 d 6
 73 d 5 52 d 5 43 d 5 35 d 5 28 d 5 23 d 5 17 d 7 13 d 7 4 d 9 -2 d 17 -20 d 13 -15 d 7 -3 d 8 3 d 6 11 d 9 21 d 10 34 d 17 56 d 8 22 d 7 13 d 6 4 d 6 -3 d 5 -8 d 5 -15 d 5 -21 d 4 -26 d 4 -30 d 5 -43 d 6 -59 d 5 -64 d 6 -70 d s 1508 975 m 5 -75 d 6
 -82 d 5 -89 d 6 -96 d 5 -104 d 6 -112 d 6 -120 d 3 -66 d s 1826 1515 m 2 -11 d s 1828 1504 m 3 -18 d 4 -18 d 4 -16 d 4 -15 d 4 -14 d 4 -13 d 4 -12 d 4 -10 d 3 -7 d 4 -7 d 4 -7 d 4 -4 d 4 -4 d 3 -1 d 4 -1 d 4 X s 1889 1357 m 5 2 d 4 4 d 4 5 d 4 7 d 4
 7 d 4 9 d 4 10 d 4 11 d 4 13 d 3 13 d 4 15 d 4 17 d 4 18 d 4 20 d 1 7 d s 0 0 1 c[ 12 12] 0 sd 1 1 1 c black 0 0 1 c[  ] 0 sd 1 1 1 c black 0 0 1 c 1 1 1 c black 1 0 0 c[ 12 12] 0 sd 1 1 1 c black 1 0 0 c 321 434 m 24 4 d 25 7 d 23 11 d 25 15 d 18
 15 d 26 28 d 36 40 d 18 17 d 28 20 d 69 43 d 98 62 d 48 34 d 33 22 d 16 10 d 27 13 d 71 28 d 97 35 d 29 15 d 69 41 d 97 49 d 28 20 d 56 46 d 14 10 d 40 25 d 58 31 d 97 44 d 32 20 d 52 36 d 14 8 d 32 15 d 56 23 d 9 5 d 24 15 d 54 38 d 20 11 d 30 12 d
 67 20 d 7 5 d 8 9 d 11 18 d 20 34 d 8 12 d 7 6 d 5 3 d 6 X 6 -4 d 5 -7 d 5 -11 d 4 -13 d 5 -16 d 1 -4 d 6 -31 d 6 -34 d 6 -37 d 6 -40 d 6 -42 d 5 -45 d 5 -48 d 5 -50 d 5 -54 d 5 -57 d 5 -60 d 4 -64 d 5 -67 d 4 -70 d 5 -77 d 3 -69 d 4 -76 d 3 -77 d 3
 -84 d 2 -41 d s[  ] 0 sd 6 lw 1 1 1 c black 1 0 0 c 661 1515 m 3 -69 d s 664 1446 m 7 -149 d 8 -156 d 9 -140 d 8 -122 d 8 -103 d 7 -70 d 6 -51 d 6 -36 d 7 -21 d 7 -6 d 9 13 d 10 35 d 17 84 d 15 80 d 11 35 d 8 13 d 1 X 19 -11 d 79 -131 d 22 -7 d 75
 14 d 8 8 d 10 31 d 15 78 d 15 74 d 9 30 d 7 9 d 7 -9 d 6 -24 d 6 -38 d 5 -53 d 5 -62 d 5 -80 d 6 -124 d 7 -140 d 7 -156 d 1 -30 d s 1349 231 m 4 95 d s 1353 326 m 7 119 d 6 116 d 7 105 d 7 102 d 6 80 d 6 73 d 2 12 d 7 69 d 7 57 d 6 47 d 7 36 d 6 26
 d 6 16 d 7 6 d 6 -5 d 5 -15 d 7 -26 d 5 -32 d 5 -44 d 6 -53 d 5 -69 d 5 -68 d 5 -81 d 2 -26 d 6 -102 d 5 -111 d 5 -118 d 6 -126 d s 1513 314 m 3 -83 d s 1758 231 m 7 156 d s 1765 387 m 7 148 d 6 133 d 6 98 d 5 87 d 5 75 d 6 64 d 5 55 d 7 53 d 7 38 d
 8 31 d 54 118 d 37 178 d 11 50 d s 9 lw 1 1 1 c black 1 0 0 c 321 1219 m 6 -39 d 5 -33 d 6 -26 d 5 -21 d 6 -15 d 6 -9 d 5 -2 d 6 4 d 6 10 d 6 17 d 6 25 d 5 27 d 6 37 d 6 43 d 6 51 d 6 54 d 5 58 d 6 67 d 4 48 d s 687 1515 m 4 -102 d s 691 1413 m 7
 -134 d 7 -110 d 6 -95 d 5 -61 d 5 -45 d 5 -28 d 6 -15 d 6 1 d 6 17 d 8 36 d 9 59 d 22 175 d 8 53 d 7 30 d 6 16 d 4 3 d 12 -13 d 13 -33 d 73 -273 d 19 -27 d 23 -15 d 26 -2 d 29 6 d 9 10 d 11 30 d 24 97 d 12 42 d 9 16 d 8 1 d 8 -16 d 6 -28 d 6 -39 d 5
 -43 d 8 -86 d 8 -103 d 9 -119 d 8 -136 d 8 -150 d 9 -172 d 1 -31 d s 1266 231 m 2 29 d s 1268 260 m 8 106 d 8 97 d 8 93 d 4 49 d 7 68 d 6 65 d 7 61 d 8 57 d 8 54 d 9 57 d 9 41 d 9 44 d 12 42 d 14 45 d 9 24 d 10 32 d 23 83 d 10 27 d 7 14 d 7 6 d 6 -3
 d 5 -8 d 6 -15 d 5 -23 d 5 -27 d 4 -34 d 4 -35 d 5 -48 d 5 -65 d 6 -69 d 5 -75 d 5 -81 d 5 -85 d 6 -92 d 5 -99 d 5 -107 d 5 -114 d 5 -114 d s 1826 1515 m 2 -11 d s 1828 1504 m 3 -18 d 4 -18 d 4 -16 d 4 -15 d 4 -14 d 4 -13 d 4 -12 d 4 -10 d 3 -7 d 4
 -7 d 4 -7 d 4 -4 d 4 -4 d 3 -1 d 4 -1 d 4 X s 1889 1357 m 5 2 d 4 4 d 4 5 d 4 7 d 4 7 d 4 9 d 4 10 d 4 11 d 4 13 d 3 13 d 4 15 d 4 17 d 4 18 d 4 20 d 1 7 d s black 1247 231 m 1284 Y s
 gr  gr showpage
end
%%EOF
