%!PS-Adobe-2.0 EPSF-2.0
%%BoundingBox:  0 0 567 384
%%Title: plots/iter_3/iterationsToys_ws_mtx_mjj/ccBelts_3_iter3.eps: 
%%Creator: ROOT Version 6.16/00
%%CreationDate: Fri Nov 13 20:35:01 2020
%%DocumentNeededResources: ProcSet (FontSetInit)
%%EndComments
%%BeginProlog
80 dict begin
/s {stroke} def /l {lineto} def /m {moveto} def /t {translate} def
/r {rotate} def /rl {roll}  def /R {repeat} def
/d {rlineto} def /rm {rmoveto} def /gr {grestore} def /f {eofill} def
/c {setrgbcolor} def /black {0 setgray} def /sd {setdash} def
/cl {closepath} def /sf {scalefont setfont} def /lw {setlinewidth} def
/box {m dup 0 exch d exch 0 d 0 exch neg d cl} def
/NC{systemdict begin initclip end}def/C{NC box clip newpath}def
/bl {box s} def /bf {gsave box gsave f grestore 1 lw [] 0 sd s grestore} def /Y { 0 exch d} def /X { 0 d} def 
/K {{pop pop 0 moveto} exch kshow} bind def
/ita {/ang 15 def gsave [1 0 ang dup sin exch cos div 1 0 0] concat} def 
/mp {newpath /y exch def /x exch def} def
/side {[w .77 mul w .23 mul] .385 w mul sd w 0 l currentpoint t -144 r} def
/mr {mp x y w2 0 360 arc} def /m24 {mr s} def /m20 {mr f} def
/mb {mp x y w2 add m w2 neg 0 d 0 w neg d w 0 d 0 w d cl} def
/mt {mp x y w2 add m w2 neg w neg d w 0 d cl} def
/w4 {w 4 div} def
/w6 {w 6 div} def
/w8 {w 8 div} def
/m21 {mb f} def /m25 {mb s} def /m22 {mt f} def /m26{mt s} def
/m23 {mp x y w2 sub m w2 w d w neg 0 d cl f} def
/m27 {mp x y w2 add m w3 neg w2 neg d w3 w2 neg d w3 w2 d cl s} def
/m28 {mp x w2 sub y w2 sub w3 add m w3 0 d  0 w3 neg d w3 0 d 0 w3 d w3 0 d  0 w3 d w3 neg 0 d 0 w3 d w3 neg 0 d 0 w3 neg d w3 neg 0 d cl s } def
/m29 {mp gsave x w2 sub y w2 add w3 sub m currentpoint t 4 {side} repeat cl fill gr} def
/m30 {mp gsave x w2 sub y w2 add w3 sub m currentpoint t 4 {side} repeat cl s gr} def
/m31 {mp x y w2 sub m 0 w d x w2 sub y m w 0 d x w2 sub y w2 add m w w neg d x w2 sub y w2 sub m w w d s} def
/m32 {mp x y w2 sub m w2 w d w neg 0 d cl s} def
/m33 {mp x y w2 add m w3 neg w2 neg d w3 w2 neg d w3 w2 d cl f} def
/m34 {mp x w2 sub y w2 sub w3 add m w3 0 d  0 w3 neg d w3 0 d 0 w3 d w3 0 d  0 w3 d w3 neg 0 d 0 w3 d w3 neg 0 d 0 w3 neg d w3 neg 0 d cl f } def
/m35 {mp x y w2 add m w2 neg w2 neg d w2 w2 neg d w2 w2 d w2 neg w2 d x y w2 sub m 0 w d x w2 sub y m w 0 d s} def
/m36 {mb x w2 sub y w2 add m w w neg d x w2 sub y w2 sub m w w d s} def
/m37 {mp x y m w4 neg w2 d w4 neg w2 neg d w2 0 d  w4 neg w2 neg d w2 0 d w4 neg w2 d w2 0 d w4 neg w2 d w4 neg w2 neg d cl s} def
/m38 {mp x w4 sub y w2 add m w4 neg w4 neg d 0 w2 neg d w4 w4 neg d w2 0 d w4 w4 d 0 w2 d w4 neg w4 d w2 neg 0 d x y w2 sub m 0 w d x w2 sub y m w 0 d cl s} def
/m39 {mp x y m w4 neg w2 d w4 neg w2 neg d w2 0 d  w4 neg w2 neg d w2 0 d w4 neg w2 d w2 0 d w4 neg w2 d w4 neg w2 neg d cl f} def
/m40 {mp x y m w4 w2 d w4 w4 neg d w2 neg w4 neg d w2 w4 neg d w4 neg w4 neg d w4 neg w2 d w4 neg w2 neg d w4 neg w4 d w2 w4 d w2 neg w4 d w4 w4 d w4 w2 neg d cl s} def
/m41 {mp x y m w4 w2 d w4 w4 neg d w2 neg w4 neg d w2 w4 neg d w4 neg w4 neg d w4 neg w2 d w4 neg w2 neg d w4 neg w4 d w2 w4 d w2 neg w4 d w4 w4 d w4 w2 neg d cl f} def
/m42 {mp x y w2 add m w8 neg w2 -3 4 div mul d w2 -3 4 div mul w8 neg d w2 3 4 div mul w8 neg d w8 w2 -3 4 div mul d w8 w2 3 4 div mul d w2 3 4 div mul w8 d w2 -3 4 div mul w8 d w8 neg w2 3 4 div mul d cl s} def
/m43 {mp x y w2 add m w8 neg w2 -3 4 div mul d w2 -3 4 div mul w8 neg d w2 3 4 div mul w8 neg d w8 w2 -3 4 div mul d w8 w2 3 4 div mul d w2 3 4 div mul w8 d w2 -3 4 div mul w8 d w8 neg w2 3 4 div mul d cl f} def
/m44 {mp x y m w6 neg w2 d w2 2 3 div mul 0 d w6 neg w2 neg d w2 w6 d 0 w2 -2 3 div mul d w2 neg w6 d w6 w2 neg d w2 -2 3 div mul 0 d w6 w2 d w2 neg w6 neg d 0 w2 2 3 div mul d w2 w6 neg d cl s} def
/m45 {mp x y m w6 neg w2 d w2 2 3 div mul 0 d w6 neg w2 neg d w2 w6 d 0 w2 -2 3 div mul d w2 neg w6 d w6 w2 neg d w2 -2 3 div mul 0 d w6 w2 d w2 neg w6 neg d 0 w2 2 3 div mul d w2 w6 neg d cl f} def
/m46 {mp x y w4 add m w4 neg w4 d w4 neg w4 neg d  w4 w4 neg d w4 neg w4 neg d w4 w4 neg d w4 w4 d w4 w4 neg d w4 w4 d w4 neg w4 d w4 w4 d w4 neg w4 d w4 neg w4 neg d cl s} def
/m47 {mp x y w4 add m w4 neg w4 d w4 neg w4 neg d w4 w4 neg d w4 neg w4 neg d  w4 w4 neg d w4 w4 d w4 w4 neg d w4 w4 d w4 neg w4 d w4 w4 d w4 neg w4 d w4 neg w4 neg d cl f} def
/m48 {mp x y w4 add m w4 neg w4 d w4 neg w4 neg d w4 w4 neg d  w4 neg w4 neg d w4 w4 neg d w4 w4 d w4 w4 neg d w4 w4 d w4 neg w4 d w4 w4 d w4 neg w4 d w4 neg w4 neg d  w4 w4 neg d w4 neg w4 neg d w4 neg w4 d w4 w4 d cl f} def
/m49 {mp x w2 sub w3 add y w2 sub w3 add m  0 w3 neg d w3 0 d 0 w3 d w3 0 d 0 w3 d w3 neg 0 d 0 w3 d w3 neg 0 d 0 w3 neg d w3 neg 0 d 0 w3 neg d w3 0 d 0 w3 d w3 0 d 0 w3 neg d w3 neg 0 d cl f } def
/m2 {mp x y w2 sub m 0 w d x w2 sub y m w 0 d s} def
/m5 {mp x w2 sub y w2 sub m w w d x w2 sub y w2 add m w w neg d s} def
%%IncludeResource: ProcSet (FontSetInit)
%%IncludeResource: font Times-Roman
%%IncludeResource: font Times-Italic
%%IncludeResource: font Times-Bold
%%IncludeResource: font Times-BoldItalic
%%IncludeResource: font Helvetica
%%IncludeResource: font Helvetica-Oblique
%%IncludeResource: font Helvetica-Bold
%%IncludeResource: font Helvetica-BoldOblique
%%IncludeResource: font Courier
%%IncludeResource: font Courier-Oblique
%%IncludeResource: font Courier-Bold
%%IncludeResource: font Courier-BoldOblique
%%IncludeResource: font Symbol
%%IncludeResource: font ZapfDingbats
/reEncode {exch findfont dup length dict begin {1 index /FID eq  {pop pop} {def} ifelse } forall /Encoding exch def currentdict end dup /FontName get exch definefont pop } def [/Times-Bold /Times-Italic /Times-BoldItalic /Helvetica /Helvetica-Oblique
 /Helvetica-Bold /Helvetica-BoldOblique /Courier /Courier-Oblique /Courier-Bold /Courier-BoldOblique /Times-Roman /AvantGarde-Book /AvantGarde-BookOblique /AvantGarde-Demi /AvantGarde-DemiOblique /Bookman-Demi /Bookman-DemiItalic /Bookman-Light
 /Bookman-LightItalic /Helvetica-Narrow /Helvetica-Narrow-Bold /Helvetica-Narrow-BoldOblique /Helvetica-Narrow-Oblique /NewCenturySchlbk-Roman /NewCenturySchlbk-Bold /NewCenturySchlbk-BoldItalic /NewCenturySchlbk-Italic /Palatino-Bold
 /Palatino-BoldItalic /Palatino-Italic /Palatino-Roman ] {ISOLatin1Encoding reEncode } forall
%%EndProlog
%%BeginSetup
%%EndSetup
newpath  gsave  .25 .25 scale  gsave  0 0 t black[  ] 0 sd 3 lw 1 1 1 c 2268 1538 0 0 bf black 1 1 1 c 1950 1284 272 231 bf black 1950 1284 272 231 bl 1 1 1 c 6 lw black 1 1 1 c 272 231 m 1950 X s black 3 lw 272 231 m 1950 X s 1013 270 m -39 Y s 1200
 251 m -20 Y s 1388 251 m -20 Y s 1575 251 m -20 Y s 1762 270 m -39 Y s 1013 270 m -39 Y s 826 251 m -20 Y s 639 251 m -20 Y s 452 251 m -20 Y s 1762 270 m -39 Y s 1949 251 m -20 Y s 2137 251 m -20 Y s
 gsave  2268 1538 0 0 C 967.689 172.685 t 0 r /Helvetica findfont 61.9061 sf 0 0 m (0.2) show NC gr 
 gsave  2268 1538 0 0 C 1717.08 172.685 t 0 r /Helvetica findfont 61.9061 sf 0 0 m (0.4) show NC gr 
 gsave  2268 1538 0 0 C 2101.55 78.1971 t 0 r /Helvetica findfont 74.9389 sf 0 0 m ( [fb]) show NC gr 
 gsave  2268 1538 0 0 C 1987.51 52.1314 t 0 r /Helvetica findfont 52.1314 sf 0 0 m (fit) show NC gr 
 gsave  2268 1538 0 0 C 1987.51 110.779 t 0 r /Helvetica findfont 52.1314 sf 0 0 m (bin,3) show NC gr 
 gsave  2268 1538 0 0 C 1941.9 78.1971 t 0 r /Symbol findfont 74.9389 sf 0 0 m (s) show NC gr  272 1515 m 1950 X s 1013 1475 m 40 Y s 1200 1495 m 20 Y s 1388 1495 m 20 Y s 1575 1495 m 20 Y s 1762 1475 m 40 Y s 1013 1475 m 40 Y s 826 1495 m 20 Y s 639
 1495 m 20 Y s 452 1495 m 20 Y s 1762 1475 m 40 Y s 1949 1495 m 20 Y s 2137 1495 m 20 Y s 272 231 m 1284 Y s 329 472 m -57 X s 301 521 m -29 X s 301 571 m -29 X s 301 620 m -29 X s 301 669 m -29 X s 329 719 m -57 X s 301 768 m -29 X s 301 817 m -29 X
 s 301 867 m -29 X s 301 916 m -29 X s 329 965 m -57 X s 301 1015 m -29 X s 301 1064 m -29 X s 301 1113 m -29 X s 301 1162 m -29 X s 329 1212 m -57 X s 301 1261 m -29 X s 301 1310 m -29 X s 301 1360 m -29 X s 301 1409 m -29 X s 329 1458 m -57 X s 329
 472 m -57 X s 301 423 m -29 X s 301 373 m -29 X s 301 324 m -29 X s 301 275 m -29 X s 329 1458 m -57 X s 301 1508 m -29 X s
 gsave  2268 1538 0 0 C 185.718 449.633 t 0 r /Helvetica findfont 61.9061 sf 0 0 m (0.1) show NC gr 
 gsave  2268 1538 0 0 C 175.944 697.258 t 0 r /Helvetica findfont 61.9061 sf 0 0 m (0.2) show NC gr 
 gsave  2268 1538 0 0 C 175.944 944.882 t 0 r /Helvetica findfont 61.9061 sf 0 0 m (0.3) show NC gr 
 gsave  2268 1538 0 0 C 175.944 1189.25 t 0 r /Helvetica findfont 61.9061 sf 0 0 m (0.4) show NC gr 
 gsave  2268 1538 0 0 C 175.944 1436.87 t 0 r /Helvetica findfont 61.9061 sf 0 0 m (0.5) show NC gr 
 gsave  2268 1538 0 0 C 120.554 1394.52 t 90 r /Helvetica findfont 74.9389 sf 0 0 m ( [fb]) show NC gr 
 gsave  2268 1538 0 0 C 146.62 1280.48 t 90 r /Helvetica findfont 52.1314 sf 0 0 m (true) show NC gr 
 gsave  2268 1538 0 0 C 87.9718 1280.48 t 90 r /Helvetica findfont 52.1314 sf 0 0 m (bin,3) show NC gr 
 gsave  2268 1538 0 0 C 120.554 1234.86 t 90 r /Symbol findfont 74.9389 sf 0 0 m (s) show NC gr  2222 231 m 1284 Y s 2166 472 m 56 X s 2194 521 m 28 X s 2194 571 m 28 X s 2194 620 m 28 X s 2194 669 m 28 X s 2166 719 m 56 X s 2194 768 m 28 X s 2194
 817 m 28 X s 2194 867 m 28 X s 2194 916 m 28 X s 2166 965 m 56 X s 2194 1015 m 28 X s 2194 1064 m 28 X s 2194 1113 m 28 X s 2194 1162 m 28 X s 2166 1212 m 56 X s 2194 1261 m 28 X s 2194 1310 m 28 X s 2194 1360 m 28 X s 2194 1409 m 28 X s 2166 1458 m
 56 X s 2166 472 m 56 X s 2194 423 m 28 X s 2194 373 m 28 X s 2194 324 m 28 X s 2194 275 m 28 X s 2166 1458 m 56 X s 2194 1508 m 28 X s 1 0 0 c 1 1 1 c 1 0 0 c 34 23 499 572 bl 1 1 1 c 1 0 0 c 34 22 499 637 bl 1 1 1 c 1 0 0 c 59 40 584 628 bl 1 1 1 c
 1 0 0 c 69 45 579 690 bl 1 1 1 c 1 0 0 c 34 23 694 701 bl 1 1 1 c 1 0 0 c 49 32 784 760 bl 1 1 1 c 1 0 0 c 49 32 784 825 bl 1 1 1 c 1 0 0 c 98 64 857 873 bl 1 1 1 c 1 0 0 c 35 23 986 893 bl 1 1 1 c 1 0 0 c 69 46 969 946 bl 1 1 1 c 1 0 0 c 68 45 1067
 1011 bl 1 1 1 c 1 0 0 c 34 23 1084 1086 bl 1 1 1 c 1 0 0 c 49 33 1174 1081 bl 1 1 1 c 1 0 0 c 34 23 1279 1150 bl 1 1 1 c 1 0 0 c 69 46 1359 1203 bl 1 1 1 c 1 0 0 c 34 23 1474 1343 bl 1 1 1 c black 1 1 1 c black 35 23 401 508 bl 1 1 1 c black 34 23
 499 572 bl 1 1 1 c black 34 22 499 637 bl 1 1 1 c black 69 46 579 625 bl 1 1 1 c black 77 51 575 687 bl 1 1 1 c black 34 23 694 701 bl 1 1 1 c black 59 39 779 757 bl 1 1 1 c black 69 45 774 818 bl 1 1 1 c black 34 23 889 829 bl 1 1 1 c black 98 64
 857 873 bl 1 1 1 c black 35 23 986 893 bl 1 1 1 c black 69 46 969 946 bl 1 1 1 c black 34 22 1084 958 bl 1 1 1 c black 68 45 1067 1011 bl 1 1 1 c black 34 23 1084 1086 bl 1 1 1 c black 49 33 1174 1081 bl 1 1 1 c black 34 23 1279 1150 bl 1 1 1 c
 black 69 46 1359 1203 bl 1 1 1 c black 34 23 1474 1343 bl 1 1 1 c 0 0 1 c 1 1 1 c black[ 12 12] 0 sd 9 lw 1 1 1 c black 321 413 m 19 1 d 18 4 d 21 9 d 17 11 d 19 14 d 3 3 d 13 14 d 15 20 d 24 37 d 24 37 d 13 19 d 9 10 d 21 20 d 22 19 d 25 16 d 29 16
 d 20 7 d 78 14 d 32 13 d 48 25 d 17 9 d 34 21 d 64 40 d 97 58 d 57 36 d 31 19 d 10 5 d 29 13 d 68 24 d 43 11 d 27 9 d 18 8 d 10 6 d 15 12 d 21 21 d 37 42 d 16 16 d 9 7 d 97 45 d 32 21 d 52 37 d 14 8 d 45 25 d 30 14 d 22 8 d 98 15 d 11 9 d 14 14 d 23
 29 d 22 27 d 14 14 d 11 8 d 2 1 d 9 7 d 11 13 d 21 27 d 9 9 d 8 4 d 6 2 d 6 -2 d 7 -6 d 5 -8 d 5 -12 d 5 -13 d 5 -17 d 1 -4 d 6 -29 d 6 -32 d 6 -34 d 6 -37 d 6 -39 d 5 -42 d 5 -44 d 5 -47 d 5 -49 d 5 -53 d 5 -55 d 5 -59 d 4 -62 d 5 -64 d 4 -68 d 3
 -60 d 5 -79 d 3 -71 d 3 -72 d 3 -70 d 2 -57 d s[  ] 0 sd 1 1 1 c black 528 1515 m 3 -46 d s 531 1469 m 5 -74 d 5 -71 d 5 -68 d 5 -65 d 6 -63 d 5 -61 d 5 -59 d 5 -56 d 6 -52 d 5 -50 d 5 -40 d 5 -43 d 6 -40 d 5 -37 d 5 -32 d 4 -24 d 4 -20 d 4 -17 d 5
 -15 d 5 -12 d 4 -8 d 5 -5 d 5 -2 d 6 2 d 6 5 d 9 11 d 14 24 d 12 22 d 7 8 d 6 5 d 6 2 d 6 -1 d 7 -6 d 8 -12 d 29 -45 d 7 -7 d 6 -3 d 5 1 d 5 4 d 5 6 d 4 10 d 4 12 d 4 14 d 4 17 d s 805 624 m 3 16 d 6 32 d 5 34 d 5 36 d 6 39 d 5 42 d 5 44 d 5 48 d 5
 52 d 5 55 d 6 60 d 5 63 d 5 66 d 6 69 d 4 62 d 6 75 d 5 78 d 1 20 d s 929 1515 m 8 -75 d s 937 1440 m 17 -125 d 17 -117 d 15 -92 d 17 -89 d 14 -55 d 13 -42 d 17 -40 d 24 -34 d 30 -36 d 15 -10 d 23 6 d 25 10 d 16 -7 d 11 -17 d 7 -17 d 11 -22 d 27 -25
 d 11 -20 d 7 -24 d 8 -36 d 8 -54 d 6 -57 d 7 -73 d 5 -72 d 6 -87 d 2 -43 d 2 -31 d s 1553 231 m 4 141 d s 1557 372 m 6 179 d 5 165 d 6 152 d 6 135 d 5 125 d 4 66 d 4 74 d 4 71 d 5 54 d 5 40 d 5 28 d 6 15 d 6 1 d 6 -13 d 8 -32 d 13 -73 d 16 -98 d 7
 -32 d 6 -19 d 6 -7 d 16 -5 d 49 -32 d 12 4 d 12 14 d 9 17 d 15 43 d 16 60 d 16 72 d 17 93 d 7 46 d s 1 1 1 c black 321 1229 m 7 -1 d 7 1 d 7 5 d 7 8 d 8 11 d 7 14 d 8 20 d 7 20 d 8 24 d 7 27 d 8 34 d 7 32 d 7 36 d 2 11 d 7 38 d 1 6 d s 553 1515 m 6
 -107 d s 559 1408 m 9 -129 d 7 -102 d 7 -99 d 8 -91 d 8 -87 d 7 -68 d 7 -63 d 1 -10 d 6 -38 d 6 -30 d 6 -23 d 6 -15 d 7 -7 d 8 1 d 9 12 d 13 29 d 21 52 d 9 16 d 7 7 d 6 -2 d 8 -13 d 9 -26 d 24 -82 d 8 -16 d 6 -4 d 6 5 d 5 11 d 5 19 d 4 27 d 5 35 d 4
 41 d 4 46 d 3 50 d 6 86 d 5 92 d 6 99 d 5 107 d 5 114 d 6 122 d 1 41 d s 1062 1515 m 5 -84 d s 1067 1431 m 8 -119 d 9 -115 d 7 -88 d 8 -81 d 2 -14 d 6 -45 d 5 -33 d 7 -23 d 6 -13 d 8 X 9 14 d 13 38 d 21 70 d 10 23 d 7 6 d 5 -3 d 12 -6 d 32 8 d 11 -9
 d 10 -22 d 8 -29 d 8 -46 d 6 -48 d 6 -56 d 5 -55 d 8 -98 d 8 -112 d 8 -125 d 8 -139 d 4 -80 d s 1534 231 m 1 13 d s 1535 244 m 5 150 d 6 142 d 7 150 d 5 119 d 6 115 d 6 107 d 6 106 d 5 84 d 6 80 d 2 18 d 4 48 d 5 46 d 4 34 d 5 26 d 6 18 d 5 9 d 6 X
 7 -10 d 8 -25 d 16 -61 d 12 -50 d 7 -21 d 6 -12 d 6 -4 d 16 -5 d 47 -24 d 13 3 d 11 8 d 11 17 d 15 34 d 12 36 d 15 49 d 15 58 d 5 26 d s 0 0 1 c[ 12 12] 0 sd 1 1 1 c black 0 0 1 c[  ] 0 sd 1 1 1 c black 0 0 1 c 1 1 1 c black 1 0 0 c[ 12 12] 0 sd 1 1
 1 c black 1 0 0 c 321 359 m 20 8 d 19 12 d 21 16 d 18 18 d 19 21 d 13 17 d 14 23 d 23 42 d 23 41 d 13 21 d 12 17 d 19 21 d 20 19 d 22 17 d 25 16 d 11 6 d 18 6 d 80 11 d 77 13 d 20 8 d 17 11 d 21 18 d 44 43 d 16 13 d 97 58 d 37 26 d 40 30 d 21 12 d
 30 14 d 34 13 d 33 10 d 21 4 d 48 6 d 15 4 d 14 7 d 13 10 d 15 16 d 24 29 d 23 29 d 14 14 d 9 6 d 97 39 d 25 16 d 62 44 d 11 6 d 45 25 d 30 14 d 22 8 d 98 15 d 11 9 d 14 14 d 23 29 d 22 27 d 14 14 d 11 8 d 2 1 d 9 7 d 11 13 d 21 27 d 9 9 d 8 4 d 6 2
 d 6 -2 d 7 -6 d 5 -8 d 5 -12 d 5 -13 d 5 -17 d 1 -4 d 6 -29 d 6 -32 d 6 -34 d 6 -37 d 6 -39 d 5 -42 d 5 -44 d 5 -47 d 5 -49 d 5 -53 d 5 -55 d 5 -59 d 4 -62 d 5 -64 d 4 -68 d 3 -60 d 5 -79 d 3 -71 d 3 -72 d 3 -70 d 2 -57 d s[  ] 0 sd 6 lw 1 1 1 c
 black 1 0 0 c 448 231 m 2 36 d s 450 267 m 4 100 d 4 95 d 5 91 d 4 87 d 5 83 d 5 79 d 4 73 d 5 77 d 5 59 d 5 56 d 4 51 d 6 49 d 4 36 d 5 33 d 1 8 d 3 17 d 3 11 d 4 6 d 3 1 d 4 -6 d 4 -13 d 5 -19 d 4 -27 d 5 -35 d 5 -46 d 7 -62 d 15 -162 d 8 -82 d 6
 -58 d 5 -44 d 6 -38 d 4 -25 d 4 -19 d 2 -10 d 7 -18 d 7 -14 d 8 -9 d 9 -4 d 10 2 d 14 10 d 26 25 d 10 7 d 7 1 d 7 3 d 9 10 d 13 24 d 16 31 d 8 12 d 7 6 d 7 1 d s 778 720 m 6 -4 d 5 -10 d 7 -17 d 4 -18 d 5 -23 d 3 -20 d 7 -42 d 6 -47 d 6 -52 d 7 -59
 d 6 -64 d 7 -70 d 5 -63 d s 1032 1515 m 10 -130 d s 1042 1385 m 9 -110 d 9 -104 d 10 -93 d 10 -91 d 9 -67 d 9 -62 d 3 -15 d 5 -23 d 6 -12 d 5 -1 d 7 10 d 8 26 d 12 58 d 13 55 d 7 24 d 7 10 d 5 X 5 -11 d 6 -23 d 4 -28 d 4 -37 d 3 -34 d 7 -78 d 6 -87
 d 6 -97 d 6 -107 d 7 -118 d 6 -130 d -9 Y s 1553 231 m 4 141 d s 1557 372 m 6 179 d 5 165 d 6 152 d 6 135 d 5 125 d 4 66 d 4 74 d 4 71 d 5 54 d 5 40 d 5 28 d 6 15 d 6 1 d 6 -13 d 8 -32 d 13 -73 d 16 -98 d 7 -32 d 6 -19 d 6 -7 d 16 -5 d 49 -32 d 12 4
 d 12 14 d 9 17 d 15 43 d 16 60 d 16 72 d 17 93 d 7 46 d s 9 lw 1 1 1 c black 1 0 0 c 526 1515 m -1 Y s 526 1514 m 10 -123 d 10 -113 d 10 -109 d 9 -84 d 11 -98 d 10 -75 d 10 -66 d 10 -55 d 7 -39 d 8 -28 d 7 -21 d 9 -13 d 9 -5 d 12 6 d 16 21 d 23 32 d
 12 8 d 2 1 d 15 -4 d 43 -28 d 13 4 d 9 10 d 9 18 d 8 26 d 33 115 d 10 45 d 8 45 d 8 46 d 7 56 d 7 61 d 7 67 d 6 73 d 6 73 d 6 92 d 4 63 d s 1075 1515 m 6 -128 d s 1081 1387 m 7 -130 d 6 -106 d 7 -100 d 4 -53 d 5 -46 d 5 -31 d 5 -18 d 6 -5 d 6 7 d 7
 24 d 9 46 d 18 101 d 7 33 d 6 17 d 7 2 d 4 -9 d 5 -20 d 3 -22 d 9 -72 d 9 -86 d 9 -99 d 9 -113 d 9 -133 d 9 -126 d 9 -151 d s 1261 297 m 3 -66 d s 1534 231 m 1 13 d s 1535 244 m 5 150 d 6 142 d 7 150 d 5 119 d 6 115 d 6 107 d 6 106 d 5 84 d 6 80 d 2
 18 d 4 48 d 5 46 d 4 34 d 5 26 d 6 18 d 5 9 d 6 X 7 -10 d 8 -25 d 16 -61 d 12 -50 d 7 -21 d 6 -12 d 6 -4 d 16 -5 d 47 -24 d 13 3 d 11 8 d 11 17 d 15 34 d 12 36 d 15 49 d 15 58 d 5 26 d s black 1247 231 m 1284 Y s
 gr  gr showpage
end
%%EOF
