%!PS-Adobe-2.0 EPSF-2.0
%%BoundingBox:  0 0 567 384
%%Title: plots/iter_1/iterationsToys_ws_DYjj/ccBelts_0_iter1.eps: 
%%Creator: ROOT Version 6.16/00
%%CreationDate: Fri Nov 13 20:48:38 2020
%%DocumentNeededResources: ProcSet (FontSetInit)
%%EndComments
%%BeginProlog
80 dict begin
/s {stroke} def /l {lineto} def /m {moveto} def /t {translate} def
/r {rotate} def /rl {roll}  def /R {repeat} def
/d {rlineto} def /rm {rmoveto} def /gr {grestore} def /f {eofill} def
/c {setrgbcolor} def /black {0 setgray} def /sd {setdash} def
/cl {closepath} def /sf {scalefont setfont} def /lw {setlinewidth} def
/box {m dup 0 exch d exch 0 d 0 exch neg d cl} def
/NC{systemdict begin initclip end}def/C{NC box clip newpath}def
/bl {box s} def /bf {gsave box gsave f grestore 1 lw [] 0 sd s grestore} def /Y { 0 exch d} def /X { 0 d} def 
/K {{pop pop 0 moveto} exch kshow} bind def
/ita {/ang 15 def gsave [1 0 ang dup sin exch cos div 1 0 0] concat} def 
/mp {newpath /y exch def /x exch def} def
/side {[w .77 mul w .23 mul] .385 w mul sd w 0 l currentpoint t -144 r} def
/mr {mp x y w2 0 360 arc} def /m24 {mr s} def /m20 {mr f} def
/mb {mp x y w2 add m w2 neg 0 d 0 w neg d w 0 d 0 w d cl} def
/mt {mp x y w2 add m w2 neg w neg d w 0 d cl} def
/w4 {w 4 div} def
/w6 {w 6 div} def
/w8 {w 8 div} def
/m21 {mb f} def /m25 {mb s} def /m22 {mt f} def /m26{mt s} def
/m23 {mp x y w2 sub m w2 w d w neg 0 d cl f} def
/m27 {mp x y w2 add m w3 neg w2 neg d w3 w2 neg d w3 w2 d cl s} def
/m28 {mp x w2 sub y w2 sub w3 add m w3 0 d  0 w3 neg d w3 0 d 0 w3 d w3 0 d  0 w3 d w3 neg 0 d 0 w3 d w3 neg 0 d 0 w3 neg d w3 neg 0 d cl s } def
/m29 {mp gsave x w2 sub y w2 add w3 sub m currentpoint t 4 {side} repeat cl fill gr} def
/m30 {mp gsave x w2 sub y w2 add w3 sub m currentpoint t 4 {side} repeat cl s gr} def
/m31 {mp x y w2 sub m 0 w d x w2 sub y m w 0 d x w2 sub y w2 add m w w neg d x w2 sub y w2 sub m w w d s} def
/m32 {mp x y w2 sub m w2 w d w neg 0 d cl s} def
/m33 {mp x y w2 add m w3 neg w2 neg d w3 w2 neg d w3 w2 d cl f} def
/m34 {mp x w2 sub y w2 sub w3 add m w3 0 d  0 w3 neg d w3 0 d 0 w3 d w3 0 d  0 w3 d w3 neg 0 d 0 w3 d w3 neg 0 d 0 w3 neg d w3 neg 0 d cl f } def
/m35 {mp x y w2 add m w2 neg w2 neg d w2 w2 neg d w2 w2 d w2 neg w2 d x y w2 sub m 0 w d x w2 sub y m w 0 d s} def
/m36 {mb x w2 sub y w2 add m w w neg d x w2 sub y w2 sub m w w d s} def
/m37 {mp x y m w4 neg w2 d w4 neg w2 neg d w2 0 d  w4 neg w2 neg d w2 0 d w4 neg w2 d w2 0 d w4 neg w2 d w4 neg w2 neg d cl s} def
/m38 {mp x w4 sub y w2 add m w4 neg w4 neg d 0 w2 neg d w4 w4 neg d w2 0 d w4 w4 d 0 w2 d w4 neg w4 d w2 neg 0 d x y w2 sub m 0 w d x w2 sub y m w 0 d cl s} def
/m39 {mp x y m w4 neg w2 d w4 neg w2 neg d w2 0 d  w4 neg w2 neg d w2 0 d w4 neg w2 d w2 0 d w4 neg w2 d w4 neg w2 neg d cl f} def
/m40 {mp x y m w4 w2 d w4 w4 neg d w2 neg w4 neg d w2 w4 neg d w4 neg w4 neg d w4 neg w2 d w4 neg w2 neg d w4 neg w4 d w2 w4 d w2 neg w4 d w4 w4 d w4 w2 neg d cl s} def
/m41 {mp x y m w4 w2 d w4 w4 neg d w2 neg w4 neg d w2 w4 neg d w4 neg w4 neg d w4 neg w2 d w4 neg w2 neg d w4 neg w4 d w2 w4 d w2 neg w4 d w4 w4 d w4 w2 neg d cl f} def
/m42 {mp x y w2 add m w8 neg w2 -3 4 div mul d w2 -3 4 div mul w8 neg d w2 3 4 div mul w8 neg d w8 w2 -3 4 div mul d w8 w2 3 4 div mul d w2 3 4 div mul w8 d w2 -3 4 div mul w8 d w8 neg w2 3 4 div mul d cl s} def
/m43 {mp x y w2 add m w8 neg w2 -3 4 div mul d w2 -3 4 div mul w8 neg d w2 3 4 div mul w8 neg d w8 w2 -3 4 div mul d w8 w2 3 4 div mul d w2 3 4 div mul w8 d w2 -3 4 div mul w8 d w8 neg w2 3 4 div mul d cl f} def
/m44 {mp x y m w6 neg w2 d w2 2 3 div mul 0 d w6 neg w2 neg d w2 w6 d 0 w2 -2 3 div mul d w2 neg w6 d w6 w2 neg d w2 -2 3 div mul 0 d w6 w2 d w2 neg w6 neg d 0 w2 2 3 div mul d w2 w6 neg d cl s} def
/m45 {mp x y m w6 neg w2 d w2 2 3 div mul 0 d w6 neg w2 neg d w2 w6 d 0 w2 -2 3 div mul d w2 neg w6 d w6 w2 neg d w2 -2 3 div mul 0 d w6 w2 d w2 neg w6 neg d 0 w2 2 3 div mul d w2 w6 neg d cl f} def
/m46 {mp x y w4 add m w4 neg w4 d w4 neg w4 neg d  w4 w4 neg d w4 neg w4 neg d w4 w4 neg d w4 w4 d w4 w4 neg d w4 w4 d w4 neg w4 d w4 w4 d w4 neg w4 d w4 neg w4 neg d cl s} def
/m47 {mp x y w4 add m w4 neg w4 d w4 neg w4 neg d w4 w4 neg d w4 neg w4 neg d  w4 w4 neg d w4 w4 d w4 w4 neg d w4 w4 d w4 neg w4 d w4 w4 d w4 neg w4 d w4 neg w4 neg d cl f} def
/m48 {mp x y w4 add m w4 neg w4 d w4 neg w4 neg d w4 w4 neg d  w4 neg w4 neg d w4 w4 neg d w4 w4 d w4 w4 neg d w4 w4 d w4 neg w4 d w4 w4 d w4 neg w4 d w4 neg w4 neg d  w4 w4 neg d w4 neg w4 neg d w4 neg w4 d w4 w4 d cl f} def
/m49 {mp x w2 sub w3 add y w2 sub w3 add m  0 w3 neg d w3 0 d 0 w3 d w3 0 d 0 w3 d w3 neg 0 d 0 w3 d w3 neg 0 d 0 w3 neg d w3 neg 0 d 0 w3 neg d w3 0 d 0 w3 d w3 0 d 0 w3 neg d w3 neg 0 d cl f } def
/m2 {mp x y w2 sub m 0 w d x w2 sub y m w 0 d s} def
/m5 {mp x w2 sub y w2 sub m w w d x w2 sub y w2 add m w w neg d s} def
%%IncludeResource: ProcSet (FontSetInit)
%%IncludeResource: font Times-Roman
%%IncludeResource: font Times-Italic
%%IncludeResource: font Times-Bold
%%IncludeResource: font Times-BoldItalic
%%IncludeResource: font Helvetica
%%IncludeResource: font Helvetica-Oblique
%%IncludeResource: font Helvetica-Bold
%%IncludeResource: font Helvetica-BoldOblique
%%IncludeResource: font Courier
%%IncludeResource: font Courier-Oblique
%%IncludeResource: font Courier-Bold
%%IncludeResource: font Courier-BoldOblique
%%IncludeResource: font Symbol
%%IncludeResource: font ZapfDingbats
/reEncode {exch findfont dup length dict begin {1 index /FID eq  {pop pop} {def} ifelse } forall /Encoding exch def currentdict end dup /FontName get exch definefont pop } def [/Times-Bold /Times-Italic /Times-BoldItalic /Helvetica /Helvetica-Oblique
 /Helvetica-Bold /Helvetica-BoldOblique /Courier /Courier-Oblique /Courier-Bold /Courier-BoldOblique /Times-Roman /AvantGarde-Book /AvantGarde-BookOblique /AvantGarde-Demi /AvantGarde-DemiOblique /Bookman-Demi /Bookman-DemiItalic /Bookman-Light
 /Bookman-LightItalic /Helvetica-Narrow /Helvetica-Narrow-Bold /Helvetica-Narrow-BoldOblique /Helvetica-Narrow-Oblique /NewCenturySchlbk-Roman /NewCenturySchlbk-Bold /NewCenturySchlbk-BoldItalic /NewCenturySchlbk-Italic /Palatino-Bold
 /Palatino-BoldItalic /Palatino-Italic /Palatino-Roman ] {ISOLatin1Encoding reEncode } forall
%%EndProlog
%%BeginSetup
%%EndSetup
newpath  gsave  .25 .25 scale  gsave  0 0 t black[  ] 0 sd 3 lw 1 1 1 c 2268 1538 0 0 bf black 1 1 1 c 1950 1284 272 231 bf black 1950 1284 272 231 bl 1 1 1 c 6 lw black 1 1 1 c 272 231 m 1950 X s black 3 lw 272 231 m 1950 X s 669 270 m -39 Y s 789
 251 m -20 Y s 908 251 m -20 Y s 1028 251 m -20 Y s 1148 270 m -39 Y s 1267 251 m -20 Y s 1387 251 m -20 Y s 1507 251 m -20 Y s 1626 270 m -39 Y s 1746 251 m -20 Y s 1865 251 m -20 Y s 1985 251 m -20 Y s 2105 270 m -39 Y s 669 270 m -39 Y s 549 251 m
 -20 Y s 430 251 m -20 Y s 310 251 m -20 Y s 2105 270 m -39 Y s
 gsave  2268 1538 0 0 C 625.577 172.685 t 0 r /Helvetica findfont 61.9061 sf 0 0 m (0.4) show NC gr 
 gsave  2268 1538 0 0 C 1104.53 172.685 t 0 r /Helvetica findfont 61.9061 sf 0 0 m (0.6) show NC gr 
 gsave  2268 1538 0 0 C 1583.49 172.685 t 0 r /Helvetica findfont 61.9061 sf 0 0 m (0.8) show NC gr 
 gsave  2268 1538 0 0 C 2088.51 172.685 t 0 r /Helvetica findfont 61.9061 sf 0 0 m (1) show NC gr 
 gsave  2268 1538 0 0 C 2101.55 78.1971 t 0 r /Helvetica findfont 74.9389 sf 0 0 m ( [fb]) show NC gr 
 gsave  2268 1538 0 0 C 1987.51 52.1314 t 0 r /Helvetica findfont 52.1314 sf 0 0 m (fit) show NC gr 
 gsave  2268 1538 0 0 C 1987.51 110.779 t 0 r /Helvetica findfont 52.1314 sf 0 0 m (bin,0) show NC gr 
 gsave  2268 1538 0 0 C 1941.9 78.1971 t 0 r /Symbol findfont 74.9389 sf 0 0 m (s) show NC gr  272 1515 m 1950 X s 669 1475 m 40 Y s 789 1495 m 20 Y s 908 1495 m 20 Y s 1028 1495 m 20 Y s 1148 1475 m 40 Y s 1267 1495 m 20 Y s 1387 1495 m 20 Y s 1507
 1495 m 20 Y s 1626 1475 m 40 Y s 1746 1495 m 20 Y s 1865 1495 m 20 Y s 1985 1495 m 20 Y s 2105 1475 m 40 Y s 669 1475 m 40 Y s 549 1495 m 20 Y s 430 1495 m 20 Y s 310 1495 m 20 Y s 2105 1475 m 40 Y s 272 231 m 1284 Y s 329 334 m -57 X s 301 366 m
 -29 X s 301 398 m -29 X s 301 429 m -29 X s 301 461 m -29 X s 329 492 m -57 X s 301 524 m -29 X s 301 555 m -29 X s 301 587 m -29 X s 301 618 m -29 X s 329 650 m -57 X s 301 681 m -29 X s 301 713 m -29 X s 301 744 m -29 X s 301 776 m -29 X s 329 807
 m -57 X s 301 839 m -29 X s 301 870 m -29 X s 301 902 m -29 X s 301 933 m -29 X s 329 965 m -57 X s 301 996 m -29 X s 301 1028 m -29 X s 301 1059 m -29 X s 301 1091 m -29 X s 329 1122 m -57 X s 301 1154 m -29 X s 301 1185 m -29 X s 301 1217 m -29 X
 s 301 1248 m -29 X s 329 1280 m -57 X s 301 1311 m -29 X s 301 1343 m -29 X s 301 1374 m -29 X s 301 1406 m -29 X s 329 1437 m -57 X s 329 334 m -57 X s 301 303 m -29 X s 301 271 m -29 X s 301 240 m -29 X s 329 1437 m -57 X s 301 1469 m -29 X s 301
 1500 m -29 X s
 gsave  2268 1538 0 0 C 175.944 312.788 t 0 r /Helvetica findfont 61.9061 sf 0 0 m (0.3) show NC gr 
 gsave  2268 1538 0 0 C 175.944 472.441 t 0 r /Helvetica findfont 61.9061 sf 0 0 m (0.4) show NC gr 
 gsave  2268 1538 0 0 C 175.944 628.835 t 0 r /Helvetica findfont 61.9061 sf 0 0 m (0.5) show NC gr 
 gsave  2268 1538 0 0 C 175.944 785.229 t 0 r /Helvetica findfont 61.9061 sf 0 0 m (0.6) show NC gr 
 gsave  2268 1538 0 0 C 175.944 944.882 t 0 r /Helvetica findfont 61.9061 sf 0 0 m (0.7) show NC gr 
 gsave  2268 1538 0 0 C 175.944 1101.28 t 0 r /Helvetica findfont 61.9061 sf 0 0 m (0.8) show NC gr 
 gsave  2268 1538 0 0 C 175.944 1257.67 t 0 r /Helvetica findfont 61.9061 sf 0 0 m (0.9) show NC gr 
 gsave  2268 1538 0 0 C 237.85 1414.06 t 0 r /Helvetica findfont 61.9061 sf 0 0 m (1) show NC gr 
 gsave  2268 1538 0 0 C 120.554 1394.52 t 90 r /Helvetica findfont 74.9389 sf 0 0 m ( [fb]) show NC gr 
 gsave  2268 1538 0 0 C 146.62 1280.48 t 90 r /Helvetica findfont 52.1314 sf 0 0 m (true) show NC gr 
 gsave  2268 1538 0 0 C 87.9718 1280.48 t 90 r /Helvetica findfont 52.1314 sf 0 0 m (bin,0) show NC gr 
 gsave  2268 1538 0 0 C 120.554 1234.86 t 90 r /Symbol findfont 74.9389 sf 0 0 m (s) show NC gr  2222 231 m 1284 Y s 2166 334 m 56 X s 2194 366 m 28 X s 2194 398 m 28 X s 2194 429 m 28 X s 2194 461 m 28 X s 2166 492 m 56 X s 2194 524 m 28 X s 2194
 555 m 28 X s 2194 587 m 28 X s 2194 618 m 28 X s 2166 650 m 56 X s 2194 681 m 28 X s 2194 713 m 28 X s 2194 744 m 28 X s 2194 776 m 28 X s 2166 807 m 56 X s 2194 839 m 28 X s 2194 870 m 28 X s 2194 902 m 28 X s 2194 933 m 28 X s 2166 965 m 56 X s
 2194 996 m 28 X s 2194 1028 m 28 X s 2194 1059 m 28 X s 2194 1091 m 28 X s 2166 1122 m 56 X s 2194 1154 m 28 X s 2194 1185 m 28 X s 2194 1217 m 28 X s 2194 1248 m 28 X s 2166 1280 m 56 X s 2194 1311 m 28 X s 2194 1343 m 28 X s 2194 1374 m 28 X s
 2194 1406 m 28 X s 2166 1437 m 56 X s 2166 334 m 56 X s 2194 303 m 28 X s 2194 271 m 28 X s 2194 240 m 28 X s 2166 1437 m 56 X s 2194 1469 m 28 X s 2194 1500 m 28 X s 1 0 0 c 1 1 1 c 1 0 0 c 97 64 565 680 bl 1 1 1 c 1 0 0 c 69 45 774 754 bl 1 1 1 c
 1 0 0 c 69 45 871 818 bl 1 1 1 c 1 0 0 c 97 64 955 873 bl 1 1 1 c 1 0 0 c 68 45 1262 1075 bl 1 1 1 c 1 0 0 c 69 45 1359 1075 bl 1 1 1 c 1 0 0 c 69 46 1554 1203 bl 1 1 1 c black 1 1 1 c black 97 64 565 680 bl 1 1 1 c black 69 45 774 754 bl 1 1 1 c
 black 69 45 871 818 bl 1 1 1 c black 97 64 955 873 bl 1 1 1 c black 68 45 1262 1075 bl 1 1 1 c black 69 45 1359 1075 bl 1 1 1 c black 69 46 1554 1203 bl 1 1 1 c 0 0 1 c 1 1 1 c 0 0 1 c 69 45 579 690 bl 1 1 1 c 0 0 1 c 69 45 774 754 bl 1 1 1 c 0 0 1
 c 69 46 969 882 bl 1 1 1 c 0 0 1 c 68 45 1262 1075 bl 1 1 1 c black[ 12 12] 0 sd 9 lw 1 1 1 c black 321 455 m 97 X 16 -2 d 48 -10 d 13 1 d 11 4 d 10 7 d 10 12 d 12 17 d 14 24 d 21 44 d 22 43 d 13 23 d 5 9 d 27 36 d 24 28 d 20 21 d 21 18 d 6 4 d 17 9
 d 21 6 d 56 10 d 3 1 d 28 14 d 45 25 d 21 9 d 4 1 d 19 2 d 59 -5 d 19 3 d 32 9 d 25 11 d 23 14 d 18 14 d 15 14 d 22 28 d 34 44 d 15 16 d 11 10 d 14 8 d 18 5 d 45 6 d 12 7 d 9 6 d 12 13 d 13 19 d 23 39 d 21 35 d 14 19 d 11 11 d 4 3 d 12 7 d 15 3 d 21
 -1 d 49 -9 d 38 -4 d 29 -2 d 17 2 d 14 4 d 13 9 d 14 12 d 29 30 d 20 21 d 14 10 d 7 4 d 8 6 d 10 12 d 26 42 d 8 10 d 7 6 d 6 1 d 6 -2 d 6 -8 d 5 -10 d 6 -15 d 4 -16 d 4 -20 d 2 -6 d 6 -36 d 6 -39 d 6 -43 d 5 -45 d 6 -48 d 5 -51 d 5 -54 d 5 -57 d 5
 -61 d 5 -65 d 5 -69 d 5 -73 d 5 -77 d 5 -89 d 4 -79 d 4 -85 d 1 -24 d s[  ] 0 sd 1 1 1 c black 321 357 m 97 X 38 -6 d 29 -4 d 16 3 d 15 7 d 15 14 d 21 26 d 23 36 d 38 67 d 6 14 d 6 23 d 8 35 d 8 46 d 16 96 d 8 44 d 7 29 d 6 18 d 5 8 d 4 1 d 5 -4 d 4
 -11 d 4 -18 d 4 -22 d 4 -28 d 3 -30 d 5 -57 d 5 -62 d 6 -68 d 5 -73 d 4 -78 d 5 -83 d 3 -49 d s 1136 1515 m 7 -92 d s 1143 1423 m 7 -92 d 7 -86 d 7 -68 d 7 -72 d 7 -66 d 8 -59 d 7 -51 d 5 -37 d 6 -30 d 6 -24 d 6 -18 d 6 -13 d 7 -7 d 8 X 9 7 d 10 16
 d 28 54 d 10 15 d 2 2 d 12 15 d 14 25 d 23 52 d 22 49 d 15 26 d 12 15 d 14 9 d 18 4 d 62 -13 d 3 X 91 -2 d 7 2 d 31 11 d 51 26 d 15 5 d 8 5 d 11 15 d 26 52 d 10 14 d 8 5 d 8 -2 d 6 -9 d 7 -17 d 5 -19 d 5 -26 d 4 -18 d 6 -46 d 7 -52 d 7 -59 d 7 -66 d
 7 -74 d 7 -80 d 7 -88 d 8 -100 d 6 -92 d 7 -108 d 7 -113 d 1 -9 d s 1 1 1 c black 321 1173 m 97 X 13 3 d 21 13 d 20 12 d 11 3 d 11 -3 d 8 -6 d 8 -11 d 6 -11 d 6 -16 d 7 -23 d 8 -31 d 9 -42 d 12 -62 d 24 -124 d 10 -47 d 7 -30 d 6 -21 d 7 -17 d 1 -4 d
 6 -8 d 5 -3 d 6 2 d 7 9 d 9 17 d 20 45 d 7 12 d 6 6 d 6 3 d 5 -3 d 5 -7 d 5 -14 d 4 -15 d 4 -20 d 3 -15 d 6 -39 d 6 -43 d 6 -47 d 6 -52 d 5 -56 d 6 -62 d 6 -68 d 7 -74 d 6 -78 d 1 -15 d s 1168 1515 m 4 -65 d s 1172 1450 m 6 -92 d 6 -75 d 5 -68 d 5
 -60 d 4 -45 d 4 -37 d 5 -31 d 4 -29 d 5 -22 d 5 -15 d 5 -9 d 5 -4 d 6 2 d 6 9 d 9 19 d 14 44 d 12 39 d 8 20 d 6 9 d 4 3 d 16 11 d 23 25 d 35 41 d 17 14 d 7 5 d 21 6 d 76 -6 d 10 -4 d 15 -14 d 27 -29 d 10 -5 d 9 1 d 9 8 d 7 11 d 6 17 d 5 15 d 8 35 d
 10 41 d 9 49 d 9 54 d 9 63 d 8 58 d 2 11 d s 0 0 1 c[ 12 12] 0 sd 1 1 1 c black 0 0 1 c 546 231 m 5 44 d s 551 275 m 6 61 d 6 57 d 7 54 d 6 51 d 6 40 d 7 44 d 6 40 d 7 36 d 6 32 d 5 22 d 6 20 d 5 15 d 6 13 d 6 8 d 6 5 d 7 2 d 46 -33 d 7 -1 d 6 2 d 3
 1 d 11 11 d 13 18 d 23 37 d 16 25 d 11 16 d 9 10 d 10 6 d 4 2 d 98 -71 d 22 -6 d 25 -3 d 22 1 d 22 6 d 6 2 d 22 10 d 22 14 d 24 18 d 25 24 d 5 5 d 11 13 d 13 21 d 33 58 d 13 20 d 9 11 d 8 6 d 8 3 d 2 X 7 -2 d 8 -7 d 9 -11 d 11 -22 d 32 -66 d 10 -15
 d 7 -7 d 6 -3 d 7 X 1 1 d 6 5 d 7 9 d 8 14 d 8 21 d 11 29 d 28 88 d 10 25 d 7 17 d 7 13 d 6 7 d 9 9 d 10 6 d 78 -15 d 6 3 d 8 6 d 10 14 d 21 35 d 8 11 d 7 6 d 6 1 d 5 -1 d 5 -5 d 5 -9 d 4 -11 d 5 -14 d 4 -17 d 4 -19 d 5 -33 d 6 -37 d 6 -39 d 5 -42 d
 5 -45 d 5 -48 d 6 -51 d 5 -54 d 5 -58 d 5 -62 d 5 -66 d 5 -70 d 5 -72 d 4 -77 d 4 -69 d 3 -43 d s[  ] 0 sd 1 1 1 c black 0 0 1 c 553 231 m 3 24 d s 556 255 m 6 49 d 6 46 d 7 50 d 6 39 d 6 39 d 6 36 d 7 36 d 6 29 d 6 29 d 1 6 d 5 20 d 5 17 d 6 15 d 5
 12 d 5 10 d 6 8 d 6 6 d 8 4 d 8 2 d 27 -2 d 10 X 7 3 d 8 5 d 10 10 d 22 25 d 8 8 d 8 5 d 6 1 d 6 -1 d 5 -3 d 5 -6 d 5 -7 d 5 -10 d 5 -12 d 4 -15 d 6 -22 d 6 -23 d 6 -26 d 5 -28 d 6 -30 d s 837 580 m 5 -33 d 6 -36 d 6 -39 d 6 -42 d 6 -44 d 6 -50 d 5
 -44 d 6 -52 d 1 -9 d s 1024 231 m 6 56 d s 1030 287 m 7 63 d 7 60 d 7 57 d 8 57 d 6 45 d 8 47 d 7 44 d 7 42 d 7 35 d 7 32 d 6 23 d 5 20 d 6 17 d 6 15 d 7 13 d 8 11 d 9 8 d 11 6 d 39 12 d 11 5 d 12 2 d 18 -3 d 34 -8 d 11 1 d 12 3 d 12 8 d 14 12 d 23
 27 d 22 25 d 14 13 d 13 8 d 14 4 d 17 2 d 63 -6 d 3 X 6 1 d 7 6 d 9 12 d 23 40 d 8 11 d 7 6 d 6 1 d 5 -1 d 4 -5 d 5 -8 d 5 -11 d 4 -14 d 4 -15 d 4 -19 d 1 -4 d 5 -32 d 5 -35 d 6 -37 d 5 -40 d 5 -42 d 5 -45 d 5 -49 d 5 -51 d 6 -56 d 5 -60 d 5 -64 d 5
 -66 d 6 -75 d 4 -66 d 3 -38 d s 1 1 1 c black 0 0 1 c 530 231 m 9 Y s 530 240 m 5 109 d 4 103 d 5 96 d 4 91 d 5 87 d 4 82 d 5 78 d 5 75 d 4 70 d 5 66 d 5 60 d 5 58 d 4 45 d 5 51 d 5 39 d 5 33 d 5 28 d 3 19 d 4 12 d 3 7 d 3 1 d 4 -3 d 4 -10 d 4 -17 d
 4 -23 d 5 -31 d 5 -39 d 6 -51 d 7 -68 d 24 -256 d 6 -51 d 5 -40 d 4 -34 d 4 -22 d 4 -19 d 2 -6 d 10 -30 d 9 -24 d 9 -18 d 9 -13 d 9 -7 d 8 X 8 4 d 8 9 d s 781 701 m 7 15 d 8 18 d 7 23 d 5 23 d 8 34 d 7 39 d 8 45 d 8 51 d 8 57 d 7 61 d 8 69 d 7 62 d
 9 87 d 7 83 d 8 86 d 5 61 d s 1012 1515 m 2 -19 d s 1014 1496 m 5 -53 d 5 -51 d 5 -47 d 4 -45 d 5 -44 d 5 -41 d 5 -39 d 6 -38 d 5 -35 d 5 -33 d 6 -32 d 4 -26 d 6 -25 d 5 -22 d 5 -21 d 5 -17 d 6 -15 d 4 -8 d 3 -5 d 4 -3 d 5 -1 d 4 3 d 5 6 d 5 8 d 5
 13 d 6 17 d 7 23 d 15 53 d 9 31 d 7 20 d 6 17 d 4 10 d 5 8 d 3 4 d 6 4 d 6 1 d 6 -1 d 7 -6 d 10 -9 d 19 -22 d 7 -5 d 6 -3 d 5 X 6 3 d 5 4 d s 1281 1074 m 5 8 d 4 9 d 4 11 d 2 6 d 6 21 d 6 23 d 6 25 d 5 28 d 6 30 d 6 33 d 6 36 d 6 39 d 6 42 d 7 50 d
 6 44 d 4 36 d s 1 0 0 c[ 12 12] 0 sd 1 1 1 c black 1 0 0 c 321 455 m 97 X 16 -2 d 48 -10 d 13 1 d 11 4 d 10 7 d 10 12 d 12 17 d 14 24 d 21 44 d 22 43 d 13 23 d 5 9 d 27 36 d 24 28 d 20 21 d 21 18 d 6 4 d 17 9 d 21 6 d 56 10 d 3 1 d 28 14 d 45 25 d
 21 9 d 4 1 d 19 2 d 59 -5 d 19 3 d 32 9 d 25 11 d 23 14 d 18 14 d 15 14 d 22 28 d 34 44 d 15 16 d 11 10 d 14 8 d 18 5 d 45 6 d 12 7 d 9 6 d 12 13 d 13 19 d 23 39 d 21 35 d 14 19 d 11 11 d 4 3 d 12 7 d 15 3 d 21 -1 d 49 -9 d 38 -4 d 29 -2 d 17 2 d 14
 4 d 13 9 d 14 12 d 29 30 d 20 21 d 14 10 d 7 4 d 8 6 d 10 12 d 26 42 d 8 10 d 7 6 d 6 1 d 6 -2 d 6 -8 d 5 -10 d 6 -15 d 4 -16 d 4 -20 d 2 -6 d 6 -36 d 6 -39 d 6 -43 d 5 -45 d 6 -48 d 5 -51 d 5 -54 d 5 -57 d 5 -61 d 5 -65 d 5 -69 d 5 -73 d 5 -77 d 5
 -89 d 4 -79 d 4 -85 d 1 -24 d s[  ] 0 sd 6 lw 1 1 1 c black 1 0 0 c 321 357 m 97 X 38 -6 d 29 -4 d 16 3 d 15 7 d 15 14 d 21 26 d 23 36 d 38 67 d 6 14 d 6 23 d 8 35 d 8 46 d 16 96 d 8 44 d 7 29 d 6 18 d 5 8 d 4 1 d 5 -4 d 4 -11 d 4 -18 d 4 -22 d 4
 -28 d 3 -30 d 5 -57 d 5 -62 d 6 -68 d 5 -73 d 4 -78 d 5 -83 d 3 -49 d s 1136 1515 m 7 -92 d s 1143 1423 m 7 -92 d 7 -86 d 7 -68 d 7 -72 d 7 -66 d 8 -59 d 7 -51 d 5 -37 d 6 -30 d 6 -24 d 6 -18 d 6 -13 d 7 -7 d 8 X 9 7 d 10 16 d 28 54 d 10 15 d 2 2 d
 12 15 d 14 25 d 23 52 d 22 49 d 15 26 d 12 15 d 14 9 d 18 4 d 62 -13 d 3 X 91 -2 d 7 2 d 31 11 d 51 26 d 15 5 d 8 5 d 11 15 d 26 52 d 10 14 d 8 5 d 8 -2 d 6 -9 d 7 -17 d 5 -19 d 5 -26 d 4 -18 d 6 -46 d 7 -52 d 7 -59 d 7 -66 d 7 -74 d 7 -80 d 7 -88 d
 8 -100 d 6 -92 d 7 -108 d 7 -113 d 1 -9 d s 9 lw 1 1 1 c black 1 0 0 c 321 1173 m 97 X 13 3 d 21 13 d 20 12 d 11 3 d 11 -3 d 8 -6 d 8 -11 d 6 -11 d 6 -16 d 7 -23 d 8 -31 d 9 -42 d 12 -62 d 24 -124 d 10 -47 d 7 -30 d 6 -21 d 7 -17 d 1 -4 d 6 -8 d 5
 -3 d 6 2 d 7 9 d 9 17 d 20 45 d 7 12 d 6 6 d 6 3 d 5 -3 d 5 -7 d 5 -14 d 4 -15 d 4 -20 d 3 -15 d 6 -39 d 6 -43 d 6 -47 d 6 -52 d 5 -56 d 6 -62 d 6 -68 d 7 -74 d 6 -78 d 1 -15 d s 1168 1515 m 4 -65 d s 1172 1450 m 6 -92 d 6 -75 d 5 -68 d 5 -60 d 4
 -45 d 4 -37 d 5 -31 d 4 -29 d 5 -22 d 5 -15 d 5 -9 d 5 -4 d 6 2 d 6 9 d 9 19 d 14 44 d 12 39 d 8 20 d 6 9 d 4 3 d 16 11 d 23 25 d 35 41 d 17 14 d 7 5 d 21 6 d 76 -6 d 10 -4 d 15 -14 d 27 -29 d 10 -5 d 9 1 d 9 8 d 7 11 d 6 17 d 5 15 d 8 35 d 10 41 d
 9 49 d 9 54 d 9 63 d 8 58 d 2 11 d s black 1247 231 m 1284 Y s
 gr  gr showpage
end
%%EOF
