%!PS-Adobe-2.0 EPSF-2.0
%%BoundingBox:  0 0 567 384
%%Title: plots/iter_0/iterationsToys_ws_DYjj/ccBelts_3_iter0.eps: 
%%Creator: ROOT Version 6.16/00
%%CreationDate: Fri Nov 13 20:48:36 2020
%%DocumentNeededResources: ProcSet (FontSetInit)
%%EndComments
%%BeginProlog
80 dict begin
/s {stroke} def /l {lineto} def /m {moveto} def /t {translate} def
/r {rotate} def /rl {roll}  def /R {repeat} def
/d {rlineto} def /rm {rmoveto} def /gr {grestore} def /f {eofill} def
/c {setrgbcolor} def /black {0 setgray} def /sd {setdash} def
/cl {closepath} def /sf {scalefont setfont} def /lw {setlinewidth} def
/box {m dup 0 exch d exch 0 d 0 exch neg d cl} def
/NC{systemdict begin initclip end}def/C{NC box clip newpath}def
/bl {box s} def /bf {gsave box gsave f grestore 1 lw [] 0 sd s grestore} def /Y { 0 exch d} def /X { 0 d} def 
/K {{pop pop 0 moveto} exch kshow} bind def
/ita {/ang 15 def gsave [1 0 ang dup sin exch cos div 1 0 0] concat} def 
/mp {newpath /y exch def /x exch def} def
/side {[w .77 mul w .23 mul] .385 w mul sd w 0 l currentpoint t -144 r} def
/mr {mp x y w2 0 360 arc} def /m24 {mr s} def /m20 {mr f} def
/mb {mp x y w2 add m w2 neg 0 d 0 w neg d w 0 d 0 w d cl} def
/mt {mp x y w2 add m w2 neg w neg d w 0 d cl} def
/w4 {w 4 div} def
/w6 {w 6 div} def
/w8 {w 8 div} def
/m21 {mb f} def /m25 {mb s} def /m22 {mt f} def /m26{mt s} def
/m23 {mp x y w2 sub m w2 w d w neg 0 d cl f} def
/m27 {mp x y w2 add m w3 neg w2 neg d w3 w2 neg d w3 w2 d cl s} def
/m28 {mp x w2 sub y w2 sub w3 add m w3 0 d  0 w3 neg d w3 0 d 0 w3 d w3 0 d  0 w3 d w3 neg 0 d 0 w3 d w3 neg 0 d 0 w3 neg d w3 neg 0 d cl s } def
/m29 {mp gsave x w2 sub y w2 add w3 sub m currentpoint t 4 {side} repeat cl fill gr} def
/m30 {mp gsave x w2 sub y w2 add w3 sub m currentpoint t 4 {side} repeat cl s gr} def
/m31 {mp x y w2 sub m 0 w d x w2 sub y m w 0 d x w2 sub y w2 add m w w neg d x w2 sub y w2 sub m w w d s} def
/m32 {mp x y w2 sub m w2 w d w neg 0 d cl s} def
/m33 {mp x y w2 add m w3 neg w2 neg d w3 w2 neg d w3 w2 d cl f} def
/m34 {mp x w2 sub y w2 sub w3 add m w3 0 d  0 w3 neg d w3 0 d 0 w3 d w3 0 d  0 w3 d w3 neg 0 d 0 w3 d w3 neg 0 d 0 w3 neg d w3 neg 0 d cl f } def
/m35 {mp x y w2 add m w2 neg w2 neg d w2 w2 neg d w2 w2 d w2 neg w2 d x y w2 sub m 0 w d x w2 sub y m w 0 d s} def
/m36 {mb x w2 sub y w2 add m w w neg d x w2 sub y w2 sub m w w d s} def
/m37 {mp x y m w4 neg w2 d w4 neg w2 neg d w2 0 d  w4 neg w2 neg d w2 0 d w4 neg w2 d w2 0 d w4 neg w2 d w4 neg w2 neg d cl s} def
/m38 {mp x w4 sub y w2 add m w4 neg w4 neg d 0 w2 neg d w4 w4 neg d w2 0 d w4 w4 d 0 w2 d w4 neg w4 d w2 neg 0 d x y w2 sub m 0 w d x w2 sub y m w 0 d cl s} def
/m39 {mp x y m w4 neg w2 d w4 neg w2 neg d w2 0 d  w4 neg w2 neg d w2 0 d w4 neg w2 d w2 0 d w4 neg w2 d w4 neg w2 neg d cl f} def
/m40 {mp x y m w4 w2 d w4 w4 neg d w2 neg w4 neg d w2 w4 neg d w4 neg w4 neg d w4 neg w2 d w4 neg w2 neg d w4 neg w4 d w2 w4 d w2 neg w4 d w4 w4 d w4 w2 neg d cl s} def
/m41 {mp x y m w4 w2 d w4 w4 neg d w2 neg w4 neg d w2 w4 neg d w4 neg w4 neg d w4 neg w2 d w4 neg w2 neg d w4 neg w4 d w2 w4 d w2 neg w4 d w4 w4 d w4 w2 neg d cl f} def
/m42 {mp x y w2 add m w8 neg w2 -3 4 div mul d w2 -3 4 div mul w8 neg d w2 3 4 div mul w8 neg d w8 w2 -3 4 div mul d w8 w2 3 4 div mul d w2 3 4 div mul w8 d w2 -3 4 div mul w8 d w8 neg w2 3 4 div mul d cl s} def
/m43 {mp x y w2 add m w8 neg w2 -3 4 div mul d w2 -3 4 div mul w8 neg d w2 3 4 div mul w8 neg d w8 w2 -3 4 div mul d w8 w2 3 4 div mul d w2 3 4 div mul w8 d w2 -3 4 div mul w8 d w8 neg w2 3 4 div mul d cl f} def
/m44 {mp x y m w6 neg w2 d w2 2 3 div mul 0 d w6 neg w2 neg d w2 w6 d 0 w2 -2 3 div mul d w2 neg w6 d w6 w2 neg d w2 -2 3 div mul 0 d w6 w2 d w2 neg w6 neg d 0 w2 2 3 div mul d w2 w6 neg d cl s} def
/m45 {mp x y m w6 neg w2 d w2 2 3 div mul 0 d w6 neg w2 neg d w2 w6 d 0 w2 -2 3 div mul d w2 neg w6 d w6 w2 neg d w2 -2 3 div mul 0 d w6 w2 d w2 neg w6 neg d 0 w2 2 3 div mul d w2 w6 neg d cl f} def
/m46 {mp x y w4 add m w4 neg w4 d w4 neg w4 neg d  w4 w4 neg d w4 neg w4 neg d w4 w4 neg d w4 w4 d w4 w4 neg d w4 w4 d w4 neg w4 d w4 w4 d w4 neg w4 d w4 neg w4 neg d cl s} def
/m47 {mp x y w4 add m w4 neg w4 d w4 neg w4 neg d w4 w4 neg d w4 neg w4 neg d  w4 w4 neg d w4 w4 d w4 w4 neg d w4 w4 d w4 neg w4 d w4 w4 d w4 neg w4 d w4 neg w4 neg d cl f} def
/m48 {mp x y w4 add m w4 neg w4 d w4 neg w4 neg d w4 w4 neg d  w4 neg w4 neg d w4 w4 neg d w4 w4 d w4 w4 neg d w4 w4 d w4 neg w4 d w4 w4 d w4 neg w4 d w4 neg w4 neg d  w4 w4 neg d w4 neg w4 neg d w4 neg w4 d w4 w4 d cl f} def
/m49 {mp x w2 sub w3 add y w2 sub w3 add m  0 w3 neg d w3 0 d 0 w3 d w3 0 d 0 w3 d w3 neg 0 d 0 w3 d w3 neg 0 d 0 w3 neg d w3 neg 0 d 0 w3 neg d w3 0 d 0 w3 d w3 0 d 0 w3 neg d w3 neg 0 d cl f } def
/m2 {mp x y w2 sub m 0 w d x w2 sub y m w 0 d s} def
/m5 {mp x w2 sub y w2 sub m w w d x w2 sub y w2 add m w w neg d s} def
%%IncludeResource: ProcSet (FontSetInit)
%%IncludeResource: font Times-Roman
%%IncludeResource: font Times-Italic
%%IncludeResource: font Times-Bold
%%IncludeResource: font Times-BoldItalic
%%IncludeResource: font Helvetica
%%IncludeResource: font Helvetica-Oblique
%%IncludeResource: font Helvetica-Bold
%%IncludeResource: font Helvetica-BoldOblique
%%IncludeResource: font Courier
%%IncludeResource: font Courier-Oblique
%%IncludeResource: font Courier-Bold
%%IncludeResource: font Courier-BoldOblique
%%IncludeResource: font Symbol
%%IncludeResource: font ZapfDingbats
/reEncode {exch findfont dup length dict begin {1 index /FID eq  {pop pop} {def} ifelse } forall /Encoding exch def currentdict end dup /FontName get exch definefont pop } def [/Times-Bold /Times-Italic /Times-BoldItalic /Helvetica /Helvetica-Oblique
 /Helvetica-Bold /Helvetica-BoldOblique /Courier /Courier-Oblique /Courier-Bold /Courier-BoldOblique /Times-Roman /AvantGarde-Book /AvantGarde-BookOblique /AvantGarde-Demi /AvantGarde-DemiOblique /Bookman-Demi /Bookman-DemiItalic /Bookman-Light
 /Bookman-LightItalic /Helvetica-Narrow /Helvetica-Narrow-Bold /Helvetica-Narrow-BoldOblique /Helvetica-Narrow-Oblique /NewCenturySchlbk-Roman /NewCenturySchlbk-Bold /NewCenturySchlbk-BoldItalic /NewCenturySchlbk-Italic /Palatino-Bold
 /Palatino-BoldItalic /Palatino-Italic /Palatino-Roman ] {ISOLatin1Encoding reEncode } forall
%%EndProlog
%%BeginSetup
%%EndSetup
newpath  gsave  .25 .25 scale  gsave  0 0 t black[  ] 0 sd 3 lw 1 1 1 c 2268 1538 0 0 bf black 1 1 1 c 1950 1284 272 231 bf black 1950 1284 272 231 bl 1 1 1 c 6 lw black 1 1 1 c 272 231 m 1950 X s black 3 lw 272 231 m 1950 X s 391 270 m -39 Y s 490
 251 m -20 Y s 590 251 m -20 Y s 689 251 m -20 Y s 789 251 m -20 Y s 888 270 m -39 Y s 987 251 m -20 Y s 1087 251 m -20 Y s 1186 251 m -20 Y s 1286 251 m -20 Y s 1385 270 m -39 Y s 1485 251 m -20 Y s 1584 251 m -20 Y s 1683 251 m -20 Y s 1783 251 m
 -20 Y s 1882 270 m -39 Y s 391 270 m -39 Y s 291 251 m -20 Y s 1882 270 m -39 Y s 1982 251 m -20 Y s 2081 251 m -20 Y s 2181 251 m -20 Y s
 gsave  2268 1538 0 0 C 345.371 172.685 t 0 r /Helvetica findfont 61.9061 sf 0 0 m (0.5) show NC gr 
 gsave  2268 1538 0 0 C 843.877 172.685 t 0 r /Helvetica findfont 61.9061 sf 0 0 m (0.6) show NC gr 
 gsave  2268 1538 0 0 C 1342.38 172.685 t 0 r /Helvetica findfont 61.9061 sf 0 0 m (0.7) show NC gr 
 gsave  2268 1538 0 0 C 1837.63 172.685 t 0 r /Helvetica findfont 61.9061 sf 0 0 m (0.8) show NC gr 
 gsave  2268 1538 0 0 C 2101.55 78.1971 t 0 r /Helvetica findfont 74.9389 sf 0 0 m ( [fb]) show NC gr 
 gsave  2268 1538 0 0 C 1987.51 52.1314 t 0 r /Helvetica findfont 52.1314 sf 0 0 m (fit) show NC gr 
 gsave  2268 1538 0 0 C 1987.51 110.779 t 0 r /Helvetica findfont 52.1314 sf 0 0 m (bin,3) show NC gr 
 gsave  2268 1538 0 0 C 1941.9 78.1971 t 0 r /Symbol findfont 74.9389 sf 0 0 m (s) show NC gr  272 1515 m 1950 X s 391 1475 m 40 Y s 490 1495 m 20 Y s 590 1495 m 20 Y s 689 1495 m 20 Y s 789 1495 m 20 Y s 888 1475 m 40 Y s 987 1495 m 20 Y s 1087 1495
 m 20 Y s 1186 1495 m 20 Y s 1286 1495 m 20 Y s 1385 1475 m 40 Y s 1485 1495 m 20 Y s 1584 1495 m 20 Y s 1683 1495 m 20 Y s 1783 1495 m 20 Y s 1882 1475 m 40 Y s 391 1475 m 40 Y s 291 1495 m 20 Y s 1882 1475 m 40 Y s 1982 1495 m 20 Y s 2081 1495 m 20
 Y s 2181 1495 m 20 Y s 272 231 m 1284 Y s 329 309 m -57 X s 301 342 m -29 X s 301 374 m -29 X s 301 407 m -29 X s 301 440 m -29 X s 329 473 m -57 X s 301 505 m -29 X s 301 538 m -29 X s 301 571 m -29 X s 301 603 m -29 X s 329 636 m -57 X s 301 669 m
 -29 X s 301 702 m -29 X s 301 734 m -29 X s 301 767 m -29 X s 329 800 m -57 X s 301 833 m -29 X s 301 865 m -29 X s 301 898 m -29 X s 301 931 m -29 X s 329 964 m -57 X s 301 996 m -29 X s 301 1029 m -29 X s 301 1062 m -29 X s 301 1094 m -29 X s 329
 1127 m -57 X s 301 1160 m -29 X s 301 1193 m -29 X s 301 1225 m -29 X s 301 1258 m -29 X s 329 1291 m -57 X s 301 1324 m -29 X s 301 1356 m -29 X s 301 1389 m -29 X s 301 1422 m -29 X s 329 1455 m -57 X s 329 309 m -57 X s 301 276 m -29 X s 301 243
 m -29 X s 329 1455 m -57 X s 301 1487 m -29 X s
 gsave  2268 1538 0 0 C 175.944 286.723 t 0 r /Helvetica findfont 61.9061 sf 0 0 m (0.5) show NC gr 
 gsave  2268 1538 0 0 C 140.103 452.892 t 0 r /Helvetica findfont 61.9061 sf 0 0 m (0.55) show NC gr 
 gsave  2268 1538 0 0 C 175.944 615.802 t 0 r /Helvetica findfont 61.9061 sf 0 0 m (0.6) show NC gr 
 gsave  2268 1538 0 0 C 140.103 778.713 t 0 r /Helvetica findfont 61.9061 sf 0 0 m (0.65) show NC gr 
 gsave  2268 1538 0 0 C 175.944 941.624 t 0 r /Helvetica findfont 61.9061 sf 0 0 m (0.7) show NC gr 
 gsave  2268 1538 0 0 C 140.103 1104.53 t 0 r /Helvetica findfont 61.9061 sf 0 0 m (0.75) show NC gr 
 gsave  2268 1538 0 0 C 175.944 1270.7 t 0 r /Helvetica findfont 61.9061 sf 0 0 m (0.8) show NC gr 
 gsave  2268 1538 0 0 C 140.103 1433.61 t 0 r /Helvetica findfont 61.9061 sf 0 0 m (0.85) show NC gr 
 gsave  2268 1538 0 0 C 120.554 1394.52 t 90 r /Helvetica findfont 74.9389 sf 0 0 m ( [fb]) show NC gr 
 gsave  2268 1538 0 0 C 146.62 1280.48 t 90 r /Helvetica findfont 52.1314 sf 0 0 m (true) show NC gr 
 gsave  2268 1538 0 0 C 87.9718 1280.48 t 90 r /Helvetica findfont 52.1314 sf 0 0 m (bin,3) show NC gr 
 gsave  2268 1538 0 0 C 120.554 1234.86 t 90 r /Symbol findfont 74.9389 sf 0 0 m (s) show NC gr  2222 231 m 1284 Y s 2166 309 m 56 X s 2194 342 m 28 X s 2194 374 m 28 X s 2194 407 m 28 X s 2194 440 m 28 X s 2166 473 m 56 X s 2194 505 m 28 X s 2194
 538 m 28 X s 2194 571 m 28 X s 2194 603 m 28 X s 2166 636 m 56 X s 2194 669 m 28 X s 2194 702 m 28 X s 2194 734 m 28 X s 2194 767 m 28 X s 2166 800 m 56 X s 2194 833 m 28 X s 2194 865 m 28 X s 2194 898 m 28 X s 2194 931 m 28 X s 2166 964 m 56 X s
 2194 996 m 28 X s 2194 1029 m 28 X s 2194 1062 m 28 X s 2194 1094 m 28 X s 2166 1127 m 56 X s 2194 1160 m 28 X s 2194 1193 m 28 X s 2194 1225 m 28 X s 2194 1258 m 28 X s 2166 1291 m 56 X s 2194 1324 m 28 X s 2194 1356 m 28 X s 2194 1389 m 28 X s
 2194 1422 m 28 X s 2166 1455 m 56 X s 2166 309 m 56 X s 2194 276 m 28 X s 2194 243 m 28 X s 2166 1455 m 56 X s 2194 1487 m 28 X s 1 0 0 c 1 1 1 c 1 0 0 c 69 46 481 561 bl 1 1 1 c 1 0 0 c 69 46 481 625 bl 1 1 1 c 1 0 0 c 69 46 579 625 bl 1 1 1 c 1 0
 0 c 69 45 676 754 bl 1 1 1 c 1 0 0 c 98 64 857 809 bl 1 1 1 c 1 0 0 c 69 46 969 946 bl 1 1 1 c 1 0 0 c 68 45 1262 1075 bl 1 1 1 c 1 0 0 c 68 45 1262 1139 bl 1 1 1 c 1 0 0 c 68 46 1457 1203 bl 1 1 1 c black 1 1 1 c black 69 46 481 561 bl 1 1 1 c
 black 69 46 481 625 bl 1 1 1 c black 69 46 579 625 bl 1 1 1 c black 69 45 676 754 bl 1 1 1 c black 98 64 857 809 bl 1 1 1 c black 69 46 969 946 bl 1 1 1 c black 68 45 1262 1075 bl 1 1 1 c black 68 45 1262 1139 bl 1 1 1 c black 68 46 1457 1203 bl 1 1
 1 c 0 0 1 c 1 1 1 c 0 0 1 c 69 46 384 561 bl 1 1 1 c 0 0 1 c 69 46 481 625 bl 1 1 1 c 0 0 1 c 69 45 676 754 bl 1 1 1 c 0 0 1 c 69 45 774 818 bl 1 1 1 c black[ 12 12] 0 sd 9 lw 1 1 1 c black 388 231 m 5 69 d s 393 300 m 6 83 d 7 77 d 6 65 d 6 59 d 6
 40 d 5 31 d 5 25 d 6 18 d 6 12 d 7 5 d 8 -4 d 55 -84 d 31 1 d 60 -2 d 6 1 d 48 14 d 50 23 d 37 22 d 53 33 d 7 4 d 98 28 d 19 17 d 29 37 d 29 35 d 18 15 d 2 2 d 19 5 d 79 -5 d 28 15 d 34 28 d 35 37 d 20 25 d 55 86 d 19 24 d 4 4 d 21 15 d 77 23 d 51
 27 d 33 17 d 13 4 d 98 X 45 13 d 52 19 d 7 6 d 8 17 d 10 32 d 20 68 d 8 22 d 7 12 d 6 5 d 6 -3 d 6 -11 d 5 -17 d 5 -25 d 4 -28 d 5 -37 d 1 -9 d 6 -66 d 6 -72 d 6 -78 d 5 -84 d 6 -89 d 5 -94 d 5 -100 d 5 -106 d 5 -113 d 5 -120 d 3 -73 d s[  ] 0 sd 1
 1 1 c black 405 231 m 3 35 d s 408 266 m 6 68 d 4 46 d 6 46 d 5 39 d 5 33 d 5 28 d 6 23 d 7 19 d 7 14 d 8 9 d 11 2 d 31 -3 d 7 5 d 13 11 d 15 4 d 19 -2 d 46 -13 d 4 X 34 -5 d 28 -4 d 17 4 d 15 9 d 4 4 d 5 9 d 6 17 d 7 28 d 9 44 d 19 101 d 8 37 d 6
 25 d 6 15 d 5 7 d 4 1 d 5 -5 d 4 -11 d 4 -18 d 4 -21 d 4 -27 d 1 -14 d 6 -52 d 5 -57 d 5 -61 d 5 -67 d 6 -72 d 5 -77 d 5 -83 d 5 -90 d -1 Y s 964 231 m 6 98 d s 970 329 m 8 132 d 8 129 d 8 99 d 8 91 d 1 16 d 20 198 d 9 84 d 8 58 d 7 39 d 6 24 d 6 9
 d 7 -5 d 5 -19 d 5 -27 d 5 -42 d 5 -53 d 5 -71 d 4 -73 d 4 -87 d 2 -35 d 5 -129 d 6 -139 d 5 -150 d 5 -147 d s 1295 231 m 1 29 d s 1296 260 m 5 97 d 6 84 d 5 71 d 5 59 d 5 48 d 5 38 d 5 27 d 5 16 d s 1337 700 m 5 5 d 5 -6 d 6 -18 d 5 -30 d 5 -43 d 5
 -47 d 6 -73 d 5 -77 d 6 -89 d 4 -91 d s 1405 231 m 1 1 d s 1406 232 m 13 87 d 11 67 d 12 65 d 12 57 d 13 53 d 11 40 d 13 37 d 7 14 d 8 8 d 10 X 11 -9 d 34 -37 d 9 -1 d 8 4 d 7 12 d 4 9 d 6 21 d 8 32 d 8 45 d 12 72 d 26 178 d 10 61 d 8 47 d 7 30 d 7
 21 d 5 13 d 11 24 d 20 47 d 10 16 d 9 5 d 7 -4 d 6 -11 d 6 -16 d 5 -24 d 5 -29 d 5 -36 d 5 -41 d 5 -45 d 4 -48 d 5 -74 d 6 -80 d 5 -86 d 6 -93 d 5 -99 d 6 -107 d 5 -114 d 5 -112 d s 1 1 1 c black 447 1515 m 3 -52 d s 450 1463 m 6 -109 d 7 -102 d 6
 -97 d 7 -97 d 7 -76 d 6 -78 d 7 -71 d 7 -67 d 6 -54 d 7 -53 d 5 -34 d 5 -26 d 6 -21 d 5 -14 d 6 -9 d 7 -4 d 7 4 d 9 13 d 13 28 d 18 41 d 8 14 d 8 8 d 7 X 8 -9 d 25 -52 d 9 -15 d 8 -7 d 6 1 d 5 6 d 5 11 d 5 17 d 5 23 d 5 31 d 4 32 d 4 38 d 2 22 d 6
 64 d 5 69 d 5 73 d 6 79 d 5 85 d 5 91 d s 743 1218 m 6 98 d 5 106 d 5 93 d s 850 1515 m 4 -118 d s 854 1397 m 7 -157 d 7 -145 d 6 -113 d 7 -119 d 6 -106 d 7 -93 d 7 -79 d 5 -51 d 5 -41 d 5 -26 d 6 -13 d 5 X 6 13 d 7 29 d 7 49 d 9 68 d 23 200 d 8 61
 d 7 39 d 6 28 d 3 9 d 11 30 d 26 110 d 11 37 d 8 17 d 8 4 d 7 -8 d 6 -20 d 7 -36 d 5 -41 d 6 -53 d 3 -40 d 7 -91 d 6 -103 d 7 -117 d 7 -130 d 7 -145 d 6 -133 d s 1602 1515 m 1 -15 d s 1603 1500 m 5 -50 d 4 -45 d 5 -41 d 4 -36 d 5 -33 d 4 -29 d 5 -25
 d 4 -22 d 5 -18 d 4 -13 d 5 -10 d 5 -6 d 4 -1 d 5 3 d 5 7 d 5 12 d 4 15 d 5 21 d 5 27 d 5 30 d 5 34 d 4 38 d 5 40 d 4 44 d s 1714 1442 m 5 47 d 2 26 d s 0 0 1 c[ 12 12] 0 sd 1 1 1 c black 0 0 1 c 389 231 m 5 73 d s 394 304 m 6 76 d 6 76 d 5 59 d 6
 58 d 1 11 d 5 35 d 5 33 d 4 25 d 5 19 d 6 14 d 5 8 d 6 2 d 7 -5 d 41 -88 d 7 -8 d 7 -3 d 97 X 20 13 d 31 31 d 29 28 d 18 13 d 97 11 d 26 12 d 43 24 d 19 6 d 10 1 d 19 -5 d 78 -49 d 29 -4 d 69 4 d 6 3 d 8 12 d 9 22 d 23 66 d 8 18 d 7 9 d 5 2 d 5 -4 d
 5 -9 d 5 -14 d 5 -20 d 4 -25 d 4 -29 d 3 -31 d 6 -57 d 6 -62 d 5 -66 d 6 -71 d 5 -76 d 5 -81 d 3 -57 d s 1346 231 m 3 54 d s 1349 285 m 4 66 d 4 61 d 3 56 d 4 50 d 4 45 d 4 39 d 3 28 d 4 29 d 4 20 d 4 13 d 4 7 d 3 2 d 3 -3 d s 1397 698 m 4 -9 d 4
 -16 d 4 -25 d 4 -32 d 5 -37 d 3 -44 d 4 -48 d 4 -54 d 4 -58 d 3 -63 d 4 -68 d 1 -13 d s[  ] 0 sd 1 1 1 c black 0 0 1 c 405 231 m 3 41 d s 408 272 m 6 63 d 4 45 d 5 45 d 5 38 d 5 32 d 6 26 d 5 22 d 6 18 d 7 14 d 7 8 d 9 3 d 21 -8 d 13 -3 d 7 4 d 2 1
 d 26 32 d 16 19 d 12 8 d 9 1 d 8 -5 d 9 -10 d 7 -14 d 7 -19 d 3 -12 d 9 -33 d 9 -40 d 9 -46 d 9 -51 d 9 -62 d 8 -58 d 8 -59 d s 931 231 m 1 Y s 931 232 m 8 88 d 9 80 d 8 75 d 8 59 d 8 62 d 9 57 d 8 49 d 8 43 d 6 28 d 7 24 d 6 18 d 8 14 d 7 8 d 9 3 d
 61 -67 d 7 -1 d 8 6 d 10 14 d 17 26 d 8 8 d 8 1 d 6 -5 d 5 -10 d 5 -16 d 5 -20 d 5 -26 d 5 -32 d 4 -34 d 4 -47 d 6 -63 d 6 -68 d 5 -73 d 6 -78 d 5 -84 d 3 -40 d s 1 1 1 c black 0 0 1 c 446 1515 m 3 -44 d s 449 1471 m 5 -86 d 5 -83 d 5 -80 d 5 -77 d
 6 -73 d 5 -69 d 6 -66 d 4 -53 d 6 -57 d 5 -52 d 5 -49 d 6 -42 d 4 -32 d 5 -34 d 5 -28 d 5 -23 d 5 -19 d 5 -15 d 5 -11 d 5 -7 d 6 -4 d 5 1 d 7 5 d 7 10 d 5 13 d 8 21 d 9 30 d 10 38 d 5 23 d 5 20 d 5 29 d 5 34 d 5 40 d 6 48 d 6 59 d 8 78 d 18 184 d 8
 87 d 7 65 d 6 54 d 6 50 d s 698 1400 m 5 35 d 4 30 d 4 20 d 6 30 d s 908 1515 m 5 -54 d s 913 1461 m 8 -74 d 8 -72 d 7 -68 d 8 -64 d 8 -60 d 8 -55 d 7 -44 d 7 -46 d 8 -42 d 8 -38 d 8 -32 d 5 -22 d 20 -66 d 9 -28 d 7 -20 d 7 -13 d 7 -8 d 6 -4 d 6 2 d
 6 6 d 4 9 d 5 14 d 5 18 d 5 24 d 5 24 d 4 29 d 2 13 d 5 43 d 6 47 d 5 49 d 5 54 d 5 57 d 5 61 d 5 66 d 5 70 d 6 76 d s 1148 1367 m 5 82 d 4 66 d s 1 0 0 c[ 12 12] 0 sd 1 1 1 c black 1 0 0 c 388 231 m 5 69 d s 393 300 m 6 83 d 7 77 d 6 65 d 6 59 d 6
 40 d 5 31 d 5 25 d 6 18 d 6 12 d 7 5 d 8 -4 d 55 -84 d 31 1 d 60 -2 d 6 1 d 48 14 d 50 23 d 37 22 d 53 33 d 7 4 d 98 28 d 19 17 d 29 37 d 29 35 d 18 15 d 2 2 d 19 5 d 79 -5 d 28 15 d 34 28 d 35 37 d 20 25 d 55 86 d 19 24 d 4 4 d 21 15 d 77 23 d 51
 27 d 33 17 d 13 4 d 98 X 45 13 d 52 19 d 7 6 d 8 17 d 10 32 d 20 68 d 8 22 d 7 12 d 6 5 d 6 -3 d 6 -11 d 5 -17 d 5 -25 d 4 -28 d 5 -37 d 1 -9 d 6 -66 d 6 -72 d 6 -78 d 5 -84 d 6 -89 d 5 -94 d 5 -100 d 5 -106 d 5 -113 d 5 -120 d 3 -73 d s[  ] 0 sd 6
 lw 1 1 1 c black 1 0 0 c 405 231 m 3 35 d s 408 266 m 6 68 d 4 46 d 6 46 d 5 39 d 5 33 d 5 28 d 6 23 d 7 19 d 7 14 d 8 9 d 11 2 d 31 -3 d 7 5 d 13 11 d 15 4 d 19 -2 d 46 -13 d 4 X 34 -5 d 28 -4 d 17 4 d 15 9 d 4 4 d 5 9 d 6 17 d 7 28 d 9 44 d 19 101
 d 8 37 d 6 25 d 6 15 d 5 7 d 4 1 d 5 -5 d 4 -11 d 4 -18 d 4 -21 d 4 -27 d 1 -14 d 6 -52 d 5 -57 d 5 -61 d 5 -67 d 6 -72 d 5 -77 d 5 -83 d 5 -90 d -1 Y s 964 231 m 6 98 d s 970 329 m 8 132 d 8 129 d 8 99 d 8 91 d 1 16 d 20 198 d 9 84 d 8 58 d 7 39 d
 6 24 d 6 9 d 7 -5 d 5 -19 d 5 -27 d 5 -42 d 5 -53 d 5 -71 d 4 -73 d 4 -87 d 2 -35 d 5 -129 d 6 -139 d 5 -150 d 5 -147 d s 1295 231 m 1 29 d s 1296 260 m 5 97 d 6 84 d 5 71 d 5 59 d 5 48 d 5 38 d 5 27 d 5 16 d s 1337 700 m 5 5 d 5 -6 d 6 -18 d 5 -30
 d 5 -43 d 5 -47 d 6 -73 d 5 -77 d 6 -89 d 4 -91 d s 1405 231 m 1 1 d s 1406 232 m 13 87 d 11 67 d 12 65 d 12 57 d 13 53 d 11 40 d 13 37 d 7 14 d 8 8 d 10 X 11 -9 d 34 -37 d 9 -1 d 8 4 d 7 12 d 4 9 d 6 21 d 8 32 d 8 45 d 12 72 d 26 178 d 10 61 d 8 47
 d 7 30 d 7 21 d 5 13 d 11 24 d 20 47 d 10 16 d 9 5 d 7 -4 d 6 -11 d 6 -16 d 5 -24 d 5 -29 d 5 -36 d 5 -41 d 5 -45 d 4 -48 d 5 -74 d 6 -80 d 5 -86 d 6 -93 d 5 -99 d 6 -107 d 5 -114 d 5 -112 d s 9 lw 1 1 1 c black 1 0 0 c 447 1515 m 3 -52 d s 450 1463
 m 6 -109 d 7 -102 d 6 -97 d 7 -97 d 7 -76 d 6 -78 d 7 -71 d 7 -67 d 6 -54 d 7 -53 d 5 -34 d 5 -26 d 6 -21 d 5 -14 d 6 -9 d 7 -4 d 7 4 d 9 13 d 13 28 d 18 41 d 8 14 d 8 8 d 7 X 8 -9 d 25 -52 d 9 -15 d 8 -7 d 6 1 d 5 6 d 5 11 d 5 17 d 5 23 d 5 31 d 4
 32 d 4 38 d 2 22 d 6 64 d 5 69 d 5 73 d 6 79 d 5 85 d 5 91 d s 743 1218 m 6 98 d 5 106 d 5 93 d s 850 1515 m 4 -118 d s 854 1397 m 7 -157 d 7 -145 d 6 -113 d 7 -119 d 6 -106 d 7 -93 d 7 -79 d 5 -51 d 5 -41 d 5 -26 d 6 -13 d 5 X 6 13 d 7 29 d 7 49 d
 9 68 d 23 200 d 8 61 d 7 39 d 6 28 d 3 9 d 11 30 d 26 110 d 11 37 d 8 17 d 8 4 d 7 -8 d 6 -20 d 7 -36 d 5 -41 d 6 -53 d 3 -40 d 7 -91 d 6 -103 d 7 -117 d 7 -130 d 7 -145 d 6 -133 d s 1602 1515 m 1 -15 d s 1603 1500 m 5 -50 d 4 -45 d 5 -41 d 4 -36 d
 5 -33 d 4 -29 d 5 -25 d 4 -22 d 5 -18 d 4 -13 d 5 -10 d 5 -6 d 4 -1 d 5 3 d 5 7 d 5 12 d 4 15 d 5 21 d 5 27 d 5 30 d 5 34 d 4 38 d 5 40 d 4 44 d s 1714 1442 m 5 47 d 2 26 d s black 1247 231 m 1284 Y s
 gr  gr showpage
end
%%EOF
