%!PS-Adobe-2.0 EPSF-2.0
%%BoundingBox:  0 0 567 384
%%Title: plots/iter_0/iterationsToys_ws_DYjj/ccBelts_2_iter0.eps: 
%%Creator: ROOT Version 6.16/00
%%CreationDate: Fri Nov 13 20:48:36 2020
%%DocumentNeededResources: ProcSet (FontSetInit)
%%EndComments
%%BeginProlog
80 dict begin
/s {stroke} def /l {lineto} def /m {moveto} def /t {translate} def
/r {rotate} def /rl {roll}  def /R {repeat} def
/d {rlineto} def /rm {rmoveto} def /gr {grestore} def /f {eofill} def
/c {setrgbcolor} def /black {0 setgray} def /sd {setdash} def
/cl {closepath} def /sf {scalefont setfont} def /lw {setlinewidth} def
/box {m dup 0 exch d exch 0 d 0 exch neg d cl} def
/NC{systemdict begin initclip end}def/C{NC box clip newpath}def
/bl {box s} def /bf {gsave box gsave f grestore 1 lw [] 0 sd s grestore} def /Y { 0 exch d} def /X { 0 d} def 
/K {{pop pop 0 moveto} exch kshow} bind def
/ita {/ang 15 def gsave [1 0 ang dup sin exch cos div 1 0 0] concat} def 
/mp {newpath /y exch def /x exch def} def
/side {[w .77 mul w .23 mul] .385 w mul sd w 0 l currentpoint t -144 r} def
/mr {mp x y w2 0 360 arc} def /m24 {mr s} def /m20 {mr f} def
/mb {mp x y w2 add m w2 neg 0 d 0 w neg d w 0 d 0 w d cl} def
/mt {mp x y w2 add m w2 neg w neg d w 0 d cl} def
/w4 {w 4 div} def
/w6 {w 6 div} def
/w8 {w 8 div} def
/m21 {mb f} def /m25 {mb s} def /m22 {mt f} def /m26{mt s} def
/m23 {mp x y w2 sub m w2 w d w neg 0 d cl f} def
/m27 {mp x y w2 add m w3 neg w2 neg d w3 w2 neg d w3 w2 d cl s} def
/m28 {mp x w2 sub y w2 sub w3 add m w3 0 d  0 w3 neg d w3 0 d 0 w3 d w3 0 d  0 w3 d w3 neg 0 d 0 w3 d w3 neg 0 d 0 w3 neg d w3 neg 0 d cl s } def
/m29 {mp gsave x w2 sub y w2 add w3 sub m currentpoint t 4 {side} repeat cl fill gr} def
/m30 {mp gsave x w2 sub y w2 add w3 sub m currentpoint t 4 {side} repeat cl s gr} def
/m31 {mp x y w2 sub m 0 w d x w2 sub y m w 0 d x w2 sub y w2 add m w w neg d x w2 sub y w2 sub m w w d s} def
/m32 {mp x y w2 sub m w2 w d w neg 0 d cl s} def
/m33 {mp x y w2 add m w3 neg w2 neg d w3 w2 neg d w3 w2 d cl f} def
/m34 {mp x w2 sub y w2 sub w3 add m w3 0 d  0 w3 neg d w3 0 d 0 w3 d w3 0 d  0 w3 d w3 neg 0 d 0 w3 d w3 neg 0 d 0 w3 neg d w3 neg 0 d cl f } def
/m35 {mp x y w2 add m w2 neg w2 neg d w2 w2 neg d w2 w2 d w2 neg w2 d x y w2 sub m 0 w d x w2 sub y m w 0 d s} def
/m36 {mb x w2 sub y w2 add m w w neg d x w2 sub y w2 sub m w w d s} def
/m37 {mp x y m w4 neg w2 d w4 neg w2 neg d w2 0 d  w4 neg w2 neg d w2 0 d w4 neg w2 d w2 0 d w4 neg w2 d w4 neg w2 neg d cl s} def
/m38 {mp x w4 sub y w2 add m w4 neg w4 neg d 0 w2 neg d w4 w4 neg d w2 0 d w4 w4 d 0 w2 d w4 neg w4 d w2 neg 0 d x y w2 sub m 0 w d x w2 sub y m w 0 d cl s} def
/m39 {mp x y m w4 neg w2 d w4 neg w2 neg d w2 0 d  w4 neg w2 neg d w2 0 d w4 neg w2 d w2 0 d w4 neg w2 d w4 neg w2 neg d cl f} def
/m40 {mp x y m w4 w2 d w4 w4 neg d w2 neg w4 neg d w2 w4 neg d w4 neg w4 neg d w4 neg w2 d w4 neg w2 neg d w4 neg w4 d w2 w4 d w2 neg w4 d w4 w4 d w4 w2 neg d cl s} def
/m41 {mp x y m w4 w2 d w4 w4 neg d w2 neg w4 neg d w2 w4 neg d w4 neg w4 neg d w4 neg w2 d w4 neg w2 neg d w4 neg w4 d w2 w4 d w2 neg w4 d w4 w4 d w4 w2 neg d cl f} def
/m42 {mp x y w2 add m w8 neg w2 -3 4 div mul d w2 -3 4 div mul w8 neg d w2 3 4 div mul w8 neg d w8 w2 -3 4 div mul d w8 w2 3 4 div mul d w2 3 4 div mul w8 d w2 -3 4 div mul w8 d w8 neg w2 3 4 div mul d cl s} def
/m43 {mp x y w2 add m w8 neg w2 -3 4 div mul d w2 -3 4 div mul w8 neg d w2 3 4 div mul w8 neg d w8 w2 -3 4 div mul d w8 w2 3 4 div mul d w2 3 4 div mul w8 d w2 -3 4 div mul w8 d w8 neg w2 3 4 div mul d cl f} def
/m44 {mp x y m w6 neg w2 d w2 2 3 div mul 0 d w6 neg w2 neg d w2 w6 d 0 w2 -2 3 div mul d w2 neg w6 d w6 w2 neg d w2 -2 3 div mul 0 d w6 w2 d w2 neg w6 neg d 0 w2 2 3 div mul d w2 w6 neg d cl s} def
/m45 {mp x y m w6 neg w2 d w2 2 3 div mul 0 d w6 neg w2 neg d w2 w6 d 0 w2 -2 3 div mul d w2 neg w6 d w6 w2 neg d w2 -2 3 div mul 0 d w6 w2 d w2 neg w6 neg d 0 w2 2 3 div mul d w2 w6 neg d cl f} def
/m46 {mp x y w4 add m w4 neg w4 d w4 neg w4 neg d  w4 w4 neg d w4 neg w4 neg d w4 w4 neg d w4 w4 d w4 w4 neg d w4 w4 d w4 neg w4 d w4 w4 d w4 neg w4 d w4 neg w4 neg d cl s} def
/m47 {mp x y w4 add m w4 neg w4 d w4 neg w4 neg d w4 w4 neg d w4 neg w4 neg d  w4 w4 neg d w4 w4 d w4 w4 neg d w4 w4 d w4 neg w4 d w4 w4 d w4 neg w4 d w4 neg w4 neg d cl f} def
/m48 {mp x y w4 add m w4 neg w4 d w4 neg w4 neg d w4 w4 neg d  w4 neg w4 neg d w4 w4 neg d w4 w4 d w4 w4 neg d w4 w4 d w4 neg w4 d w4 w4 d w4 neg w4 d w4 neg w4 neg d  w4 w4 neg d w4 neg w4 neg d w4 neg w4 d w4 w4 d cl f} def
/m49 {mp x w2 sub w3 add y w2 sub w3 add m  0 w3 neg d w3 0 d 0 w3 d w3 0 d 0 w3 d w3 neg 0 d 0 w3 d w3 neg 0 d 0 w3 neg d w3 neg 0 d 0 w3 neg d w3 0 d 0 w3 d w3 0 d 0 w3 neg d w3 neg 0 d cl f } def
/m2 {mp x y w2 sub m 0 w d x w2 sub y m w 0 d s} def
/m5 {mp x w2 sub y w2 sub m w w d x w2 sub y w2 add m w w neg d s} def
%%IncludeResource: ProcSet (FontSetInit)
%%IncludeResource: font Times-Roman
%%IncludeResource: font Times-Italic
%%IncludeResource: font Times-Bold
%%IncludeResource: font Times-BoldItalic
%%IncludeResource: font Helvetica
%%IncludeResource: font Helvetica-Oblique
%%IncludeResource: font Helvetica-Bold
%%IncludeResource: font Helvetica-BoldOblique
%%IncludeResource: font Courier
%%IncludeResource: font Courier-Oblique
%%IncludeResource: font Courier-Bold
%%IncludeResource: font Courier-BoldOblique
%%IncludeResource: font Symbol
%%IncludeResource: font ZapfDingbats
/reEncode {exch findfont dup length dict begin {1 index /FID eq  {pop pop} {def} ifelse } forall /Encoding exch def currentdict end dup /FontName get exch definefont pop } def [/Times-Bold /Times-Italic /Times-BoldItalic /Helvetica /Helvetica-Oblique
 /Helvetica-Bold /Helvetica-BoldOblique /Courier /Courier-Oblique /Courier-Bold /Courier-BoldOblique /Times-Roman /AvantGarde-Book /AvantGarde-BookOblique /AvantGarde-Demi /AvantGarde-DemiOblique /Bookman-Demi /Bookman-DemiItalic /Bookman-Light
 /Bookman-LightItalic /Helvetica-Narrow /Helvetica-Narrow-Bold /Helvetica-Narrow-BoldOblique /Helvetica-Narrow-Oblique /NewCenturySchlbk-Roman /NewCenturySchlbk-Bold /NewCenturySchlbk-BoldItalic /NewCenturySchlbk-Italic /Palatino-Bold
 /Palatino-BoldItalic /Palatino-Italic /Palatino-Roman ] {ISOLatin1Encoding reEncode } forall
%%EndProlog
%%BeginSetup
%%EndSetup
newpath  gsave  .25 .25 scale  gsave  0 0 t black[  ] 0 sd 3 lw 1 1 1 c 2268 1538 0 0 bf black 1 1 1 c 1950 1284 272 231 bf black 1950 1284 272 231 bl 1 1 1 c 6 lw black 1 1 1 c 272 231 m 1950 X s black 3 lw 272 231 m 1950 X s 795 270 m -39 Y s 962
 251 m -20 Y s 1128 251 m -20 Y s 1295 251 m -20 Y s 1461 270 m -39 Y s 1628 251 m -20 Y s 1794 251 m -20 Y s 1961 251 m -20 Y s 2128 270 m -39 Y s 795 270 m -39 Y s 629 251 m -20 Y s 462 251 m -20 Y s 296 251 m -20 Y s 2128 270 m -39 Y s
 gsave  2268 1538 0 0 C 752.647 172.685 t 0 r /Helvetica findfont 61.9061 sf 0 0 m (0.4) show NC gr 
 gsave  2268 1538 0 0 C 1417.32 172.685 t 0 r /Helvetica findfont 61.9061 sf 0 0 m (0.6) show NC gr 
 gsave  2268 1538 0 0 C 2082 172.685 t 0 r /Helvetica findfont 61.9061 sf 0 0 m (0.8) show NC gr 
 gsave  2268 1538 0 0 C 2101.55 78.1971 t 0 r /Helvetica findfont 74.9389 sf 0 0 m ( [fb]) show NC gr 
 gsave  2268 1538 0 0 C 1987.51 52.1314 t 0 r /Helvetica findfont 52.1314 sf 0 0 m (fit) show NC gr 
 gsave  2268 1538 0 0 C 1987.51 110.779 t 0 r /Helvetica findfont 52.1314 sf 0 0 m (bin,2) show NC gr 
 gsave  2268 1538 0 0 C 1941.9 78.1971 t 0 r /Symbol findfont 74.9389 sf 0 0 m (s) show NC gr  272 1515 m 1950 X s 795 1475 m 40 Y s 962 1495 m 20 Y s 1128 1495 m 20 Y s 1295 1495 m 20 Y s 1461 1475 m 40 Y s 1628 1495 m 20 Y s 1794 1495 m 20 Y s 1961
 1495 m 20 Y s 2128 1475 m 40 Y s 795 1475 m 40 Y s 629 1495 m 20 Y s 462 1495 m 20 Y s 296 1495 m 20 Y s 2128 1475 m 40 Y s 272 231 m 1284 Y s 329 356 m -57 X s 301 400 m -29 X s 301 444 m -29 X s 301 488 m -29 X s 301 531 m -29 X s 329 575 m -57 X
 s 301 619 m -29 X s 301 663 m -29 X s 301 707 m -29 X s 301 751 m -29 X s 329 795 m -57 X s 301 838 m -29 X s 301 882 m -29 X s 301 926 m -29 X s 301 970 m -29 X s 329 1014 m -57 X s 301 1058 m -29 X s 301 1102 m -29 X s 301 1145 m -29 X s 301 1189
 m -29 X s 329 1233 m -57 X s 301 1277 m -29 X s 301 1321 m -29 X s 301 1365 m -29 X s 301 1409 m -29 X s 329 1452 m -57 X s 329 356 m -57 X s 301 312 m -29 X s 301 268 m -29 X s 329 1452 m -57 X s 301 1496 m -29 X s
 gsave  2268 1538 0 0 C 175.944 335.596 t 0 r /Helvetica findfont 61.9061 sf 0 0 m (0.3) show NC gr 
 gsave  2268 1538 0 0 C 175.944 553.896 t 0 r /Helvetica findfont 61.9061 sf 0 0 m (0.4) show NC gr 
 gsave  2268 1538 0 0 C 175.944 772.197 t 0 r /Helvetica findfont 61.9061 sf 0 0 m (0.5) show NC gr 
 gsave  2268 1538 0 0 C 175.944 993.755 t 0 r /Helvetica findfont 61.9061 sf 0 0 m (0.6) show NC gr 
 gsave  2268 1538 0 0 C 175.944 1212.06 t 0 r /Helvetica findfont 61.9061 sf 0 0 m (0.7) show NC gr 
 gsave  2268 1538 0 0 C 175.944 1430.36 t 0 r /Helvetica findfont 61.9061 sf 0 0 m (0.8) show NC gr 
 gsave  2268 1538 0 0 C 120.554 1394.52 t 90 r /Helvetica findfont 74.9389 sf 0 0 m ( [fb]) show NC gr 
 gsave  2268 1538 0 0 C 146.62 1280.48 t 90 r /Helvetica findfont 52.1314 sf 0 0 m (true) show NC gr 
 gsave  2268 1538 0 0 C 87.9718 1280.48 t 90 r /Helvetica findfont 52.1314 sf 0 0 m (bin,2) show NC gr 
 gsave  2268 1538 0 0 C 120.554 1234.86 t 90 r /Symbol findfont 74.9389 sf 0 0 m (s) show NC gr  2222 231 m 1284 Y s 2166 356 m 56 X s 2194 400 m 28 X s 2194 444 m 28 X s 2194 488 m 28 X s 2194 531 m 28 X s 2166 575 m 56 X s 2194 619 m 28 X s 2194
 663 m 28 X s 2194 707 m 28 X s 2194 751 m 28 X s 2166 795 m 56 X s 2194 838 m 28 X s 2194 882 m 28 X s 2194 926 m 28 X s 2194 970 m 28 X s 2166 1014 m 56 X s 2194 1058 m 28 X s 2194 1102 m 28 X s 2194 1145 m 28 X s 2194 1189 m 28 X s 2166 1233 m 56
 X s 2194 1277 m 28 X s 2194 1321 m 28 X s 2194 1365 m 28 X s 2194 1409 m 28 X s 2166 1452 m 56 X s 2166 356 m 56 X s 2194 312 m 28 X s 2194 268 m 28 X s 2166 1452 m 56 X s 2194 1496 m 28 X s 1 0 0 c 1 1 1 c 1 0 0 c 69 45 286 433 bl 1 1 1 c 1 0 0 c
 69 45 384 497 bl 1 1 1 c 1 0 0 c 69 45 871 818 bl 1 1 1 c 1 0 0 c 69 45 969 818 bl 1 1 1 c 1 0 0 c 68 46 1067 882 bl 1 1 1 c 1 0 0 c 97 64 1150 937 bl 1 1 1 c 1 0 0 c 68 45 1262 1011 bl 1 1 1 c 1 0 0 c 68 45 1262 1075 bl 1 1 1 c 1 0 0 c 69 45 1359
 1075 bl 1 1 1 c black 1 1 1 c black 69 45 286 433 bl 1 1 1 c black 69 45 384 497 bl 1 1 1 c black 69 45 871 818 bl 1 1 1 c black 69 45 969 818 bl 1 1 1 c black 68 46 1067 882 bl 1 1 1 c black 97 64 1150 937 bl 1 1 1 c black 68 45 1262 1011 bl 1 1 1
 c black 68 45 1262 1075 bl 1 1 1 c black 69 45 1359 1075 bl 1 1 1 c 0 0 1 c 1 1 1 c 0 0 1 c 69 45 286 433 bl 1 1 1 c 0 0 1 c 69 45 969 818 bl 1 1 1 c 0 0 1 c 68 46 1067 882 bl 1 1 1 c 0 0 1 c 68 45 1262 1011 bl 1 1 1 c black[ 12 12] 0 sd 9 lw 1 1 1
 c black 321 488 m 195 X 89 -2 d 8 2 d 17 X 36 -4 d 14 3 d 11 7 d 8 9 d 9 12 d 3 5 d 7 14 d 8 21 d 9 29 d 11 42 d 19 77 d 14 52 d 9 34 d 8 22 d 7 18 d 5 12 d 9 12 d 9 9 d 80 X 35 15 d 51 24 d 11 4 d 35 8 d 55 11 d 8 2 d 36 14 d 61 29 d 77 35 d 21 8 d
 35 8 d 55 11 d 8 2 d 34 15 d 52 24 d 11 4 d 7 5 d 8 10 d 10 19 d 19 39 d 9 14 d 7 7 d 5 3 d 5 X 6 -5 d 5 -8 d 5 -14 d 5 -15 d 4 -19 d 3 -15 d 6 -36 d 5 -40 d 6 -44 d 6 -46 d 5 -49 d 5 -52 d 5 -56 d 5 -59 d 5 -64 d 5 -67 d 5 -72 d 5 -76 d 5 -79 d 5
 -91 d 1 -35 d s[  ] 0 sd 1 1 1 c black 321 452 m 195 X 35 3 d 34 2 d 22 -3 d 6 -2 d 12 -7 d 13 -15 d 37 -46 d 12 -8 d 8 -2 d 8 2 d 8 7 d 7 12 d 9 18 d 9 27 d 12 39 d 19 72 d 18 66 d 11 38 d 9 25 d 3 9 d 17 41 d 20 52 d 14 31 d 11 18 d 9 10 d 9 4 d 6
 -2 d 7 -6 d 5 -7 d 9 -19 d 9 -23 d 9 -29 d 8 -33 d 10 -43 d 8 -41 d 9 -49 d 8 -53 d 9 -63 d 8 -59 d 8 -67 d 2 -19 d 9 -73 d 3 -28 d s 1207 231 m 1 19 d s 1208 250 m 4 109 d 5 101 d 4 94 d 5 88 d 4 82 d 4 77 d 4 72 d 5 69 d 4 65 d 5 61 d 4 56 d 5 52
 d 4 47 d 5 42 d 4 32 d 5 32 d 4 27 d 5 22 d 4 16 d 4 9 d 3 4 d 3 -1 d 3 -7 d 3 -13 d 3 -18 d 4 -24 d 4 -31 d 4 -42 d 4 -49 d 5 -61 d 6 -82 d 21 -312 d 6 -70 d 4 -55 d 4 -43 d 4 -40 d 3 -32 d 4 -26 d 3 -20 d 3 -13 d 4 -9 d 3 -4 d 4 1 d 4 6 d 5 14 d 4
 19 d 5 26 d 5 33 d 6 45 d 8 60 d 16 144 d 8 69 d 6 51 d 6 39 d 5 35 d s 1479 997 m 5 22 d 4 16 d 3 9 d 12 29 d 10 19 d 9 12 d 9 7 d 7 1 d 8 -5 d 6 -9 d 7 -13 d 6 -18 d 6 -23 d 6 -27 d 6 -29 d 6 -37 d 6 -44 d 6 -50 d 6 -53 d 6 -59 d 7 -65 d 6 -70 d 7
 -77 d 6 -81 d 7 -98 d 6 -88 d 3 -35 d s 1 1 1 c black 321 523 m 195 X 6 -2 d 7 -5 d 8 -11 d 23 -37 d 9 -10 d 6 -5 d 6 -2 d 5 2 d 4 3 d 5 7 d 4 9 d 5 13 d 4 13 d 4 17 d 1 8 d 6 29 d 5 31 d 5 33 d 5 36 d 6 38 d 5 40 d 5 44 d 5 47 d 5 51 d 5 54 d 6 57
 d 5 60 d 5 65 d 5 57 d 5 68 d 6 72 d 5 75 d 5 74 d 4 61 d s 822 1515 m 2 -31 d s 824 1484 m 5 -66 d 5 -61 d 5 -58 d 5 -54 d 5 -51 d 6 -48 d 5 -44 d 5 -40 d 6 -36 d 5 -32 d 5 -24 d 5 -24 d 5 -20 d 6 -15 d 5 -11 d 4 -6 d 3 -2 d 4 4 d 3 8 d 4 12 d 3 18
 d 5 26 d 4 31 d 5 39 d 6 53 d 7 64 d 12 119 d 6 58 d 6 45 d 4 34 d 4 25 d 4 21 d 4 17 d 3 11 d 4 6 d 3 1 d 3 -3 d -1 Y 3 -7 d 3 -12 d 3 -16 d 3 -22 d 4 -27 d 3 -33 d s 1022 1363 m 4 -46 d 5 -52 d 4 -64 d 7 -88 d 19 -285 d 5 -63 d 4 -51 d 4 -44 d 3
 -36 d 4 -32 d 3 -23 d 3 -17 d 3 -16 d 3 -10 d 3 -5 d 2 -1 d 3 4 d 4 11 d 4 15 d 5 22 d 4 27 d 5 30 d 4 34 d 4 37 d 4 40 d 4 44 d 4 47 d 4 51 d 4 55 d 4 60 d 4 64 d 4 69 d 4 74 d 4 78 d 4 86 d 4 76 d 3 61 d s 1401 1515 m 2 -22 d s 1403 1493 m 5 -49 d
 4 -45 d 5 -41 d 4 -37 d 4 -34 d 4 -30 d 4 -29 d 4 -25 d 5 -23 d 4 -21 d 4 -18 d 4 -16 d 5 -12 d 5 -11 d 4 -7 d 4 -4 d 5 X 4 2 d 5 5 d 4 8 d 1 2 d 5 14 d 5 16 d 4 19 d 5 22 d s 1510 1179 m 4 24 d 4 27 d 5 28 d 4 32 d 4 33 d 4 36 d 4 39 d 4 42 d 5 46
 d 2 29 d s 0 0 1 c[ 12 12] 0 sd 1 1 1 c black 0 0 1 c 321 455 m 195 X 6 2 d 6 4 d 9 8 d 23 28 d 8 8 d 7 4 d 6 1 d 5 -1 d 4 -2 d 5 -5 d 4 -7 d 5 -10 d 4 -11 d 4 -12 d 1 -7 d 6 -21 d 5 -24 d 5 -25 d 5 -27 d 6 -29 d 5 -31 d 5 -34 d 5 -33 d s 744 231 m
 4 46 d s 748 277 m 5 71 d 6 69 d 6 65 d 6 68 d 6 55 d 6 53 d 6 49 d 6 50 d 6 38 d 6 37 d 1 9 d 5 25 d 5 20 d 5 16 d 5 12 d 6 9 d 6 5 d 6 1 d 8 -4 d 9 -9 d 29 -38 d 7 -4 d 7 -1 d 23 1 d 60 -4 d 14 3 d 18 7 d 26 16 d 33 21 d 17 8 d 4 1 d 19 3 d 78 -3
 d 27 8 d 32 14 d 39 21 d 25 16 d 43 33 d 18 11 d 12 4 d 6 5 d 8 10 d 10 19 d 17 33 d 9 14 d 7 7 d 6 3 d 5 -1 d 6 -5 d 5 -10 d 5 -13 d 4 -16 d 4 -18 d 4 -23 d 1 -5 d 6 -37 d 5 -41 d 6 -43 d 5 -46 d 5 -50 d 5 -53 d 5 -56 d 5 -61 d 5 -65 d 6 -69 d 5
 -74 d 5 -78 d 5 -90 d 3 -39 d s[  ] 0 sd 1 1 1 c black 0 0 1 c 321 319 m 195 X 6 1 d 6 3 d 9 7 d 23 23 d 8 6 d 7 4 d 6 1 d 5 -1 d 4 -2 d 5 -4 d 4 -6 d 5 -8 d 4 -8 d 4 -11 d 1 -5 d 6 -18 d 5 -19 d 5 -21 d 5 -22 d 2 -8 d s 752 231 m 6 61 d s 758 292 m
 6 62 d 7 65 d 5 53 d 7 52 d 6 48 d 6 48 d 6 40 d 6 37 d 1 7 d 6 27 d 5 23 d 5 20 d 5 16 d 5 14 d 6 12 d 7 8 d 7 7 d 9 3 d 36 X 7 3 d 10 9 d 27 32 d 9 9 d 8 5 d 7 1 d 7 -1 d 6 -4 d 6 -8 d 6 -10 d 5 -13 d 5 -16 d 1 -4 d 7 -25 d 7 -27 d 6 -31 d 7 -35 d
 6 -39 d 7 -42 d 7 -46 d s 1050 592 m 8 -57 d 7 -51 d 6 -57 d 7 -60 d 8 -71 d 6 -63 d -2 Y s 1206 231 m 5 53 d s 1211 284 m 7 66 d 6 64 d 7 62 d 6 58 d 7 56 d 7 52 d 7 50 d 6 39 d 7 47 d 7 37 d 7 34 d 6 29 d 5 20 d 5 18 d 5 14 d 6 10 d 6 8 d 76 -51 d
 5 2 d 7 6 d 8 13 d 24 45 d 8 12 d 7 7 d 6 1 d 5 -1 d 4 -4 d 5 -8 d 4 -11 d 5 -16 d 3 -16 d 4 -20 d 2 -10 d 5 -35 d 6 -37 d 5 -40 d 5 -43 d 5 -46 d 5 -49 d 5 -53 d 6 -56 d 5 -61 d 5 -66 d 5 -69 d 6 -72 d s 1554 270 m 2 -39 d s 1 1 1 c black 0 0 1 c
 321 1454 m 195 X 6 3 d 6 9 d 9 19 d 11 30 d s 605 1515 m 3 -17 d s 608 1498 m 4 -29 d 1 -15 d 6 -51 d 5 -54 d 5 -59 d 5 -63 d 6 -67 d 5 -72 d 5 -77 d 5 -83 d 5 -89 d 5 -96 d 6 -101 d 5 -106 d 5 -114 d 5 -101 d 4 -90 d s 833 1515 m 1 -13 d s 834 1502
 m 5 -59 d 5 -56 d 5 -54 d 6 -53 d 5 -51 d 5 -48 d 6 -45 d 5 -43 d 5 -34 d 5 -37 d 5 -34 d 6 -32 d 5 -28 d 4 -20 d 5 -23 d 5 -20 d 5 -17 d 6 -15 d 5 -11 d 5 -10 d 5 -7 d 5 -4 d 6 -2 d 5 1 d 6 4 d 6 8 d 5 9 d 6 12 d 6 16 d 6 19 d 6 20 d 4 20 d s 1003
 908 m 6 25 d 6 28 d 5 29 d 5 32 d 6 34 d 5 37 d 6 41 d 5 43 d 6 47 d 5 50 d 6 52 d 6 56 d 5 50 d 5 60 d 2 23 d s 1214 1515 m 2 -25 d s 1216 1490 m 4 -53 d 4 -47 d 4 -44 d 4 -41 d 4 -37 d 4 -34 d 4 -31 d 4 -29 d 4 -27 d 4 -24 d 4 -21 d 4 -19 d 4 -15
 d 5 -13 d 3 -9 d 5 -7 d 4 -4 d 4 X 4 2 d 3 3 d 4 8 d 4 10 d 5 16 d s 1309 1074 m 4 18 d 4 21 d 5 23 d 4 26 d 4 28 d 4 31 d 4 33 d 3 36 d 4 38 d 4 42 d 4 45 d 4 49 d 4 51 d s 1 0 0 c[ 12 12] 0 sd 1 1 1 c black 1 0 0 c 321 488 m 195 X 89 -2 d 8 2 d 17
 X 36 -4 d 14 3 d 11 7 d 8 9 d 9 12 d 3 5 d 7 14 d 8 21 d 9 29 d 11 42 d 19 77 d 14 52 d 9 34 d 8 22 d 7 18 d 5 12 d 9 12 d 9 9 d 80 X 35 15 d 51 24 d 11 4 d 35 8 d 55 11 d 8 2 d 36 14 d 61 29 d 77 35 d 21 8 d 35 8 d 55 11 d 8 2 d 34 15 d 52 24 d 11
 4 d 7 5 d 8 10 d 10 19 d 19 39 d 9 14 d 7 7 d 5 3 d 5 X 6 -5 d 5 -8 d 5 -14 d 5 -15 d 4 -19 d 3 -15 d 6 -36 d 5 -40 d 6 -44 d 6 -46 d 5 -49 d 5 -52 d 5 -56 d 5 -59 d 5 -64 d 5 -67 d 5 -72 d 5 -76 d 5 -79 d 5 -91 d 1 -35 d s[  ] 0 sd 6 lw 1 1 1 c
 black 1 0 0 c 321 452 m 195 X 35 3 d 34 2 d 22 -3 d 6 -2 d 12 -7 d 13 -15 d 37 -46 d 12 -8 d 8 -2 d 8 2 d 8 7 d 7 12 d 9 18 d 9 27 d 12 39 d 19 72 d 18 66 d 11 38 d 9 25 d 3 9 d 17 41 d 20 52 d 14 31 d 11 18 d 9 10 d 9 4 d 6 -2 d 7 -6 d 5 -7 d 9 -19
 d 9 -23 d 9 -29 d 8 -33 d 10 -43 d 8 -41 d 9 -49 d 8 -53 d 9 -63 d 8 -59 d 8 -67 d 2 -19 d 9 -73 d 3 -28 d s 1207 231 m 1 19 d s 1208 250 m 4 109 d 5 101 d 4 94 d 5 88 d 4 82 d 4 77 d 4 72 d 5 69 d 4 65 d 5 61 d 4 56 d 5 52 d 4 47 d 5 42 d 4 32 d 5
 32 d 4 27 d 5 22 d 4 16 d 4 9 d 3 4 d 3 -1 d 3 -7 d 3 -13 d 3 -18 d 4 -24 d 4 -31 d 4 -42 d 4 -49 d 5 -61 d 6 -82 d 21 -312 d 6 -70 d 4 -55 d 4 -43 d 4 -40 d 3 -32 d 4 -26 d 3 -20 d 3 -13 d 4 -9 d 3 -4 d 4 1 d 4 6 d 5 14 d 4 19 d 5 26 d 5 33 d 6 45
 d 8 60 d 16 144 d 8 69 d 6 51 d 6 39 d 5 35 d s 1479 997 m 5 22 d 4 16 d 3 9 d 12 29 d 10 19 d 9 12 d 9 7 d 7 1 d 8 -5 d 6 -9 d 7 -13 d 6 -18 d 6 -23 d 6 -27 d 6 -29 d 6 -37 d 6 -44 d 6 -50 d 6 -53 d 6 -59 d 7 -65 d 6 -70 d 7 -77 d 6 -81 d 7 -98 d 6
 -88 d 3 -35 d s 9 lw 1 1 1 c black 1 0 0 c 321 523 m 195 X 6 -2 d 7 -5 d 8 -11 d 23 -37 d 9 -10 d 6 -5 d 6 -2 d 5 2 d 4 3 d 5 7 d 4 9 d 5 13 d 4 13 d 4 17 d 1 8 d 6 29 d 5 31 d 5 33 d 5 36 d 6 38 d 5 40 d 5 44 d 5 47 d 5 51 d 5 54 d 6 57 d 5 60 d 5
 65 d 5 57 d 5 68 d 6 72 d 5 75 d 5 74 d 4 61 d s 822 1515 m 2 -31 d s 824 1484 m 5 -66 d 5 -61 d 5 -58 d 5 -54 d 5 -51 d 6 -48 d 5 -44 d 5 -40 d 6 -36 d 5 -32 d 5 -24 d 5 -24 d 5 -20 d 6 -15 d 5 -11 d 4 -6 d 3 -2 d 4 4 d 3 8 d 4 12 d 3 18 d 5 26 d 4
 31 d 5 39 d 6 53 d 7 64 d 12 119 d 6 58 d 6 45 d 4 34 d 4 25 d 4 21 d 4 17 d 3 11 d 4 6 d 3 1 d 3 -3 d -1 Y 3 -7 d 3 -12 d 3 -16 d 3 -22 d 4 -27 d 3 -33 d s 1022 1363 m 4 -46 d 5 -52 d 4 -64 d 7 -88 d 19 -285 d 5 -63 d 4 -51 d 4 -44 d 3 -36 d 4 -32
 d 3 -23 d 3 -17 d 3 -16 d 3 -10 d 3 -5 d 2 -1 d 3 4 d 4 11 d 4 15 d 5 22 d 4 27 d 5 30 d 4 34 d 4 37 d 4 40 d 4 44 d 4 47 d 4 51 d 4 55 d 4 60 d 4 64 d 4 69 d 4 74 d 4 78 d 4 86 d 4 76 d 3 61 d s 1401 1515 m 2 -22 d s 1403 1493 m 5 -49 d 4 -45 d 5
 -41 d 4 -37 d 4 -34 d 4 -30 d 4 -29 d 4 -25 d 5 -23 d 4 -21 d 4 -18 d 4 -16 d 5 -12 d 5 -11 d 4 -7 d 4 -4 d 5 X 4 2 d 5 5 d 4 8 d 1 2 d 5 14 d 5 16 d 4 19 d 5 22 d s 1510 1179 m 4 24 d 4 27 d 5 28 d 4 32 d 4 33 d 4 36 d 4 39 d 4 42 d 5 46 d 2 29 d s
 black 1247 231 m 1284 Y s
 gr  gr showpage
end
%%EOF
