%!PS-Adobe-2.0 EPSF-2.0
%%BoundingBox:  0 0 567 384
%%Title: plots/iter_4/iterationsToys_ws_mtx_mjj/ccBelts_7_iter4.eps: 
%%Creator: ROOT Version 6.16/00
%%CreationDate: Fri Nov 13 20:35:27 2020
%%DocumentNeededResources: ProcSet (FontSetInit)
%%EndComments
%%BeginProlog
80 dict begin
/s {stroke} def /l {lineto} def /m {moveto} def /t {translate} def
/r {rotate} def /rl {roll}  def /R {repeat} def
/d {rlineto} def /rm {rmoveto} def /gr {grestore} def /f {eofill} def
/c {setrgbcolor} def /black {0 setgray} def /sd {setdash} def
/cl {closepath} def /sf {scalefont setfont} def /lw {setlinewidth} def
/box {m dup 0 exch d exch 0 d 0 exch neg d cl} def
/NC{systemdict begin initclip end}def/C{NC box clip newpath}def
/bl {box s} def /bf {gsave box gsave f grestore 1 lw [] 0 sd s grestore} def /Y { 0 exch d} def /X { 0 d} def 
/K {{pop pop 0 moveto} exch kshow} bind def
/ita {/ang 15 def gsave [1 0 ang dup sin exch cos div 1 0 0] concat} def 
/mp {newpath /y exch def /x exch def} def
/side {[w .77 mul w .23 mul] .385 w mul sd w 0 l currentpoint t -144 r} def
/mr {mp x y w2 0 360 arc} def /m24 {mr s} def /m20 {mr f} def
/mb {mp x y w2 add m w2 neg 0 d 0 w neg d w 0 d 0 w d cl} def
/mt {mp x y w2 add m w2 neg w neg d w 0 d cl} def
/w4 {w 4 div} def
/w6 {w 6 div} def
/w8 {w 8 div} def
/m21 {mb f} def /m25 {mb s} def /m22 {mt f} def /m26{mt s} def
/m23 {mp x y w2 sub m w2 w d w neg 0 d cl f} def
/m27 {mp x y w2 add m w3 neg w2 neg d w3 w2 neg d w3 w2 d cl s} def
/m28 {mp x w2 sub y w2 sub w3 add m w3 0 d  0 w3 neg d w3 0 d 0 w3 d w3 0 d  0 w3 d w3 neg 0 d 0 w3 d w3 neg 0 d 0 w3 neg d w3 neg 0 d cl s } def
/m29 {mp gsave x w2 sub y w2 add w3 sub m currentpoint t 4 {side} repeat cl fill gr} def
/m30 {mp gsave x w2 sub y w2 add w3 sub m currentpoint t 4 {side} repeat cl s gr} def
/m31 {mp x y w2 sub m 0 w d x w2 sub y m w 0 d x w2 sub y w2 add m w w neg d x w2 sub y w2 sub m w w d s} def
/m32 {mp x y w2 sub m w2 w d w neg 0 d cl s} def
/m33 {mp x y w2 add m w3 neg w2 neg d w3 w2 neg d w3 w2 d cl f} def
/m34 {mp x w2 sub y w2 sub w3 add m w3 0 d  0 w3 neg d w3 0 d 0 w3 d w3 0 d  0 w3 d w3 neg 0 d 0 w3 d w3 neg 0 d 0 w3 neg d w3 neg 0 d cl f } def
/m35 {mp x y w2 add m w2 neg w2 neg d w2 w2 neg d w2 w2 d w2 neg w2 d x y w2 sub m 0 w d x w2 sub y m w 0 d s} def
/m36 {mb x w2 sub y w2 add m w w neg d x w2 sub y w2 sub m w w d s} def
/m37 {mp x y m w4 neg w2 d w4 neg w2 neg d w2 0 d  w4 neg w2 neg d w2 0 d w4 neg w2 d w2 0 d w4 neg w2 d w4 neg w2 neg d cl s} def
/m38 {mp x w4 sub y w2 add m w4 neg w4 neg d 0 w2 neg d w4 w4 neg d w2 0 d w4 w4 d 0 w2 d w4 neg w4 d w2 neg 0 d x y w2 sub m 0 w d x w2 sub y m w 0 d cl s} def
/m39 {mp x y m w4 neg w2 d w4 neg w2 neg d w2 0 d  w4 neg w2 neg d w2 0 d w4 neg w2 d w2 0 d w4 neg w2 d w4 neg w2 neg d cl f} def
/m40 {mp x y m w4 w2 d w4 w4 neg d w2 neg w4 neg d w2 w4 neg d w4 neg w4 neg d w4 neg w2 d w4 neg w2 neg d w4 neg w4 d w2 w4 d w2 neg w4 d w4 w4 d w4 w2 neg d cl s} def
/m41 {mp x y m w4 w2 d w4 w4 neg d w2 neg w4 neg d w2 w4 neg d w4 neg w4 neg d w4 neg w2 d w4 neg w2 neg d w4 neg w4 d w2 w4 d w2 neg w4 d w4 w4 d w4 w2 neg d cl f} def
/m42 {mp x y w2 add m w8 neg w2 -3 4 div mul d w2 -3 4 div mul w8 neg d w2 3 4 div mul w8 neg d w8 w2 -3 4 div mul d w8 w2 3 4 div mul d w2 3 4 div mul w8 d w2 -3 4 div mul w8 d w8 neg w2 3 4 div mul d cl s} def
/m43 {mp x y w2 add m w8 neg w2 -3 4 div mul d w2 -3 4 div mul w8 neg d w2 3 4 div mul w8 neg d w8 w2 -3 4 div mul d w8 w2 3 4 div mul d w2 3 4 div mul w8 d w2 -3 4 div mul w8 d w8 neg w2 3 4 div mul d cl f} def
/m44 {mp x y m w6 neg w2 d w2 2 3 div mul 0 d w6 neg w2 neg d w2 w6 d 0 w2 -2 3 div mul d w2 neg w6 d w6 w2 neg d w2 -2 3 div mul 0 d w6 w2 d w2 neg w6 neg d 0 w2 2 3 div mul d w2 w6 neg d cl s} def
/m45 {mp x y m w6 neg w2 d w2 2 3 div mul 0 d w6 neg w2 neg d w2 w6 d 0 w2 -2 3 div mul d w2 neg w6 d w6 w2 neg d w2 -2 3 div mul 0 d w6 w2 d w2 neg w6 neg d 0 w2 2 3 div mul d w2 w6 neg d cl f} def
/m46 {mp x y w4 add m w4 neg w4 d w4 neg w4 neg d  w4 w4 neg d w4 neg w4 neg d w4 w4 neg d w4 w4 d w4 w4 neg d w4 w4 d w4 neg w4 d w4 w4 d w4 neg w4 d w4 neg w4 neg d cl s} def
/m47 {mp x y w4 add m w4 neg w4 d w4 neg w4 neg d w4 w4 neg d w4 neg w4 neg d  w4 w4 neg d w4 w4 d w4 w4 neg d w4 w4 d w4 neg w4 d w4 w4 d w4 neg w4 d w4 neg w4 neg d cl f} def
/m48 {mp x y w4 add m w4 neg w4 d w4 neg w4 neg d w4 w4 neg d  w4 neg w4 neg d w4 w4 neg d w4 w4 d w4 w4 neg d w4 w4 d w4 neg w4 d w4 w4 d w4 neg w4 d w4 neg w4 neg d  w4 w4 neg d w4 neg w4 neg d w4 neg w4 d w4 w4 d cl f} def
/m49 {mp x w2 sub w3 add y w2 sub w3 add m  0 w3 neg d w3 0 d 0 w3 d w3 0 d 0 w3 d w3 neg 0 d 0 w3 d w3 neg 0 d 0 w3 neg d w3 neg 0 d 0 w3 neg d w3 0 d 0 w3 d w3 0 d 0 w3 neg d w3 neg 0 d cl f } def
/m2 {mp x y w2 sub m 0 w d x w2 sub y m w 0 d s} def
/m5 {mp x w2 sub y w2 sub m w w d x w2 sub y w2 add m w w neg d s} def
%%IncludeResource: ProcSet (FontSetInit)
%%IncludeResource: font Times-Roman
%%IncludeResource: font Times-Italic
%%IncludeResource: font Times-Bold
%%IncludeResource: font Times-BoldItalic
%%IncludeResource: font Helvetica
%%IncludeResource: font Helvetica-Oblique
%%IncludeResource: font Helvetica-Bold
%%IncludeResource: font Helvetica-BoldOblique
%%IncludeResource: font Courier
%%IncludeResource: font Courier-Oblique
%%IncludeResource: font Courier-Bold
%%IncludeResource: font Courier-BoldOblique
%%IncludeResource: font Symbol
%%IncludeResource: font ZapfDingbats
/reEncode {exch findfont dup length dict begin {1 index /FID eq  {pop pop} {def} ifelse } forall /Encoding exch def currentdict end dup /FontName get exch definefont pop } def [/Times-Bold /Times-Italic /Times-BoldItalic /Helvetica /Helvetica-Oblique
 /Helvetica-Bold /Helvetica-BoldOblique /Courier /Courier-Oblique /Courier-Bold /Courier-BoldOblique /Times-Roman /AvantGarde-Book /AvantGarde-BookOblique /AvantGarde-Demi /AvantGarde-DemiOblique /Bookman-Demi /Bookman-DemiItalic /Bookman-Light
 /Bookman-LightItalic /Helvetica-Narrow /Helvetica-Narrow-Bold /Helvetica-Narrow-BoldOblique /Helvetica-Narrow-Oblique /NewCenturySchlbk-Roman /NewCenturySchlbk-Bold /NewCenturySchlbk-BoldItalic /NewCenturySchlbk-Italic /Palatino-Bold
 /Palatino-BoldItalic /Palatino-Italic /Palatino-Roman ] {ISOLatin1Encoding reEncode } forall
%%EndProlog
%%BeginSetup
%%EndSetup
newpath  gsave  .25 .25 scale  gsave  0 0 t black[  ] 0 sd 3 lw 1 1 1 c 2268 1538 0 0 bf black 1 1 1 c 1950 1284 272 231 bf black 1950 1284 272 231 bl 1 1 1 c 6 lw black 1 1 1 c 272 409 m 1950 X s black 3 lw 272 231 m 1950 X s 542 270 m -39 Y s 668
 251 m -20 Y s 793 251 m -20 Y s 919 251 m -20 Y s 1044 251 m -20 Y s 1170 270 m -39 Y s 1296 251 m -20 Y s 1421 251 m -20 Y s 1547 251 m -20 Y s 1672 251 m -20 Y s 1798 270 m -39 Y s 542 270 m -39 Y s 417 251 m -20 Y s 291 251 m -20 Y s 1798 270 m
 -39 Y s 1923 251 m -20 Y s 2049 251 m -20 Y s 2175 251 m -20 Y s
 gsave  2268 1538 0 0 C 524.572 172.685 t 0 r /Helvetica findfont 61.9061 sf 0 0 m (0) show NC gr 
 gsave  2268 1538 0 0 C 1107.79 172.685 t 0 r /Helvetica findfont 61.9061 sf 0 0 m (0.05) show NC gr 
 gsave  2268 1538 0 0 C 1756.18 172.685 t 0 r /Helvetica findfont 61.9061 sf 0 0 m (0.1) show NC gr 
 gsave  2268 1538 0 0 C 2101.55 78.1971 t 0 r /Helvetica findfont 74.9389 sf 0 0 m ( [fb]) show NC gr 
 gsave  2268 1538 0 0 C 1987.51 52.1314 t 0 r /Helvetica findfont 52.1314 sf 0 0 m (fit) show NC gr 
 gsave  2268 1538 0 0 C 1987.51 110.779 t 0 r /Helvetica findfont 52.1314 sf 0 0 m (bin,7) show NC gr 
 gsave  2268 1538 0 0 C 1941.9 78.1971 t 0 r /Symbol findfont 74.9389 sf 0 0 m (s) show NC gr  272 1515 m 1950 X s 542 1475 m 40 Y s 668 1495 m 20 Y s 793 1495 m 20 Y s 919 1495 m 20 Y s 1044 1495 m 20 Y s 1170 1475 m 40 Y s 1296 1495 m 20 Y s 1421
 1495 m 20 Y s 1547 1495 m 20 Y s 1672 1495 m 20 Y s 1798 1475 m 40 Y s 542 1475 m 40 Y s 417 1495 m 20 Y s 291 1495 m 20 Y s 1798 1475 m 40 Y s 1923 1495 m 20 Y s 2049 1495 m 20 Y s 2175 1495 m 20 Y s 272 231 m 1284 Y s 329 243 m -57 X s 301 284 m
 -29 X s 301 326 m -29 X s 301 367 m -29 X s 329 409 m -57 X s 301 450 m -29 X s 301 491 m -29 X s 301 533 m -29 X s 329 574 m -57 X s 301 615 m -29 X s 301 657 m -29 X s 301 698 m -29 X s 329 739 m -57 X s 301 781 m -29 X s 301 822 m -29 X s 301 863
 m -29 X s 329 905 m -57 X s 301 946 m -29 X s 301 987 m -29 X s 301 1029 m -29 X s 329 1070 m -57 X s 301 1111 m -29 X s 301 1153 m -29 X s 301 1194 m -29 X s 329 1235 m -57 X s 301 1277 m -29 X s 301 1318 m -29 X s 301 1359 m -29 X s 329 1401 m -57
 X s 329 243 m -57 X s 329 1401 m -57 X s 301 1442 m -29 X s 301 1483 m -29 X s
 gsave  2268 1538 0 0 C 140.103 221.559 t 0 r /Helvetica findfont 61.9061 sf 0 0 m (0.02) show NC gr 
 gsave  2268 1538 0 0 C 107.521 221.559 t 0 r /Symbol findfont 61.9061 sf 0 0 m (-) show NC gr 
 gsave  2268 1538 0 0 C 228.075 387.727 t 0 r /Helvetica findfont 61.9061 sf 0 0 m (0) show NC gr 
 gsave  2268 1538 0 0 C 140.103 553.896 t 0 r /Helvetica findfont 61.9061 sf 0 0 m (0.02) show NC gr 
 gsave  2268 1538 0 0 C 140.103 716.807 t 0 r /Helvetica findfont 61.9061 sf 0 0 m (0.04) show NC gr 
 gsave  2268 1538 0 0 C 140.103 882.976 t 0 r /Helvetica findfont 61.9061 sf 0 0 m (0.06) show NC gr 
 gsave  2268 1538 0 0 C 140.103 1049.14 t 0 r /Helvetica findfont 61.9061 sf 0 0 m (0.08) show NC gr 
 gsave  2268 1538 0 0 C 185.718 1215.31 t 0 r /Helvetica findfont 61.9061 sf 0 0 m (0.1) show NC gr 
 gsave  2268 1538 0 0 C 140.103 1378.22 t 0 r /Helvetica findfont 61.9061 sf 0 0 m (0.12) show NC gr 
 gsave  2268 1538 0 0 C 120.554 1394.52 t 90 r /Helvetica findfont 74.9389 sf 0 0 m ( [fb]) show NC gr 
 gsave  2268 1538 0 0 C 146.62 1280.48 t 90 r /Helvetica findfont 52.1314 sf 0 0 m (true) show NC gr 
 gsave  2268 1538 0 0 C 87.9718 1280.48 t 90 r /Helvetica findfont 52.1314 sf 0 0 m (bin,7) show NC gr 
 gsave  2268 1538 0 0 C 120.554 1234.86 t 90 r /Symbol findfont 74.9389 sf 0 0 m (s) show NC gr  2222 231 m 1284 Y s 2166 243 m 56 X s 2194 284 m 28 X s 2194 326 m 28 X s 2194 367 m 28 X s 2166 409 m 56 X s 2194 450 m 28 X s 2194 491 m 28 X s 2194
 533 m 28 X s 2166 574 m 56 X s 2194 615 m 28 X s 2194 657 m 28 X s 2194 698 m 28 X s 2166 739 m 56 X s 2194 781 m 28 X s 2194 822 m 28 X s 2194 863 m 28 X s 2166 905 m 56 X s 2194 946 m 28 X s 2194 987 m 28 X s 2194 1029 m 28 X s 2166 1070 m 56 X s
 2194 1111 m 28 X s 2194 1153 m 28 X s 2194 1194 m 28 X s 2166 1235 m 56 X s 2194 1277 m 28 X s 2194 1318 m 28 X s 2194 1359 m 28 X s 2166 1401 m 56 X s 2166 243 m 56 X s 2166 1401 m 56 X s 2194 1442 m 28 X s 2194 1483 m 28 X s 1 0 0 c 1 1 1 c 1 0 0
 c 40 26 398 507 bl 1 1 1 c 1 0 0 c 40 26 496 507 bl 1 1 1 c 1 0 0 c 40 26 496 571 bl 1 1 1 c 1 0 0 c 39 26 594 571 bl 1 1 1 c 1 0 0 c 57 38 585 629 bl 1 1 1 c 1 0 0 c 80 52 671 686 bl 1 1 1 c 1 0 0 c 56 37 683 758 bl 1 1 1 c 1 0 0 c 69 45 774 754 bl
 1 1 1 c 1 0 0 c 57 37 780 822 bl 1 1 1 c 1 0 0 c 89 59 861 811 bl 1 1 1 c 1 0 0 c 56 37 878 886 bl 1 1 1 c 1 0 0 c 39 26 984 892 bl 1 1 1 c 1 0 0 c 97 64 955 937 bl 1 1 1 c 1 0 0 c 68 45 1067 1011 bl 1 1 1 c 1 0 0 c 39 27 1179 1084 bl 1 1 1 c 1 0 0
 c 57 37 1170 1143 bl 1 1 1 c 1 0 0 c 68 45 1262 1139 bl 1 1 1 c 1 0 0 c 40 26 1276 1213 bl 1 1 1 c 1 0 0 c 40 26 1471 1341 bl 1 1 1 c black 1 1 1 c black 40 26 301 314 bl 1 1 1 c black 40 26 398 507 bl 1 1 1 c black 40 26 496 507 bl 1 1 1 c black 40
 26 496 571 bl 1 1 1 c black 39 26 594 571 bl 1 1 1 c black 57 38 585 629 bl 1 1 1 c black 80 52 671 686 bl 1 1 1 c black 56 37 683 758 bl 1 1 1 c black 89 59 764 747 bl 1 1 1 c black 57 37 780 822 bl 1 1 1 c black 89 59 861 811 bl 1 1 1 c black 69
 46 871 882 bl 1 1 1 c black 39 26 984 892 bl 1 1 1 c black 97 64 955 937 bl 1 1 1 c black 68 45 1067 1011 bl 1 1 1 c black 69 45 1164 1075 bl 1 1 1 c black 57 37 1170 1143 bl 1 1 1 c black 80 53 1256 1135 bl 1 1 1 c black 40 26 1276 1213 bl 1 1 1 c
 black 40 26 1471 1341 bl 1 1 1 c 0 0 1 c 1 1 1 c 0 0 1 c 56 37 488 501 bl 1 1 1 c 0 0 1 c 56 37 488 565 bl 1 1 1 c 0 0 1 c 56 38 488 629 bl 1 1 1 c 0 0 1 c 80 52 476 686 bl 1 1 1 c 0 0 1 c 89 59 471 747 bl 1 1 1 c 0 0 1 c 98 64 467 809 bl 1 1 1 c 0
 0 1 c 69 46 481 882 bl 1 1 1 c 0 0 1 c 98 64 467 937 bl 1 1 1 c 0 0 1 c 69 45 481 1011 bl 1 1 1 c 0 0 1 c 40 27 496 1084 bl 1 1 1 c 0 0 1 c 89 59 471 1132 bl 1 1 1 c 0 0 1 c 40 26 496 1213 bl 1 1 1 c 0 0 1 c 40 26 496 1341 bl 1 1 1 c black[ 12 12] 0
 sd 9 lw 1 1 1 c black 321 455 m 25 7 d 26 10 d 24 13 d 22 13 d 19 15 d 27 24 d 32 31 d 20 16 d 23 14 d 74 37 d 69 41 d 29 17 d 44 30 d 35 23 d 18 10 d 98 39 d 97 48 d 98 40 d 45 25 d 27 18 d 25 18 d 18 15 d 27 28 d 27 28 d 16 14 d 10 7 d 17 10 d 23
 9 d 58 19 d 34 16 d 63 32 d 71 35 d 27 11 d 72 14 d 14 6 d 11 6 d 14 10 d 18 17 d 26 28 d 24 27 d 16 14 d 38 30 d 20 15 d 18 10 d 18 8 d 3 1 d 9 5 d 10 9 d 25 25 d 8 6 d 7 3 d 6 1 d 7 -2 d 5 -4 d 6 -7 d 5 -9 d 4 -11 d 6 -16 d 3 -14 d 4 -17 d 4 -19 d
 3 -23 d 4 -26 d 3 -30 d 4 -34 d 4 -43 d 4 -48 d 4 -58 d 6 -79 d 15 -219 d 5 -66 d 4 -54 d 4 -42 d 3 -34 d 3 -27 d 4 -28 d 3 -24 d 4 -23 d 4 -17 d 3 -15 d 2 -5 d 6 -19 d 6 -16 d 6 -14 d 7 -11 d 6 -9 d 7 -6 d 6 -3 d 7 -1 d 7 3 d 6 4 d 7 9 d 7 10 d 6
 15 d 6 16 d 8 22 d s[  ] 0 sd 1 1 1 c black 764 1515 m -7 Y s 764 1508 m 7 -147 d 5 -115 d 7 -115 d 6 -105 d 6 -104 d 6 -82 d 6 -78 d 1 -13 d 5 -53 d 5 -42 d 5 -32 d 5 -24 d 6 -16 d 6 -8 d 6 1 d 7 10 d 9 20 d 14 46 d 12 37 d 8 18 d 7 6 d 3 X 15 -3 d
 36 10 d 15 -4 d 11 -11 d 9 -15 d 10 -24 d 1 -5 d 13 -45 d 13 -54 d 11 -53 d 13 -70 d 13 -79 d 13 -87 d 5 -41 d s 1385 231 m 7 33 d s 1392 264 m 2 8 d 4 24 d 5 31 d 5 36 d 6 41 d 6 50 d 7 66 d 10 97 d 15 136 d 7 67 d 6 53 d 5 42 d 6 37 d 5 32 d 4 24
 d 4 21 d 2 9 d 7 29 d 8 25 d 7 22 d 7 18 d 7 15 d 7 11 d 7 7 d 7 4 d 6 X 7 -3 d 6 -7 d 6 -10 d 6 -13 d 6 -16 d 4 -13 d 3 -14 d 3 -17 d 4 -22 d 4 -27 d 4 -36 d 4 -42 d 5 -50 d 6 -65 d 25 -289 d 5 -48 d 4 -40 d 5 -38 d 4 -28 d 3 -21 d 3 -18 d 3 -14 d
 4 -11 d 3 -6 d 3 -3 d 2 -1 d 3 4 d 3 6 d 3 13 d 4 14 d 3 19 d 3 24 d 3 28 d 4 37 d 5 42 d 4 50 d 5 62 d 7 87 d 13 172 d 5 71 d 5 58 d 4 45 d 4 36 d 3 34 d 4 28 d 3 24 d 3 20 d 3 15 d 4 13 d 3 10 d 4 8 d 5 4 d 4 X 5 -3 d 5 -8 d 5 -11 d 6 -17 d 7 -25
 d 10 -37 d s 1838 1140 m 18 -73 d 8 -27 d 6 -17 d 5 -11 d 5 -9 d 1 -1 d 6 -5 d 7 -2 d 7 2 d 10 7 d 25 26 d 10 6 d 7 1 d 6 -2 d 6 -6 d 5 -8 d 5 -11 d 4 -8 d 4 -16 d 5 -21 d 5 -26 d 6 -32 d 6 -38 d 7 -50 d 11 -80 d 16 -123 d 8 -60 d 6 -39 d 6 -33 d 5
 -30 d 5 -20 d 4 -17 d 3 -8 d 7 -20 d 8 -17 d 7 -14 d 8 -10 d 7 -7 d 8 -4 d 8 X 7 3 d 8 7 d 7 10 d 8 15 d 7 16 d 8 21 d s 1 1 1 c black 321 527 m 9 113 d 10 106 d 9 98 d 11 97 d 9 75 d 9 71 d 10 61 d 10 56 d 9 41 d 10 34 d 1 5 d 5 9 d 5 -1 d 6 -10 d
 6 -21 d 7 -38 d 27 -165 d 6 -31 d 6 -19 d 4 -10 d 5 -2 d 5 7 d 4 14 d 4 23 d 4 28 d 4 40 d 6 67 d 5 74 d 6 82 d 5 90 d 5 94 d s 790 1515 m -6 Y s 790 1509 m 7 -154 d 6 -137 d 5 -94 d 6 -86 d 5 -72 d 6 -58 d 5 -46 d 7 -34 d 7 -22 d 7 -8 d 10 10 d 16
 40 d 16 41 d 9 11 d 4 X 13 2 d 15 17 d 24 47 d 23 45 d 14 14 d 8 2 d 25 8 d 19 7 d 13 -8 d 11 -20 d 10 -33 d 8 -39 d 8 -54 d 4 -29 d 11 -94 d 10 -110 d 12 -138 d 10 -131 d 11 -155 d s 1325 1515 m 2 -19 d s 1327 1496 m 7 -102 d 8 -92 d 8 -84 d 8 -75
 d 8 -67 d 8 -57 d 7 -48 d 8 -40 d 5 -19 d 5 -17 d 6 -9 d 6 -1 d 6 9 d 8 19 d 8 31 d 13 59 d 21 105 d 8 37 d 7 24 d 7 17 d 2 2 d 25 33 d 16 15 d 14 5 d 14 -5 d 11 -11 d 10 -18 d 8 -19 d 6 -22 d 7 -33 d 8 -50 d 10 -72 d 30 -237 d 8 -50 d 7 -36 d 7 -27
 d 5 -13 d 6 -5 d 3 1 d 8 11 d 9 20 d 8 28 d 8 36 d 8 45 d 9 57 d 7 58 d 8 69 d 7 76 d 9 94 d 7 88 d 7 99 d 3 36 d 7 111 d 2 43 d s 2029 1515 m 1 -32 d s 2030 1483 m 6 -161 d 5 -152 d 5 -143 d 5 -114 d 5 -125 d 6 -116 d 5 -105 d 5 -94 d 4 -64 d 5 -82
 d 6 -70 d 2 -26 d s 2161 231 m 1 11 d s 2162 242 m 5 65 d 5 79 d 2 23 d s 0 0 1 c[ 12 12] 0 sd 1 1 1 c black 0 0 1 c 321 409 m 1853 X s[  ] 0 sd 1 1 1 c black 0 0 1 c 321 409 m 1853 X s 1 1 1 c black 0 0 1 c 321 409 m 1853 X s 1 0 0 c[ 12 12] 0 sd 1
 1 1 c black 1 0 0 c 321 520 m 97 32 d 91 29 d 7 3 d 25 12 d 72 39 d 94 45 d 4 2 d 20 14 d 38 30 d 24 18 d 15 10 d 98 38 d 29 15 d 62 35 d 6 4 d 60 29 d 38 16 d 26 10 d 41 13 d 17 8 d 13 9 d 14 11 d 14 14 d 27 32 d 21 23 d 13 12 d 9 7 d 98 35 d 30 17
 d 67 41 d 33 23 d 34 24 d 18 10 d 13 6 d 14 4 d 18 1 d 38 X 13 2 d 14 5 d 13 9 d 17 15 d 28 29 d 25 26 d 15 13 d 42 33 d 23 16 d 18 10 d 14 5 d 9 5 d 10 9 d 25 25 d 8 6 d 7 3 d 6 1 d 7 -2 d 5 -4 d 6 -7 d 5 -9 d 4 -11 d 6 -16 d 3 -14 d 4 -17 d 4 -19
 d 3 -23 d 4 -26 d 3 -30 d 4 -34 d 4 -43 d 4 -48 d 4 -58 d 6 -79 d 15 -219 d 5 -66 d 4 -54 d 4 -42 d 3 -34 d 3 -27 d 4 -28 d 3 -24 d 4 -23 d 4 -17 d 3 -15 d 2 -5 d 6 -19 d 6 -16 d 6 -14 d 7 -11 d 6 -9 d 7 -6 d 6 -3 d 7 -1 d 7 3 d 6 4 d 7 9 d 7 10 d 6
 15 d 6 16 d 8 22 d s[  ] 0 sd 6 lw 1 1 1 c black 1 0 0 c 329 231 m 4 27 d s 333 258 m 5 28 d 4 26 d 4 23 d 4 22 d 4 20 d 4 18 d 4 17 d 4 15 d 3 15 d 4 13 d 4 12 d 4 11 d 4 10 d 4 8 d 5 8 d 4 5 d 4 4 d 4 3 d 4 2 d 4 X 4 -2 d 4 -3 d 4 -4 d 5 -7 d s
 431 502 m 4 -8 d 5 -9 d 4 -10 d 4 -12 d 4 -12 d 4 -14 d 4 -15 d 3 -16 d 4 -17 d 4 -19 d 4 -20 d 4 -22 d 4 -23 d 4 -25 d 4 -29 d 3 -20 d s 845 1515 m 3 -56 d s 848 1459 m 9 -136 d 8 -111 d 8 -114 d 8 -107 d 9 -106 d 7 -89 d 9 -95 d 8 -79 d 8 -74 d 8
 -69 d 8 -63 d 8 -58 d 9 -56 d 7 -41 d 7 -30 d s 1104 231 m 30 77 d s 1134 308 m 29 85 d 31 99 d 4 17 d 6 25 d 6 38 d 7 59 d 10 93 d 16 161 d 8 73 d 7 50 d 6 30 d 4 16 d 5 5 d 4 -5 d 4 -15 d 4 -23 d 4 -33 d 4 -39 d 3 -47 d 5 -85 d 5 -93 d 5 -100 d 5
 -109 d 5 -116 d 5 -125 d 1 -38 d s 1455 231 m 2 Y s 1455 233 m 5 169 d 5 135 d 6 160 d 6 130 d 5 118 d 5 105 d 4 75 d 4 68 d 5 65 d 5 50 d 4 39 d 5 27 d 5 18 d 5 7 d 5 -3 d 7 -14 d 6 -29 d 8 -47 d 39 -266 d 10 -64 d 11 -75 d 12 -93 d 10 -89 d 11
 -108 d 10 -119 d s 1653 492 m 12 -136 d 9 -125 d s 1695 231 m 1 17 d s 1696 248 m 4 82 d 5 77 d 5 73 d 4 70 d 5 66 d 4 63 d 5 61 d 5 58 d 4 56 d 5 53 d 5 50 d 6 52 d 4 41 d 5 40 d 5 36 d 6 35 d 4 27 d 5 25 d 2 6 d 3 14 d 4 11 d 3 8 d 87 -250 d 6 -5
 d 7 -2 d 7 2 d 10 7 d 20 22 d 11 9 d 9 3 d 6 -1 d 6 -5 d 5 -7 d 5 -9 d 6 -14 d 5 -18 d 5 -22 d 5 -27 d 6 -32 d 6 -40 d 7 -53 d 9 -61 d 19 -145 d 8 -57 d 6 -38 d 5 -32 d 6 -27 d 4 -19 d 4 -17 d 2 -5 d 7 -20 d 7 -17 d 8 -14 d 7 -11 d 8 -7 d s 2113 340
 m 7 -4 d 8 -1 d 7 3 d 8 7 d 7 10 d 8 15 d 7 16 d 9 23 d s 9 lw 1 1 1 c black 1 0 0 c 361 1515 m 3 -75 d s 364 1440 m 5 -125 d 6 -117 d 6 -108 d 5 -103 d 5 -80 d 7 -93 d 5 -73 d 6 -64 d 5 -54 d 4 -36 d 6 -37 d 5 -27 d 5 -19 d 5 -11 d 5 -2 d 5 6 d 6
 14 d 6 24 d 6 33 d 6 44 d 7 55 d 6 66 d 8 78 d 8 98 d 8 108 d 6 91 d 6 98 d 7 105 d 6 115 d s 535 1426 m 5 89 d s 865 1515 m 2 -33 d s 867 1482 m 4 -96 d 5 -89 d 4 -83 d 4 -64 d 5 -74 d 5 -58 d 4 -50 d 5 -42 d 3 -27 d 5 -33 d 5 -23 d 4 -15 d 5 -6 d
 4 1 d s 929 823 m 5 8 d 4 15 d 4 21 d 5 29 d 4 35 d 5 43 d 4 51 d 4 58 d 5 67 d 5 74 d 4 83 d 4 77 d 5 95 d 1 36 d s 1036 1515 m -3 Y s 1036 1512 m 10 -101 d 11 -98 d 10 -88 d 12 -84 d 10 -64 d 10 -59 d 2 -10 d 8 -35 d 9 -29 d 9 -20 d 12 -14 d 11 -3
 d 16 5 d 29 18 d 3 1 d 7 7 d 7 17 d 8 34 d 23 117 d 8 35 d 7 23 d 6 12 d 6 4 d 6 -8 d 5 -16 d 5 -25 d 4 -31 d 5 -40 d 1 -15 d 6 -69 d 6 -78 d 6 -86 d 5 -94 d 6 -104 d 6 -114 d 6 -125 d 6 -136 d 1 -8 d s 1441 231 m 6 148 d s 1447 379 m 7 157 d 8 185
 d 8 148 d 8 132 d 7 116 d 6 81 d 6 73 d 7 63 d 6 52 d 7 40 d 8 28 d 8 16 d 9 1 d 10 -14 d 13 -33 d 24 -88 d 6 -31 d 7 -54 d 8 -76 d 10 -110 d 33 -398 d 8 -78 d 8 -62 d 6 -33 d 6 -19 d 5 -5 d 8 8 d 8 22 d 8 38 d 9 54 d 10 79 d 8 81 d 10 108 d 11 130
 d 11 153 d 12 184 d 3 34 d 9 154 d s 2029 1515 m 1 -32 d s 2030 1483 m 6 -161 d 5 -152 d 5 -143 d 5 -114 d 5 -125 d 6 -116 d 5 -105 d 5 -94 d 4 -64 d 5 -82 d 6 -70 d 2 -26 d s 2161 231 m 1 11 d s 2162 242 m 5 65 d 5 79 d 2 23 d s black 1247 231 m
 1284 Y s
 gr  gr showpage
end
%%EOF
