%!PS-Adobe-2.0 EPSF-2.0
%%BoundingBox:  0 0 567 384
%%Title: plots/iter_0/iterationsToys_ws_mtx_mjj/ccBelts_4_iter0.eps: 
%%Creator: ROOT Version 6.16/00
%%CreationDate: Fri Nov 13 20:34:07 2020
%%DocumentNeededResources: ProcSet (FontSetInit)
%%EndComments
%%BeginProlog
80 dict begin
/s {stroke} def /l {lineto} def /m {moveto} def /t {translate} def
/r {rotate} def /rl {roll}  def /R {repeat} def
/d {rlineto} def /rm {rmoveto} def /gr {grestore} def /f {eofill} def
/c {setrgbcolor} def /black {0 setgray} def /sd {setdash} def
/cl {closepath} def /sf {scalefont setfont} def /lw {setlinewidth} def
/box {m dup 0 exch d exch 0 d 0 exch neg d cl} def
/NC{systemdict begin initclip end}def/C{NC box clip newpath}def
/bl {box s} def /bf {gsave box gsave f grestore 1 lw [] 0 sd s grestore} def /Y { 0 exch d} def /X { 0 d} def 
/K {{pop pop 0 moveto} exch kshow} bind def
/ita {/ang 15 def gsave [1 0 ang dup sin exch cos div 1 0 0] concat} def 
/mp {newpath /y exch def /x exch def} def
/side {[w .77 mul w .23 mul] .385 w mul sd w 0 l currentpoint t -144 r} def
/mr {mp x y w2 0 360 arc} def /m24 {mr s} def /m20 {mr f} def
/mb {mp x y w2 add m w2 neg 0 d 0 w neg d w 0 d 0 w d cl} def
/mt {mp x y w2 add m w2 neg w neg d w 0 d cl} def
/w4 {w 4 div} def
/w6 {w 6 div} def
/w8 {w 8 div} def
/m21 {mb f} def /m25 {mb s} def /m22 {mt f} def /m26{mt s} def
/m23 {mp x y w2 sub m w2 w d w neg 0 d cl f} def
/m27 {mp x y w2 add m w3 neg w2 neg d w3 w2 neg d w3 w2 d cl s} def
/m28 {mp x w2 sub y w2 sub w3 add m w3 0 d  0 w3 neg d w3 0 d 0 w3 d w3 0 d  0 w3 d w3 neg 0 d 0 w3 d w3 neg 0 d 0 w3 neg d w3 neg 0 d cl s } def
/m29 {mp gsave x w2 sub y w2 add w3 sub m currentpoint t 4 {side} repeat cl fill gr} def
/m30 {mp gsave x w2 sub y w2 add w3 sub m currentpoint t 4 {side} repeat cl s gr} def
/m31 {mp x y w2 sub m 0 w d x w2 sub y m w 0 d x w2 sub y w2 add m w w neg d x w2 sub y w2 sub m w w d s} def
/m32 {mp x y w2 sub m w2 w d w neg 0 d cl s} def
/m33 {mp x y w2 add m w3 neg w2 neg d w3 w2 neg d w3 w2 d cl f} def
/m34 {mp x w2 sub y w2 sub w3 add m w3 0 d  0 w3 neg d w3 0 d 0 w3 d w3 0 d  0 w3 d w3 neg 0 d 0 w3 d w3 neg 0 d 0 w3 neg d w3 neg 0 d cl f } def
/m35 {mp x y w2 add m w2 neg w2 neg d w2 w2 neg d w2 w2 d w2 neg w2 d x y w2 sub m 0 w d x w2 sub y m w 0 d s} def
/m36 {mb x w2 sub y w2 add m w w neg d x w2 sub y w2 sub m w w d s} def
/m37 {mp x y m w4 neg w2 d w4 neg w2 neg d w2 0 d  w4 neg w2 neg d w2 0 d w4 neg w2 d w2 0 d w4 neg w2 d w4 neg w2 neg d cl s} def
/m38 {mp x w4 sub y w2 add m w4 neg w4 neg d 0 w2 neg d w4 w4 neg d w2 0 d w4 w4 d 0 w2 d w4 neg w4 d w2 neg 0 d x y w2 sub m 0 w d x w2 sub y m w 0 d cl s} def
/m39 {mp x y m w4 neg w2 d w4 neg w2 neg d w2 0 d  w4 neg w2 neg d w2 0 d w4 neg w2 d w2 0 d w4 neg w2 d w4 neg w2 neg d cl f} def
/m40 {mp x y m w4 w2 d w4 w4 neg d w2 neg w4 neg d w2 w4 neg d w4 neg w4 neg d w4 neg w2 d w4 neg w2 neg d w4 neg w4 d w2 w4 d w2 neg w4 d w4 w4 d w4 w2 neg d cl s} def
/m41 {mp x y m w4 w2 d w4 w4 neg d w2 neg w4 neg d w2 w4 neg d w4 neg w4 neg d w4 neg w2 d w4 neg w2 neg d w4 neg w4 d w2 w4 d w2 neg w4 d w4 w4 d w4 w2 neg d cl f} def
/m42 {mp x y w2 add m w8 neg w2 -3 4 div mul d w2 -3 4 div mul w8 neg d w2 3 4 div mul w8 neg d w8 w2 -3 4 div mul d w8 w2 3 4 div mul d w2 3 4 div mul w8 d w2 -3 4 div mul w8 d w8 neg w2 3 4 div mul d cl s} def
/m43 {mp x y w2 add m w8 neg w2 -3 4 div mul d w2 -3 4 div mul w8 neg d w2 3 4 div mul w8 neg d w8 w2 -3 4 div mul d w8 w2 3 4 div mul d w2 3 4 div mul w8 d w2 -3 4 div mul w8 d w8 neg w2 3 4 div mul d cl f} def
/m44 {mp x y m w6 neg w2 d w2 2 3 div mul 0 d w6 neg w2 neg d w2 w6 d 0 w2 -2 3 div mul d w2 neg w6 d w6 w2 neg d w2 -2 3 div mul 0 d w6 w2 d w2 neg w6 neg d 0 w2 2 3 div mul d w2 w6 neg d cl s} def
/m45 {mp x y m w6 neg w2 d w2 2 3 div mul 0 d w6 neg w2 neg d w2 w6 d 0 w2 -2 3 div mul d w2 neg w6 d w6 w2 neg d w2 -2 3 div mul 0 d w6 w2 d w2 neg w6 neg d 0 w2 2 3 div mul d w2 w6 neg d cl f} def
/m46 {mp x y w4 add m w4 neg w4 d w4 neg w4 neg d  w4 w4 neg d w4 neg w4 neg d w4 w4 neg d w4 w4 d w4 w4 neg d w4 w4 d w4 neg w4 d w4 w4 d w4 neg w4 d w4 neg w4 neg d cl s} def
/m47 {mp x y w4 add m w4 neg w4 d w4 neg w4 neg d w4 w4 neg d w4 neg w4 neg d  w4 w4 neg d w4 w4 d w4 w4 neg d w4 w4 d w4 neg w4 d w4 w4 d w4 neg w4 d w4 neg w4 neg d cl f} def
/m48 {mp x y w4 add m w4 neg w4 d w4 neg w4 neg d w4 w4 neg d  w4 neg w4 neg d w4 w4 neg d w4 w4 d w4 w4 neg d w4 w4 d w4 neg w4 d w4 w4 d w4 neg w4 d w4 neg w4 neg d  w4 w4 neg d w4 neg w4 neg d w4 neg w4 d w4 w4 d cl f} def
/m49 {mp x w2 sub w3 add y w2 sub w3 add m  0 w3 neg d w3 0 d 0 w3 d w3 0 d 0 w3 d w3 neg 0 d 0 w3 d w3 neg 0 d 0 w3 neg d w3 neg 0 d 0 w3 neg d w3 0 d 0 w3 d w3 0 d 0 w3 neg d w3 neg 0 d cl f } def
/m2 {mp x y w2 sub m 0 w d x w2 sub y m w 0 d s} def
/m5 {mp x w2 sub y w2 sub m w w d x w2 sub y w2 add m w w neg d s} def
%%IncludeResource: ProcSet (FontSetInit)
%%IncludeResource: font Times-Roman
%%IncludeResource: font Times-Italic
%%IncludeResource: font Times-Bold
%%IncludeResource: font Times-BoldItalic
%%IncludeResource: font Helvetica
%%IncludeResource: font Helvetica-Oblique
%%IncludeResource: font Helvetica-Bold
%%IncludeResource: font Helvetica-BoldOblique
%%IncludeResource: font Courier
%%IncludeResource: font Courier-Oblique
%%IncludeResource: font Courier-Bold
%%IncludeResource: font Courier-BoldOblique
%%IncludeResource: font Symbol
%%IncludeResource: font ZapfDingbats
/reEncode {exch findfont dup length dict begin {1 index /FID eq  {pop pop} {def} ifelse } forall /Encoding exch def currentdict end dup /FontName get exch definefont pop } def [/Times-Bold /Times-Italic /Times-BoldItalic /Helvetica /Helvetica-Oblique
 /Helvetica-Bold /Helvetica-BoldOblique /Courier /Courier-Oblique /Courier-Bold /Courier-BoldOblique /Times-Roman /AvantGarde-Book /AvantGarde-BookOblique /AvantGarde-Demi /AvantGarde-DemiOblique /Bookman-Demi /Bookman-DemiItalic /Bookman-Light
 /Bookman-LightItalic /Helvetica-Narrow /Helvetica-Narrow-Bold /Helvetica-Narrow-BoldOblique /Helvetica-Narrow-Oblique /NewCenturySchlbk-Roman /NewCenturySchlbk-Bold /NewCenturySchlbk-BoldItalic /NewCenturySchlbk-Italic /Palatino-Bold
 /Palatino-BoldItalic /Palatino-Italic /Palatino-Roman ] {ISOLatin1Encoding reEncode } forall
%%EndProlog
%%BeginSetup
%%EndSetup
newpath  gsave  .25 .25 scale  gsave  0 0 t black[  ] 0 sd 3 lw 1 1 1 c 2268 1538 0 0 bf black 1 1 1 c 1950 1284 272 231 bf black 1950 1284 272 231 bl 1 1 1 c 6 lw black 1 1 1 c 272 231 m 1950 X s black 3 lw 272 231 m 1950 X s 651 270 m -39 Y s 737
 251 m -20 Y s 822 251 m -20 Y s 908 251 m -20 Y s 994 251 m -20 Y s 1079 270 m -39 Y s 1165 251 m -20 Y s 1251 251 m -20 Y s 1336 251 m -20 Y s 1422 251 m -20 Y s 1508 270 m -39 Y s 1593 251 m -20 Y s 1679 251 m -20 Y s 1765 251 m -20 Y s 1850 251 m
 -20 Y s 1936 270 m -39 Y s 651 270 m -39 Y s 565 251 m -20 Y s 480 251 m -20 Y s 394 251 m -20 Y s 308 251 m -20 Y s 1936 270 m -39 Y s 2022 251 m -20 Y s 2107 251 m -20 Y s 2193 251 m -20 Y s
 gsave  2268 1538 0 0 C 609.286 172.685 t 0 r /Helvetica findfont 61.9061 sf 0 0 m (0.1) show NC gr 
 gsave  2268 1538 0 0 C 1036.11 172.685 t 0 r /Helvetica findfont 61.9061 sf 0 0 m (0.2) show NC gr 
 gsave  2268 1538 0 0 C 1462.94 172.685 t 0 r /Helvetica findfont 61.9061 sf 0 0 m (0.3) show NC gr 
 gsave  2268 1538 0 0 C 1893.02 172.685 t 0 r /Helvetica findfont 61.9061 sf 0 0 m (0.4) show NC gr 
 gsave  2268 1538 0 0 C 2101.55 78.1971 t 0 r /Helvetica findfont 74.9389 sf 0 0 m ( [fb]) show NC gr 
 gsave  2268 1538 0 0 C 1987.51 52.1314 t 0 r /Helvetica findfont 52.1314 sf 0 0 m (fit) show NC gr 
 gsave  2268 1538 0 0 C 1987.51 110.779 t 0 r /Helvetica findfont 52.1314 sf 0 0 m (bin,4) show NC gr 
 gsave  2268 1538 0 0 C 1941.9 78.1971 t 0 r /Symbol findfont 74.9389 sf 0 0 m (s) show NC gr  272 1515 m 1950 X s 651 1475 m 40 Y s 737 1495 m 20 Y s 822 1495 m 20 Y s 908 1495 m 20 Y s 994 1495 m 20 Y s 1079 1475 m 40 Y s 1165 1495 m 20 Y s 1251
 1495 m 20 Y s 1336 1495 m 20 Y s 1422 1495 m 20 Y s 1508 1475 m 40 Y s 1593 1495 m 20 Y s 1679 1495 m 20 Y s 1765 1495 m 20 Y s 1850 1495 m 20 Y s 1936 1475 m 40 Y s 651 1475 m 40 Y s 565 1495 m 20 Y s 480 1495 m 20 Y s 394 1495 m 20 Y s 308 1495 m
 20 Y s 1936 1475 m 40 Y s 2022 1495 m 20 Y s 2107 1495 m 20 Y s 2193 1495 m 20 Y s 272 231 m 1284 Y s 329 339 m -57 X s 301 367 m -29 X s 301 396 m -29 X s 301 424 m -29 X s 301 452 m -29 X s 329 480 m -57 X s 301 508 m -29 X s 301 537 m -29 X s 301
 565 m -29 X s 301 593 m -29 X s 329 621 m -57 X s 301 649 m -29 X s 301 678 m -29 X s 301 706 m -29 X s 301 734 m -29 X s 329 762 m -57 X s 301 790 m -29 X s 301 819 m -29 X s 301 847 m -29 X s 301 875 m -29 X s 329 903 m -57 X s 301 931 m -29 X s
 301 960 m -29 X s 301 988 m -29 X s 301 1016 m -29 X s 329 1044 m -57 X s 301 1072 m -29 X s 301 1101 m -29 X s 301 1129 m -29 X s 301 1157 m -29 X s 329 1185 m -57 X s 301 1213 m -29 X s 301 1242 m -29 X s 301 1270 m -29 X s 301 1298 m -29 X s 329
 1326 m -57 X s 301 1354 m -29 X s 301 1383 m -29 X s 301 1411 m -29 X s 301 1439 m -29 X s 329 1467 m -57 X s 329 339 m -57 X s 301 311 m -29 X s 301 283 m -29 X s 301 255 m -29 X s 329 1467 m -57 X s 301 1495 m -29 X s
 gsave  2268 1538 0 0 C 140.103 319.305 t 0 r /Helvetica findfont 61.9061 sf 0 0 m (0.05) show NC gr 
 gsave  2268 1538 0 0 C 185.718 459.408 t 0 r /Helvetica findfont 61.9061 sf 0 0 m (0.1) show NC gr 
 gsave  2268 1538 0 0 C 140.103 599.511 t 0 r /Helvetica findfont 61.9061 sf 0 0 m (0.15) show NC gr 
 gsave  2268 1538 0 0 C 175.944 739.614 t 0 r /Helvetica findfont 61.9061 sf 0 0 m (0.2) show NC gr 
 gsave  2268 1538 0 0 C 140.103 882.976 t 0 r /Helvetica findfont 61.9061 sf 0 0 m (0.25) show NC gr 
 gsave  2268 1538 0 0 C 175.944 1023.08 t 0 r /Helvetica findfont 61.9061 sf 0 0 m (0.3) show NC gr 
 gsave  2268 1538 0 0 C 140.103 1163.18 t 0 r /Helvetica findfont 61.9061 sf 0 0 m (0.35) show NC gr 
 gsave  2268 1538 0 0 C 175.944 1306.54 t 0 r /Helvetica findfont 61.9061 sf 0 0 m (0.4) show NC gr 
 gsave  2268 1538 0 0 C 140.103 1446.65 t 0 r /Helvetica findfont 61.9061 sf 0 0 m (0.45) show NC gr 
 gsave  2268 1538 0 0 C 120.554 1394.52 t 90 r /Helvetica findfont 74.9389 sf 0 0 m ( [fb]) show NC gr 
 gsave  2268 1538 0 0 C 146.62 1280.48 t 90 r /Helvetica findfont 52.1314 sf 0 0 m (true) show NC gr 
 gsave  2268 1538 0 0 C 87.9718 1280.48 t 90 r /Helvetica findfont 52.1314 sf 0 0 m (bin,4) show NC gr 
 gsave  2268 1538 0 0 C 120.554 1234.86 t 90 r /Symbol findfont 74.9389 sf 0 0 m (s) show NC gr  2222 231 m 1284 Y s 2166 339 m 56 X s 2194 367 m 28 X s 2194 396 m 28 X s 2194 424 m 28 X s 2194 452 m 28 X s 2166 480 m 56 X s 2194 508 m 28 X s 2194
 537 m 28 X s 2194 565 m 28 X s 2194 593 m 28 X s 2166 621 m 56 X s 2194 649 m 28 X s 2194 678 m 28 X s 2194 706 m 28 X s 2194 734 m 28 X s 2166 762 m 56 X s 2194 790 m 28 X s 2194 819 m 28 X s 2194 847 m 28 X s 2194 875 m 28 X s 2166 903 m 56 X s
 2194 931 m 28 X s 2194 960 m 28 X s 2194 988 m 28 X s 2194 1016 m 28 X s 2166 1044 m 56 X s 2194 1072 m 28 X s 2194 1101 m 28 X s 2194 1129 m 28 X s 2194 1157 m 28 X s 2166 1185 m 56 X s 2194 1213 m 28 X s 2194 1242 m 28 X s 2194 1270 m 28 X s 2194
 1298 m 28 X s 2166 1326 m 56 X s 2194 1354 m 28 X s 2194 1383 m 28 X s 2194 1411 m 28 X s 2194 1439 m 28 X s 2166 1467 m 56 X s 2166 339 m 56 X s 2194 311 m 28 X s 2194 283 m 28 X s 2194 255 m 28 X s 2166 1467 m 56 X s 2194 1495 m 28 X s 1 0 0 c 1 1
 1 c 1 0 0 c 37 25 302 443 bl 1 1 1 c 1 0 0 c 83 55 377 492 bl 1 1 1 c 1 0 0 c 37 24 400 572 bl 1 1 1 c 1 0 0 c 37 24 497 572 bl 1 1 1 c 1 0 0 c 52 34 587 631 bl 1 1 1 c 1 0 0 c 36 24 693 700 bl 1 1 1 c 1 0 0 c 74 49 674 752 bl 1 1 1 c 1 0 0 c 97 64
 760 809 bl 1 1 1 c 1 0 0 c 82 54 865 878 bl 1 1 1 c 1 0 0 c 36 24 888 957 bl 1 1 1 c 1 0 0 c 37 24 985 957 bl 1 1 1 c 1 0 0 c 37 24 985 1021 bl 1 1 1 c 1 0 0 c 74 49 1064 1009 bl 1 1 1 c 1 0 0 c 37 24 1180 1021 bl 1 1 1 c 1 0 0 c 53 35 1172 1080 bl
 1 1 1 c 1 0 0 c 36 25 1278 1085 bl 1 1 1 c 1 0 0 c 36 24 1278 1214 bl 1 1 1 c 1 0 0 c 37 24 1375 1214 bl 1 1 1 c 1 0 0 c 36 24 1473 1278 bl 1 1 1 c 1 0 0 c 37 24 1570 1342 bl 1 1 1 c black 1 1 1 c black 37 25 302 443 bl 1 1 1 c black 83 55 377 492
 bl 1 1 1 c black 37 24 400 572 bl 1 1 1 c black 37 24 497 572 bl 1 1 1 c black 64 42 581 627 bl 1 1 1 c black 37 24 595 700 bl 1 1 1 c black 36 24 693 700 bl 1 1 1 c black 74 49 674 752 bl 1 1 1 c black 97 64 760 809 bl 1 1 1 c black 90 60 861 875
 bl 1 1 1 c black 36 24 888 957 bl 1 1 1 c black 53 34 977 952 bl 1 1 1 c black 36 24 1083 957 bl 1 1 1 c black 37 24 985 1021 bl 1 1 1 c black 82 54 1060 1006 bl 1 1 1 c black 37 24 1180 1021 bl 1 1 1 c black 73 49 1162 1073 bl 1 1 1 c black 36 25
 1278 1085 bl 1 1 1 c black 36 24 1278 1214 bl 1 1 1 c black 37 24 1375 1214 bl 1 1 1 c black 36 24 1473 1278 bl 1 1 1 c black 37 24 1570 1342 bl 1 1 1 c 0 0 1 c 1 1 1 c black[ 12 12] 0 sd 9 lw 1 1 1 c black 321 509 m 46 7 d 51 12 d 37 11 d 53 19 d 8
 2 d 97 24 d 41 18 d 23 13 d 22 15 d 12 10 d 16 16 d 23 27 d 35 44 d 16 18 d 7 6 d 18 15 d 25 15 d 55 28 d 97 46 d 98 54 d 79 42 d 18 9 d 98 38 d 32 18 d 56 34 d 10 5 d 97 42 d 28 20 d 38 31 d 32 28 d 15 16 d 31 35 d 24 26 d 13 12 d 14 9 d 14 5 d 15
 1 d 64 -7 d 5 1 d 18 6 d 27 14 d 42 24 d 10 4 d 7 5 d 9 10 d 13 20 d 16 27 d 8 11 d 7 7 d 6 3 d 6 X 5 -3 d 5 -7 d 6 -9 d 4 -12 d 5 -15 d 1 -5 d 6 -28 d 6 -32 d 6 -34 d 6 -37 d 6 -39 d 5 -41 d 5 -44 d 5 -47 d 5 -49 d 5 -52 d 5 -56 d 4 -59 d 5 -62 d 4
 -64 d 5 -72 d 3 -63 d 4 -71 d 3 -71 d 3 -78 d 3 -69 d 2 -55 d s[  ] 0 sd 1 1 1 c black 321 479 m 55 7 d 42 2 d 98 -5 d 6 2 d 6 9 d 9 17 d 23 62 d 8 17 d 7 10 d 6 2 d 5 -2 d 4 -5 d 5 -11 d 4 -15 d 5 -21 d 4 -22 d 4 -27 d 1 -14 d 6 -48 d 5 -51 d 5 -54
 d 5 -59 d 4 -42 d s 871 1515 m 3 -68 d s 874 1447 m 8 -151 d 8 -150 d 7 -116 d 7 -109 d 2 -24 d 5 -64 d 6 -52 d 6 -39 d 6 -29 d 6 -17 d 8 -5 d 10 12 d 16 40 d 13 34 d 10 11 d 7 -4 d 4 -10 d 30 -72 d 17 -45 d 13 -47 d 12 -59 d 9 -58 d 9 -64 d 8 -72 d
 11 -115 d 1 -11 d s 1283 231 m 6 72 d s 1289 303 m 7 79 d 9 95 d 10 88 d 9 80 d 9 71 d 9 64 d 8 47 d 9 48 d 9 40 d 9 32 d 9 22 d 8 14 d 20 28 d 12 8 d 8 -1 d 8 -10 d 7 -17 d 7 -23 d 5 -26 d 6 -35 d 6 -42 d 6 -53 d 5 -51 d 5 -60 d 2 -30 d 6 -83 d 6
 -89 d 6 -97 d 5 -103 d 4 -68 d s 1824 231 m 5 126 d s 1829 357 m 5 124 d 6 118 d 5 111 d 5 110 d 5 87 d 5 92 d 6 84 d 5 78 d 5 67 d 5 59 d 4 44 d 5 43 d 5 33 d 5 26 d 4 19 d 5 13 d 5 7 d 6 X 6 -7 d 6 -16 d 8 -26 d 7 -34 d 11 -55 d 21 -121 d 8 -48 d
 8 -56 d 8 -63 d 9 -71 d s 2012 975 m 8 -78 d 9 -87 d 7 -80 d 9 -110 d 9 -106 d 8 -111 d 8 -116 d 4 -56 d s 1 1 1 c black 321 532 m 36 3 d 37 15 d 24 19 d 28 32 d 52 80 d 18 19 d 24 11 d 67 12 d 6 5 d 7 -2 d 8 -19 d 9 -40 d 23 -109 d 8 -23 d 6 -7 d 6
 6 d 5 15 d 5 30 d 5 40 d 4 52 d 4 60 d 5 70 d 3 68 d 6 127 d 5 137 d 6 149 d 5 159 d 2 74 d s 905 1515 m 1 -10 d s 906 1505 m 5 -103 d 6 -89 d 5 -78 d 5 -69 d 6 -60 d 6 -52 d 7 -43 d 7 -33 d 8 -24 d 9 -14 d 12 -3 d 21 10 d 10 8 d 11 20 d 10 33 d 10
 46 d 9 50 d 11 77 d 10 82 d 10 93 d 10 104 d s 1094 1460 m 5 55 d s 1103 1515 m 2 -42 d s 1105 1473 m 5 -77 d 4 -70 d 5 -64 d 4 -59 d 4 -53 d 4 -49 d 4 -46 d 4 -41 d 4 -38 d 4 -35 d 4 -33 d 4 -29 d 4 -27 d 4 -24 d 4 -21 d 4 -17 d 4 -15 d 4 -9 d 4 -9
 d 4 -3 d 5 -1 d 4 3 d 2 4 d 5 8 d 4 12 d 4 17 d s 1211 797 m 5 20 d 4 24 d 4 26 d 4 29 d 4 31 d 4 35 d 4 37 d 4 39 d 4 44 d 4 46 d 4 51 d 4 54 d 4 59 d 4 61 d 4 69 d 4 61 d 2 32 d s 1336 1515 m 3 -28 d s 1339 1487 m 11 -78 d 11 -70 d 11 -65 d 10 -53
 d 12 -49 d 5 -19 d 6 -11 d 6 -5 d 8 3 d 11 14 d 17 28 d 8 7 d 7 X 7 -9 d 5 -15 d 6 -22 d 4 -25 d 5 -32 d 2 -19 d 6 -59 d 7 -66 d 6 -73 d 7 -81 d 7 -88 d 6 -97 d 7 -105 d 7 -112 d 7 -120 d 2 -35 d s 1796 231 m 10 160 d s 1806 391 m 12 167 d 10 136 d
 11 153 d 11 147 d 12 139 d 11 130 d 8 95 d 11 123 d 4 34 d s 0 0 1 c[ 12 12] 0 sd 1 1 1 c black 0 0 1 c[  ] 0 sd 1 1 1 c black 0 0 1 c 1 1 1 c black 1 0 0 c[ 12 12] 0 sd 1 1 1 c black 1 0 0 c 321 509 m 79 15 d 18 4 d 98 24 d 80 9 d 17 5 d 26 13 d 25
 16 d 23 17 d 24 22 d 15 17 d 21 29 d 35 49 d 14 19 d 12 12 d 17 14 d 21 14 d 24 13 d 36 16 d 29 11 d 63 21 d 5 2 d 30 14 d 68 37 d 97 48 d 91 43 d 7 4 d 22 15 d 52 41 d 24 15 d 19 8 d 65 19 d 13 8 d 17 13 d 25 24 d 42 46 d 14 12 d 52 47 d 22 17 d 17
 10 d 6 2 d 15 4 d 18 X 54 -6 d 11 2 d 18 6 d 27 14 d 42 24 d 10 4 d 7 5 d 9 10 d 13 20 d 16 27 d 8 11 d 7 7 d 6 3 d 6 X 5 -3 d 5 -7 d 6 -9 d 4 -12 d 5 -15 d 1 -5 d 6 -28 d 6 -32 d 6 -34 d 6 -37 d 6 -39 d 5 -41 d 5 -44 d 5 -47 d 5 -49 d 5 -52 d 5 -56
 d 4 -59 d 5 -62 d 4 -64 d 5 -72 d 3 -63 d 4 -71 d 3 -71 d 3 -78 d 3 -69 d 2 -55 d s[  ] 0 sd 6 lw 1 1 1 c black 1 0 0 c 321 479 m 97 9 d 98 -9 d 6 7 d 6 25 d 9 50 d 23 177 d 8 49 d 7 26 d 6 7 d 5 -7 d 4 -16 d 5 -32 d 4 -44 d 5 -62 d 4 -65 d 4 -80 d
 1 -40 d 6 -137 d 4 -106 d s 857 1515 m 4 -87 d s 861 1428 m 7 -128 d 7 -129 d 8 -116 d 8 -109 d 7 -88 d 8 -83 d 5 -42 d 5 -29 d 5 -16 d 6 -5 d 6 7 d 8 23 d 10 47 d 16 76 d 8 27 d 7 9 d 5 -3 d 6 -15 d 4 -22 d 4 -33 d 2 -19 d 8 -76 d 7 -89 d 7 -100 d
 8 -113 d 7 -127 d 3 -44 d s 1301 231 m 5 129 d s 1306 360 m 5 118 d 4 105 d 5 95 d 5 85 d 4 75 d 5 67 d 4 58 d 5 50 d 4 42 d 5 33 d 5 23 d 5 13 d 5 4 d 4 -5 d 5 -17 d 5 -26 d 4 -34 d 5 -44 d 4 -37 d 5 -66 d 5 -74 d 4 -83 d 5 -90 d 5 -97 d 4 -105 d s
 1422 450 m 5 -113 d 4 -106 d s 1584 231 m 3 27 d s 1587 258 m 2 7 d 4 26 d 5 15 d 5 7 d 4 -2 d s 1607 311 m 5 -9 d 4 -17 d 4 -23 d 4 -30 d -1 Y s 1824 231 m 5 126 d s 1829 357 m 5 124 d 6 118 d 5 111 d 5 110 d 5 87 d 5 92 d 6 84 d 5 78 d 5 67 d 5 59
 d 4 44 d 5 43 d 5 33 d 5 26 d 4 19 d 5 13 d 5 7 d 6 X 6 -7 d 6 -16 d 8 -26 d 7 -34 d 11 -55 d 21 -121 d 8 -48 d 8 -56 d 8 -63 d 9 -71 d s 2012 975 m 8 -78 d 9 -87 d 7 -80 d 9 -110 d 9 -106 d 8 -111 d 8 -116 d 4 -56 d s 9 lw 1 1 1 c black 1 0 0 c 321
 532 m 61 20 d 36 17 d 98 60 d 6 8 d 7 20 d 8 37 d 23 125 d 8 35 d 7 19 d 6 6 d 5 -3 d 4 -9 d 5 -20 d 4 -27 d 5 -40 d 4 -41 d 4 -51 d 1 -26 d 6 -89 d 5 -95 d 5 -103 d 5 -110 d 2 -34 d s 875 1515 m 2 -47 d s 877 1468 m 7 -153 d 7 -147 d 7 -117 d 8
 -123 d 5 -67 d 5 -52 d 6 -38 d 6 -26 d 6 -13 d 7 X 8 17 d 11 43 d 20 91 d 10 32 d 7 11 d 6 -1 d 15 -11 d 29 -5 d 12 -14 d 10 -24 d 10 -40 d 8 -44 d 7 -54 d 7 -58 d 10 -103 d 9 -118 d 10 -132 d 6 -91 d s 1359 1515 m 4 -22 d s 1363 1493 m 6 -46 d 6
 -53 d 7 -62 d 6 -65 d 6 -69 d 5 -78 d 6 -84 d 6 -91 d 6 -98 d 6 -106 d 6 -114 d 7 -123 d 6 -131 d 6 -139 d -3 Y s 1533 231 m 2 49 d s 1535 280 m 4 85 d 4 81 d 5 77 d 4 72 d 5 66 d 4 67 d 5 52 d 4 49 d 4 43 d 5 40 d 4 29 d 5 26 d 1 4 d 4 21 d 5 13 d
 5 6 d 4 X s 1607 1011 m 5 -6 d 4 -11 d 4 -16 d 4 -21 d 5 -27 d 4 -32 d 4 -37 d 4 -43 d 5 -49 d 4 -56 d 5 -62 d 4 -74 d 4 -69 d 5 -79 d 4 -85 d 5 -97 d 1 -16 d s 1796 231 m 10 160 d s 1806 391 m 12 167 d 10 136 d 11 153 d 11 147 d 12 139 d 11 130 d 8
 95 d 11 123 d 4 34 d s black 1247 231 m 1284 Y s
 gr  gr showpage
end
%%EOF
