%!PS-Adobe-2.0 EPSF-2.0
%%BoundingBox:  0 0 567 384
%%Title: plots/iter_0/iterationsToys_ws_mtx_mjj/ccBelts_5_iter0.eps: 
%%Creator: ROOT Version 6.16/00
%%CreationDate: Fri Nov 13 20:34:09 2020
%%DocumentNeededResources: ProcSet (FontSetInit)
%%EndComments
%%BeginProlog
80 dict begin
/s {stroke} def /l {lineto} def /m {moveto} def /t {translate} def
/r {rotate} def /rl {roll}  def /R {repeat} def
/d {rlineto} def /rm {rmoveto} def /gr {grestore} def /f {eofill} def
/c {setrgbcolor} def /black {0 setgray} def /sd {setdash} def
/cl {closepath} def /sf {scalefont setfont} def /lw {setlinewidth} def
/box {m dup 0 exch d exch 0 d 0 exch neg d cl} def
/NC{systemdict begin initclip end}def/C{NC box clip newpath}def
/bl {box s} def /bf {gsave box gsave f grestore 1 lw [] 0 sd s grestore} def /Y { 0 exch d} def /X { 0 d} def 
/K {{pop pop 0 moveto} exch kshow} bind def
/ita {/ang 15 def gsave [1 0 ang dup sin exch cos div 1 0 0] concat} def 
/mp {newpath /y exch def /x exch def} def
/side {[w .77 mul w .23 mul] .385 w mul sd w 0 l currentpoint t -144 r} def
/mr {mp x y w2 0 360 arc} def /m24 {mr s} def /m20 {mr f} def
/mb {mp x y w2 add m w2 neg 0 d 0 w neg d w 0 d 0 w d cl} def
/mt {mp x y w2 add m w2 neg w neg d w 0 d cl} def
/w4 {w 4 div} def
/w6 {w 6 div} def
/w8 {w 8 div} def
/m21 {mb f} def /m25 {mb s} def /m22 {mt f} def /m26{mt s} def
/m23 {mp x y w2 sub m w2 w d w neg 0 d cl f} def
/m27 {mp x y w2 add m w3 neg w2 neg d w3 w2 neg d w3 w2 d cl s} def
/m28 {mp x w2 sub y w2 sub w3 add m w3 0 d  0 w3 neg d w3 0 d 0 w3 d w3 0 d  0 w3 d w3 neg 0 d 0 w3 d w3 neg 0 d 0 w3 neg d w3 neg 0 d cl s } def
/m29 {mp gsave x w2 sub y w2 add w3 sub m currentpoint t 4 {side} repeat cl fill gr} def
/m30 {mp gsave x w2 sub y w2 add w3 sub m currentpoint t 4 {side} repeat cl s gr} def
/m31 {mp x y w2 sub m 0 w d x w2 sub y m w 0 d x w2 sub y w2 add m w w neg d x w2 sub y w2 sub m w w d s} def
/m32 {mp x y w2 sub m w2 w d w neg 0 d cl s} def
/m33 {mp x y w2 add m w3 neg w2 neg d w3 w2 neg d w3 w2 d cl f} def
/m34 {mp x w2 sub y w2 sub w3 add m w3 0 d  0 w3 neg d w3 0 d 0 w3 d w3 0 d  0 w3 d w3 neg 0 d 0 w3 d w3 neg 0 d 0 w3 neg d w3 neg 0 d cl f } def
/m35 {mp x y w2 add m w2 neg w2 neg d w2 w2 neg d w2 w2 d w2 neg w2 d x y w2 sub m 0 w d x w2 sub y m w 0 d s} def
/m36 {mb x w2 sub y w2 add m w w neg d x w2 sub y w2 sub m w w d s} def
/m37 {mp x y m w4 neg w2 d w4 neg w2 neg d w2 0 d  w4 neg w2 neg d w2 0 d w4 neg w2 d w2 0 d w4 neg w2 d w4 neg w2 neg d cl s} def
/m38 {mp x w4 sub y w2 add m w4 neg w4 neg d 0 w2 neg d w4 w4 neg d w2 0 d w4 w4 d 0 w2 d w4 neg w4 d w2 neg 0 d x y w2 sub m 0 w d x w2 sub y m w 0 d cl s} def
/m39 {mp x y m w4 neg w2 d w4 neg w2 neg d w2 0 d  w4 neg w2 neg d w2 0 d w4 neg w2 d w2 0 d w4 neg w2 d w4 neg w2 neg d cl f} def
/m40 {mp x y m w4 w2 d w4 w4 neg d w2 neg w4 neg d w2 w4 neg d w4 neg w4 neg d w4 neg w2 d w4 neg w2 neg d w4 neg w4 d w2 w4 d w2 neg w4 d w4 w4 d w4 w2 neg d cl s} def
/m41 {mp x y m w4 w2 d w4 w4 neg d w2 neg w4 neg d w2 w4 neg d w4 neg w4 neg d w4 neg w2 d w4 neg w2 neg d w4 neg w4 d w2 w4 d w2 neg w4 d w4 w4 d w4 w2 neg d cl f} def
/m42 {mp x y w2 add m w8 neg w2 -3 4 div mul d w2 -3 4 div mul w8 neg d w2 3 4 div mul w8 neg d w8 w2 -3 4 div mul d w8 w2 3 4 div mul d w2 3 4 div mul w8 d w2 -3 4 div mul w8 d w8 neg w2 3 4 div mul d cl s} def
/m43 {mp x y w2 add m w8 neg w2 -3 4 div mul d w2 -3 4 div mul w8 neg d w2 3 4 div mul w8 neg d w8 w2 -3 4 div mul d w8 w2 3 4 div mul d w2 3 4 div mul w8 d w2 -3 4 div mul w8 d w8 neg w2 3 4 div mul d cl f} def
/m44 {mp x y m w6 neg w2 d w2 2 3 div mul 0 d w6 neg w2 neg d w2 w6 d 0 w2 -2 3 div mul d w2 neg w6 d w6 w2 neg d w2 -2 3 div mul 0 d w6 w2 d w2 neg w6 neg d 0 w2 2 3 div mul d w2 w6 neg d cl s} def
/m45 {mp x y m w6 neg w2 d w2 2 3 div mul 0 d w6 neg w2 neg d w2 w6 d 0 w2 -2 3 div mul d w2 neg w6 d w6 w2 neg d w2 -2 3 div mul 0 d w6 w2 d w2 neg w6 neg d 0 w2 2 3 div mul d w2 w6 neg d cl f} def
/m46 {mp x y w4 add m w4 neg w4 d w4 neg w4 neg d  w4 w4 neg d w4 neg w4 neg d w4 w4 neg d w4 w4 d w4 w4 neg d w4 w4 d w4 neg w4 d w4 w4 d w4 neg w4 d w4 neg w4 neg d cl s} def
/m47 {mp x y w4 add m w4 neg w4 d w4 neg w4 neg d w4 w4 neg d w4 neg w4 neg d  w4 w4 neg d w4 w4 d w4 w4 neg d w4 w4 d w4 neg w4 d w4 w4 d w4 neg w4 d w4 neg w4 neg d cl f} def
/m48 {mp x y w4 add m w4 neg w4 d w4 neg w4 neg d w4 w4 neg d  w4 neg w4 neg d w4 w4 neg d w4 w4 d w4 w4 neg d w4 w4 d w4 neg w4 d w4 w4 d w4 neg w4 d w4 neg w4 neg d  w4 w4 neg d w4 neg w4 neg d w4 neg w4 d w4 w4 d cl f} def
/m49 {mp x w2 sub w3 add y w2 sub w3 add m  0 w3 neg d w3 0 d 0 w3 d w3 0 d 0 w3 d w3 neg 0 d 0 w3 d w3 neg 0 d 0 w3 neg d w3 neg 0 d 0 w3 neg d w3 0 d 0 w3 d w3 0 d 0 w3 neg d w3 neg 0 d cl f } def
/m2 {mp x y w2 sub m 0 w d x w2 sub y m w 0 d s} def
/m5 {mp x w2 sub y w2 sub m w w d x w2 sub y w2 add m w w neg d s} def
%%IncludeResource: ProcSet (FontSetInit)
%%IncludeResource: font Times-Roman
%%IncludeResource: font Times-Italic
%%IncludeResource: font Times-Bold
%%IncludeResource: font Times-BoldItalic
%%IncludeResource: font Helvetica
%%IncludeResource: font Helvetica-Oblique
%%IncludeResource: font Helvetica-Bold
%%IncludeResource: font Helvetica-BoldOblique
%%IncludeResource: font Courier
%%IncludeResource: font Courier-Oblique
%%IncludeResource: font Courier-Bold
%%IncludeResource: font Courier-BoldOblique
%%IncludeResource: font Symbol
%%IncludeResource: font ZapfDingbats
/reEncode {exch findfont dup length dict begin {1 index /FID eq  {pop pop} {def} ifelse } forall /Encoding exch def currentdict end dup /FontName get exch definefont pop } def [/Times-Bold /Times-Italic /Times-BoldItalic /Helvetica /Helvetica-Oblique
 /Helvetica-Bold /Helvetica-BoldOblique /Courier /Courier-Oblique /Courier-Bold /Courier-BoldOblique /Times-Roman /AvantGarde-Book /AvantGarde-BookOblique /AvantGarde-Demi /AvantGarde-DemiOblique /Bookman-Demi /Bookman-DemiItalic /Bookman-Light
 /Bookman-LightItalic /Helvetica-Narrow /Helvetica-Narrow-Bold /Helvetica-Narrow-BoldOblique /Helvetica-Narrow-Oblique /NewCenturySchlbk-Roman /NewCenturySchlbk-Bold /NewCenturySchlbk-BoldItalic /NewCenturySchlbk-Italic /Palatino-Bold
 /Palatino-BoldItalic /Palatino-Italic /Palatino-Roman ] {ISOLatin1Encoding reEncode } forall
%%EndProlog
%%BeginSetup
%%EndSetup
newpath  gsave  .25 .25 scale  gsave  0 0 t black[  ] 0 sd 3 lw 1 1 1 c 2268 1538 0 0 bf black 1 1 1 c 1950 1284 272 231 bf black 1950 1284 272 231 bl 1 1 1 c 6 lw black 1 1 1 c 272 231 m 1950 X s black 3 lw 272 231 m 1950 X s 499 270 m -39 Y s 580
 251 m -20 Y s 660 251 m -20 Y s 741 251 m -20 Y s 822 251 m -20 Y s 902 270 m -39 Y s 983 251 m -20 Y s 1064 251 m -20 Y s 1145 251 m -20 Y s 1225 251 m -20 Y s 1306 270 m -39 Y s 1387 251 m -20 Y s 1467 251 m -20 Y s 1548 251 m -20 Y s 1629 251 m
 -20 Y s 1709 270 m -39 Y s 1790 251 m -20 Y s 1871 251 m -20 Y s 1951 251 m -20 Y s 2032 251 m -20 Y s 2113 270 m -39 Y s 499 270 m -39 Y s 418 251 m -20 Y s 338 251 m -20 Y s 2113 270 m -39 Y s 2193 251 m -20 Y s
 gsave  2268 1538 0 0 C 459.408 172.685 t 0 r /Helvetica findfont 61.9061 sf 0 0 m (0.1) show NC gr 
 gsave  2268 1538 0 0 C 856.91 172.685 t 0 r /Helvetica findfont 61.9061 sf 0 0 m (0.2) show NC gr 
 gsave  2268 1538 0 0 C 1260.93 172.685 t 0 r /Helvetica findfont 61.9061 sf 0 0 m (0.3) show NC gr 
 gsave  2268 1538 0 0 C 1664.95 172.685 t 0 r /Helvetica findfont 61.9061 sf 0 0 m (0.4) show NC gr 
 gsave  2268 1538 0 0 C 2068.97 172.685 t 0 r /Helvetica findfont 61.9061 sf 0 0 m (0.5) show NC gr 
 gsave  2268 1538 0 0 C 2101.55 78.1971 t 0 r /Helvetica findfont 74.9389 sf 0 0 m ( [fb]) show NC gr 
 gsave  2268 1538 0 0 C 1987.51 52.1314 t 0 r /Helvetica findfont 52.1314 sf 0 0 m (fit) show NC gr 
 gsave  2268 1538 0 0 C 1987.51 110.779 t 0 r /Helvetica findfont 52.1314 sf 0 0 m (bin,5) show NC gr 
 gsave  2268 1538 0 0 C 1941.9 78.1971 t 0 r /Symbol findfont 74.9389 sf 0 0 m (s) show NC gr  272 1515 m 1950 X s 499 1475 m 40 Y s 580 1495 m 20 Y s 660 1495 m 20 Y s 741 1495 m 20 Y s 822 1495 m 20 Y s 902 1475 m 40 Y s 983 1495 m 20 Y s 1064 1495
 m 20 Y s 1145 1495 m 20 Y s 1225 1495 m 20 Y s 1306 1475 m 40 Y s 1387 1495 m 20 Y s 1467 1495 m 20 Y s 1548 1495 m 20 Y s 1629 1495 m 20 Y s 1709 1475 m 40 Y s 1790 1495 m 20 Y s 1871 1495 m 20 Y s 1951 1495 m 20 Y s 2032 1495 m 20 Y s 2113 1475 m
 40 Y s 499 1475 m 40 Y s 418 1495 m 20 Y s 338 1495 m 20 Y s 2113 1475 m 40 Y s 2193 1495 m 20 Y s 272 231 m 1284 Y s 329 247 m -57 X s 301 274 m -29 X s 301 300 m -29 X s 301 327 m -29 X s 301 354 m -29 X s 329 380 m -57 X s 301 407 m -29 X s 301
 433 m -29 X s 301 460 m -29 X s 301 486 m -29 X s 329 513 m -57 X s 301 540 m -29 X s 301 566 m -29 X s 301 593 m -29 X s 301 619 m -29 X s 329 646 m -57 X s 301 672 m -29 X s 301 699 m -29 X s 301 725 m -29 X s 301 752 m -29 X s 329 779 m -57 X s
 301 805 m -29 X s 301 832 m -29 X s 301 858 m -29 X s 301 885 m -29 X s 329 911 m -57 X s 301 938 m -29 X s 301 964 m -29 X s 301 991 m -29 X s 301 1018 m -29 X s 329 1044 m -57 X s 301 1071 m -29 X s 301 1097 m -29 X s 301 1124 m -29 X s 301 1150 m
 -29 X s 329 1177 m -57 X s 301 1203 m -29 X s 301 1230 m -29 X s 301 1257 m -29 X s 301 1283 m -29 X s 329 1310 m -57 X s 301 1336 m -29 X s 301 1363 m -29 X s 301 1389 m -29 X s 301 1416 m -29 X s 329 1443 m -57 X s 329 247 m -57 X s 329 1443 m -57
 X s 301 1469 m -29 X s 301 1496 m -29 X s
 gsave  2268 1538 0 0 C 140.103 224.817 t 0 r /Helvetica findfont 61.9061 sf 0 0 m (0.05) show NC gr 
 gsave  2268 1538 0 0 C 185.718 358.403 t 0 r /Helvetica findfont 61.9061 sf 0 0 m (0.1) show NC gr 
 gsave  2268 1538 0 0 C 140.103 491.99 t 0 r /Helvetica findfont 61.9061 sf 0 0 m (0.15) show NC gr 
 gsave  2268 1538 0 0 C 175.944 625.577 t 0 r /Helvetica findfont 61.9061 sf 0 0 m (0.2) show NC gr 
 gsave  2268 1538 0 0 C 140.103 755.906 t 0 r /Helvetica findfont 61.9061 sf 0 0 m (0.25) show NC gr 
 gsave  2268 1538 0 0 C 175.944 889.492 t 0 r /Helvetica findfont 61.9061 sf 0 0 m (0.3) show NC gr 
 gsave  2268 1538 0 0 C 140.103 1023.08 t 0 r /Helvetica findfont 61.9061 sf 0 0 m (0.35) show NC gr 
 gsave  2268 1538 0 0 C 175.944 1156.67 t 0 r /Helvetica findfont 61.9061 sf 0 0 m (0.4) show NC gr 
 gsave  2268 1538 0 0 C 140.103 1286.99 t 0 r /Helvetica findfont 61.9061 sf 0 0 m (0.45) show NC gr 
 gsave  2268 1538 0 0 C 175.944 1420.58 t 0 r /Helvetica findfont 61.9061 sf 0 0 m (0.5) show NC gr 
 gsave  2268 1538 0 0 C 120.554 1394.52 t 90 r /Helvetica findfont 74.9389 sf 0 0 m ( [fb]) show NC gr 
 gsave  2268 1538 0 0 C 146.62 1280.48 t 90 r /Helvetica findfont 52.1314 sf 0 0 m (true) show NC gr 
 gsave  2268 1538 0 0 C 87.9718 1280.48 t 90 r /Helvetica findfont 52.1314 sf 0 0 m (bin,5) show NC gr 
 gsave  2268 1538 0 0 C 120.554 1234.86 t 90 r /Symbol findfont 74.9389 sf 0 0 m (s) show NC gr  2222 231 m 1284 Y s 2166 247 m 56 X s 2194 274 m 28 X s 2194 300 m 28 X s 2194 327 m 28 X s 2194 354 m 28 X s 2166 380 m 56 X s 2194 407 m 28 X s 2194
 433 m 28 X s 2194 460 m 28 X s 2194 486 m 28 X s 2166 513 m 56 X s 2194 540 m 28 X s 2194 566 m 28 X s 2194 593 m 28 X s 2194 619 m 28 X s 2166 646 m 56 X s 2194 672 m 28 X s 2194 699 m 28 X s 2194 725 m 28 X s 2194 752 m 28 X s 2166 779 m 56 X s
 2194 805 m 28 X s 2194 832 m 28 X s 2194 858 m 28 X s 2194 885 m 28 X s 2166 911 m 56 X s 2194 938 m 28 X s 2194 964 m 28 X s 2194 991 m 28 X s 2194 1018 m 28 X s 2166 1044 m 56 X s 2194 1071 m 28 X s 2194 1097 m 28 X s 2194 1124 m 28 X s 2194 1150
 m 28 X s 2166 1177 m 56 X s 2194 1203 m 28 X s 2194 1230 m 28 X s 2194 1257 m 28 X s 2194 1283 m 28 X s 2166 1310 m 56 X s 2194 1336 m 28 X s 2194 1363 m 28 X s 2194 1389 m 28 X s 2194 1416 m 28 X s 2166 1443 m 56 X s 2166 247 m 56 X s 2166 1443 m
 56 X s 2194 1469 m 28 X s 2194 1496 m 28 X s 1 0 0 c 1 1 1 c 1 0 0 c 37 25 302 443 bl 1 1 1 c 1 0 0 c 37 25 400 507 bl 1 1 1 c 1 0 0 c 52 34 490 567 bl 1 1 1 c 1 0 0 c 52 34 587 631 bl 1 1 1 c 1 0 0 c 36 24 693 636 bl 1 1 1 c 1 0 0 c 74 48 674 688
 bl 1 1 1 c 1 0 0 c 97 65 760 744 bl 1 1 1 c 1 0 0 c 90 59 861 811 bl 1 1 1 c 1 0 0 c 63 42 972 884 bl 1 1 1 c 1 0 0 c 74 48 1064 945 bl 1 1 1 c 1 0 0 c 37 24 1180 1021 bl 1 1 1 c 1 0 0 c 37 25 1180 1085 bl 1 1 1 c 1 0 0 c 64 42 1264 1076 bl 1 1 1 c
 1 0 0 c 37 24 1375 1150 bl 1 1 1 c 1 0 0 c 64 42 1459 1205 bl 1 1 1 c 1 0 0 c 36 24 1473 1278 bl 1 1 1 c 1 0 0 c 37 24 1570 1278 bl 1 1 1 c black 1 1 1 c black 37 25 302 443 bl 1 1 1 c black 37 25 400 507 bl 1 1 1 c black 64 42 484 563 bl 1 1 1 c
 black 37 24 595 572 bl 1 1 1 c black 52 34 587 631 bl 1 1 1 c black 36 24 693 636 bl 1 1 1 c black 74 48 674 688 bl 1 1 1 c black 97 65 760 744 bl 1 1 1 c black 36 25 888 764 bl 1 1 1 c black 98 64 857 809 bl 1 1 1 c black 63 42 972 884 bl 1 1 1 c
 black 74 48 1064 945 bl 1 1 1 c black 53 34 1172 1016 bl 1 1 1 c black 37 25 1180 1085 bl 1 1 1 c black 64 42 1264 1076 bl 1 1 1 c black 37 24 1375 1150 bl 1 1 1 c black 64 42 1459 1205 bl 1 1 1 c black 52 34 1465 1273 bl 1 1 1 c black 37 24 1570
 1278 bl 1 1 1 c 0 0 1 c 1 1 1 c black[ 12 12] 0 sd 9 lw 1 1 1 c black 321 488 m 34 25 d 31 21 d 32 18 d 98 32 d 70 25 d 27 14 d 23 16 d 32 28 d 27 23 d 16 11 d 27 14 d 70 27 d 98 42 d 91 38 d 6 3 d 56 15 d 25 9 d 17 9 d 18 13 d 24 22 d 43 43 d 12 11
 d 39 28 d 59 40 d 98 69 d 26 22 d 41 39 d 18 14 d 12 8 d 98 24 d 21 10 d 54 33 d 22 10 d 98 14 d 6 3 d 8 9 d 10 15 d 23 39 d 8 10 d 6 6 d 6 3 d 6 -1 d 5 -3 d 5 -7 d 5 -11 d 4 -12 d 4 -16 d 1 -3 d 7 -29 d 6 -33 d 6 -35 d 5 -37 d 6 -40 d 5 -43 d 5 -45
 d 5 -47 d 5 -51 d 5 -54 d 5 -58 d 4 -60 d 5 -64 d 4 -66 d 5 -72 d 3 -64 d 4 -72 d 3 -74 d 4 -78 d 1 -37 d s[  ] 0 sd 1 1 1 c black 428 1515 m 4 -68 d s 432 1447 m 6 -103 d 7 -100 d 7 -95 d 7 -91 d 7 -84 d 8 -85 d 6 -66 d 7 -67 d 8 -61 d 7 -57 d 7
 -46 d 7 -43 d 10 -54 d 9 -41 d 7 -31 d 7 -23 d 7 -17 d 6 -9 d 6 -4 d 6 2 d 6 9 d 5 13 d 6 19 d 5 25 d 5 30 d 4 34 d 5 38 d 3 35 d 6 58 d 5 62 d 5 67 d 6 71 d 5 77 d 5 82 d 5 89 d s 650 1081 m 5 95 d 6 102 d 5 110 d 6 115 d 12 Y s 849 1515 m 4 -83 d
 s 853 1432 m 8 -145 d 10 -147 d 8 -131 d 10 -120 d 8 -96 d 9 -85 d 5 -38 d 5 -21 d 6 -6 d 6 9 d 8 28 d 11 61 d 15 93 d 8 34 d 6 15 d 6 -2 d 6 -16 d 5 -32 d 4 -40 d 4 -53 d 2 -33 d 7 -108 d 6 -121 d 7 -135 d 4 -112 d s 1260 231 m 4 109 d s 1264 340 m
 4 100 d 4 97 d 4 71 d 4 63 d 4 52 d 4 41 d 4 26 d 4 16 d 4 X 4 -11 d s 1304 795 m 4 -23 d 4 -41 d 4 -53 d 4 -66 d 4 -76 d 4 -87 d 4 -96 d 4 -107 d -15 Y s 1456 231 m 2 109 d s 1458 340 m 8 277 d 7 226 d 6 211 d 7 189 d 5 141 d 5 131 d s 1646 1515 m
 4 -44 d s 1650 1471 m 6 -52 d 4 -41 d 6 -49 d 6 -40 d 5 -37 d 5 -32 d 4 -23 d 4 -22 d 5 -20 d 5 -16 d 5 -13 d 4 -9 d 5 -6 d 5 -3 d 6 -1 d 6 4 d 6 7 d 8 12 d 7 16 d 12 27 d 18 45 d 2 4 d 8 22 d 9 25 d 9 29 d s 1810 1298 m 9 32 d 10 38 d 8 35 d 9 42 d
 9 45 d 4 25 d s 1 1 1 c black 452 1515 m 6 -115 d s 458 1400 m 7 -121 d 8 -125 d 7 -98 d 6 -93 d 7 -84 d 8 -82 d 6 -61 d 7 -57 d 2 -11 d 8 -56 d 8 -44 d 7 -34 d 7 -24 d 7 -15 d 6 -6 d 7 3 d 6 11 d 6 22 d 5 27 d 6 37 d 6 45 d 6 61 d 5 58 d 5 68 d 2
 38 d 6 90 d 6 97 d 5 103 d 6 112 d 5 120 d 5 129 d s 646 1510 m 1 5 d s 876 1515 m 5 -118 d s 881 1397 m 6 -162 d 7 -146 d 7 -127 d 5 -89 d 4 -62 d 5 -53 d 5 -35 d 5 -19 d 6 -4 d 6 13 d 8 34 d 10 65 d 15 103 d 7 38 d 7 20 d 6 2 d 5 -14 d 4 -26 d 4
 -35 d 9 -92 d 8 -109 d 9 -126 d 8 -142 d 10 -181 d 1 -19 d s 1237 231 m 1 13 d s 1238 244 m 4 102 d 3 95 d 4 89 d 4 83 d 4 78 d 4 73 d 3 66 d 4 59 d 5 55 d 3 41 d 4 38 d 4 31 d 4 24 d 4 16 d 4 9 d 4 2 d 4 -5 d s 1304 1100 m 4 -12 d 4 -21 d 4 -30 d 4
 -36 d 4 -43 d 4 -48 d 4 -55 d 4 -60 d 4 -66 d 3 -72 d 4 -80 d 4 -86 d 4 -94 d 4 -103 d 2 -63 d s 1673 1515 m 1 -20 d s 1674 1495 m 5 -81 d 6 -77 d 1 -18 d 4 -49 d 5 -49 d 5 -38 d 4 -29 d 5 -22 d 5 -14 d 5 -8 d 6 X 6 9 d 8 18 d 10 37 d 20 78 d 7 24 d
 8 18 d 15 29 d 12 32 d 14 43 d 15 50 d s 1840 1448 m 14 61 d 1 6 d s 0 0 1 c[ 12 12] 0 sd 1 1 1 c black 0 0 1 c[  ] 0 sd 1 1 1 c black 0 0 1 c 1 1 1 c black 1 0 0 c[ 12 12] 0 sd 1 1 1 c black 1 0 0 c 321 488 m 97 48 d 98 48 d 92 43 d 5 4 d 30 20 d
 52 39 d 16 11 d 35 19 d 62 27 d 98 35 d 36 17 d 52 27 d 9 4 d 98 32 d 18 13 d 24 21 d 43 41 d 12 11 d 98 66 d 69 51 d 29 23 d 28 24 d 36 34 d 18 13 d 15 9 d 16 5 d 82 8 d 18 8 d 32 21 d 29 18 d 18 9 d 22 5 d 76 10 d 6 3 d 8 9 d 10 15 d 22 41 d 8 11
 d 7 7 d 6 3 d 5 X 6 -3 d 5 -7 d 5 -10 d 4 -12 d 4 -15 d 1 -4 d 7 -29 d 6 -32 d 6 -35 d 5 -37 d 6 -40 d 5 -42 d 5 -45 d 5 -48 d 5 -50 d 5 -54 d 5 -57 d 4 -60 d 5 -64 d 4 -66 d 5 -72 d 3 -64 d 4 -72 d 3 -74 d 4 -79 d 1 -39 d s[  ] 0 sd 6 lw 1 1 1 c
 black 1 0 0 c 734 1515 m 10 -153 d s 744 1362 m 10 -140 d 11 -139 d 11 -123 d 11 -112 d 10 -88 d 11 -79 d 8 -41 d 9 -30 d 9 -16 d 11 -1 d 12 15 d 33 66 d 12 13 d 4 X 64 -6 d 29 -16 d 4 -4 d 8 2 d 9 20 d 15 61 d 14 54 d 8 19 d 7 5 d 7 -9 d 6 -23 d 5
 -36 d 6 -57 d 5 -59 d 5 -73 d 3 -58 d 6 -126 d 6 -139 d 1 -11 d s 1361 231 m 4 111 d s 1365 342 m 5 160 d 6 148 d 6 150 d 5 118 d 5 113 d 2 26 d 4 75 d 5 72 d 4 57 d 5 45 d 5 34 d 5 24 d 5 13 d 6 3 d 6 -8 d 8 -26 d 9 -43 d 35 -210 d 11 -53 d 11 -66
 d 11 -83 d 10 -81 d 11 -100 d 11 -111 d s 1556 599 m 11 -129 d 10 -127 d 9 -112 d s 1591 231 m 3 43 d s 1594 274 m 5 79 d 6 74 d 5 71 d 5 69 d 6 66 d 5 64 d 6 61 d 6 59 d 5 57 d 7 60 d 5 47 d 6 46 d 6 43 d 6 44 d 6 33 d 5 33 d 2 8 d 5 25 d 5 20 d 5
 17 d 5 14 d 5 11 d 6 8 d 6 5 d 6 3 d 7 -2 d 7 -5 d 7 -7 d 9 -14 d 13 -23 d 12 -23 d 7 -15 d 7 -20 d 8 -24 d 8 -28 d 8 -34 d 9 -39 d 10 -46 d 11 -54 d 13 -70 d 16 -87 d 11 -63 d 11 -67 d 11 -75 d 10 -66 d 11 -77 d s 1935 452 m 11 -80 d 11 -86 d 7 -55
 d s 9 lw 1 1 1 c black 1 0 0 c 772 1515 m 6 -104 d s 778 1411 m 9 -130 d 8 -113 d 9 -102 d 4 -51 d 7 -59 d 6 -48 d 7 -37 d 8 -27 d 9 -15 d 11 -1 d 15 19 d 23 35 d 12 6 d 19 1 d 30 24 d 31 26 d 17 4 d 9 7 d 12 26 d 24 77 d 10 18 d 9 3 d 8 -12 d 6 -24
 d 7 -39 d 5 -44 d 5 -57 d 3 -31 d 7 -97 d 7 -111 d 7 -125 d 7 -139 d 8 -155 d -9 Y s 1344 231 m 4 92 d s 1348 323 m 7 146 d 8 150 d 7 141 d 8 139 d 7 117 d 9 122 d 7 100 d 7 94 d 7 87 d 8 80 d 1 16 d s 1624 1515 m 7 -35 d s 1631 1480 m 11 -46 d 10
 -42 d 12 -39 d 10 -29 d 10 -27 d 2 -4 d 10 -25 d 30 -86 d 7 -16 d 7 -9 d 7 -4 d 5 2 d 5 6 d 5 11 d 5 15 d 4 19 d 5 23 d 4 25 d 4 31 d 5 45 d 5 50 d 5 53 d 6 57 d 2 25 d s black 1247 231 m 1284 Y s
 gr  gr showpage
end
%%EOF
