%!PS-Adobe-2.0 EPSF-2.0
%%BoundingBox:  0 0 567 384
%%Title: plots/iter_0/iterationsToys_ws_mtx_mjj/ccShape.eps: 
%%Creator: ROOT Version 6.16/00
%%CreationDate: Fri Nov 13 20:34:15 2020
%%DocumentNeededResources: ProcSet (FontSetInit)
%%EndComments
%%BeginProlog
80 dict begin
/s {stroke} def /l {lineto} def /m {moveto} def /t {translate} def
/r {rotate} def /rl {roll}  def /R {repeat} def
/d {rlineto} def /rm {rmoveto} def /gr {grestore} def /f {eofill} def
/c {setrgbcolor} def /black {0 setgray} def /sd {setdash} def
/cl {closepath} def /sf {scalefont setfont} def /lw {setlinewidth} def
/box {m dup 0 exch d exch 0 d 0 exch neg d cl} def
/NC{systemdict begin initclip end}def/C{NC box clip newpath}def
/bl {box s} def /bf {gsave box gsave f grestore 1 lw [] 0 sd s grestore} def /Y { 0 exch d} def /X { 0 d} def 
/K {{pop pop 0 moveto} exch kshow} bind def
/ita {/ang 15 def gsave [1 0 ang dup sin exch cos div 1 0 0] concat} def 
/mp {newpath /y exch def /x exch def} def
/side {[w .77 mul w .23 mul] .385 w mul sd w 0 l currentpoint t -144 r} def
/mr {mp x y w2 0 360 arc} def /m24 {mr s} def /m20 {mr f} def
/mb {mp x y w2 add m w2 neg 0 d 0 w neg d w 0 d 0 w d cl} def
/mt {mp x y w2 add m w2 neg w neg d w 0 d cl} def
/w4 {w 4 div} def
/w6 {w 6 div} def
/w8 {w 8 div} def
/m21 {mb f} def /m25 {mb s} def /m22 {mt f} def /m26{mt s} def
/m23 {mp x y w2 sub m w2 w d w neg 0 d cl f} def
/m27 {mp x y w2 add m w3 neg w2 neg d w3 w2 neg d w3 w2 d cl s} def
/m28 {mp x w2 sub y w2 sub w3 add m w3 0 d  0 w3 neg d w3 0 d 0 w3 d w3 0 d  0 w3 d w3 neg 0 d 0 w3 d w3 neg 0 d 0 w3 neg d w3 neg 0 d cl s } def
/m29 {mp gsave x w2 sub y w2 add w3 sub m currentpoint t 4 {side} repeat cl fill gr} def
/m30 {mp gsave x w2 sub y w2 add w3 sub m currentpoint t 4 {side} repeat cl s gr} def
/m31 {mp x y w2 sub m 0 w d x w2 sub y m w 0 d x w2 sub y w2 add m w w neg d x w2 sub y w2 sub m w w d s} def
/m32 {mp x y w2 sub m w2 w d w neg 0 d cl s} def
/m33 {mp x y w2 add m w3 neg w2 neg d w3 w2 neg d w3 w2 d cl f} def
/m34 {mp x w2 sub y w2 sub w3 add m w3 0 d  0 w3 neg d w3 0 d 0 w3 d w3 0 d  0 w3 d w3 neg 0 d 0 w3 d w3 neg 0 d 0 w3 neg d w3 neg 0 d cl f } def
/m35 {mp x y w2 add m w2 neg w2 neg d w2 w2 neg d w2 w2 d w2 neg w2 d x y w2 sub m 0 w d x w2 sub y m w 0 d s} def
/m36 {mb x w2 sub y w2 add m w w neg d x w2 sub y w2 sub m w w d s} def
/m37 {mp x y m w4 neg w2 d w4 neg w2 neg d w2 0 d  w4 neg w2 neg d w2 0 d w4 neg w2 d w2 0 d w4 neg w2 d w4 neg w2 neg d cl s} def
/m38 {mp x w4 sub y w2 add m w4 neg w4 neg d 0 w2 neg d w4 w4 neg d w2 0 d w4 w4 d 0 w2 d w4 neg w4 d w2 neg 0 d x y w2 sub m 0 w d x w2 sub y m w 0 d cl s} def
/m39 {mp x y m w4 neg w2 d w4 neg w2 neg d w2 0 d  w4 neg w2 neg d w2 0 d w4 neg w2 d w2 0 d w4 neg w2 d w4 neg w2 neg d cl f} def
/m40 {mp x y m w4 w2 d w4 w4 neg d w2 neg w4 neg d w2 w4 neg d w4 neg w4 neg d w4 neg w2 d w4 neg w2 neg d w4 neg w4 d w2 w4 d w2 neg w4 d w4 w4 d w4 w2 neg d cl s} def
/m41 {mp x y m w4 w2 d w4 w4 neg d w2 neg w4 neg d w2 w4 neg d w4 neg w4 neg d w4 neg w2 d w4 neg w2 neg d w4 neg w4 d w2 w4 d w2 neg w4 d w4 w4 d w4 w2 neg d cl f} def
/m42 {mp x y w2 add m w8 neg w2 -3 4 div mul d w2 -3 4 div mul w8 neg d w2 3 4 div mul w8 neg d w8 w2 -3 4 div mul d w8 w2 3 4 div mul d w2 3 4 div mul w8 d w2 -3 4 div mul w8 d w8 neg w2 3 4 div mul d cl s} def
/m43 {mp x y w2 add m w8 neg w2 -3 4 div mul d w2 -3 4 div mul w8 neg d w2 3 4 div mul w8 neg d w8 w2 -3 4 div mul d w8 w2 3 4 div mul d w2 3 4 div mul w8 d w2 -3 4 div mul w8 d w8 neg w2 3 4 div mul d cl f} def
/m44 {mp x y m w6 neg w2 d w2 2 3 div mul 0 d w6 neg w2 neg d w2 w6 d 0 w2 -2 3 div mul d w2 neg w6 d w6 w2 neg d w2 -2 3 div mul 0 d w6 w2 d w2 neg w6 neg d 0 w2 2 3 div mul d w2 w6 neg d cl s} def
/m45 {mp x y m w6 neg w2 d w2 2 3 div mul 0 d w6 neg w2 neg d w2 w6 d 0 w2 -2 3 div mul d w2 neg w6 d w6 w2 neg d w2 -2 3 div mul 0 d w6 w2 d w2 neg w6 neg d 0 w2 2 3 div mul d w2 w6 neg d cl f} def
/m46 {mp x y w4 add m w4 neg w4 d w4 neg w4 neg d  w4 w4 neg d w4 neg w4 neg d w4 w4 neg d w4 w4 d w4 w4 neg d w4 w4 d w4 neg w4 d w4 w4 d w4 neg w4 d w4 neg w4 neg d cl s} def
/m47 {mp x y w4 add m w4 neg w4 d w4 neg w4 neg d w4 w4 neg d w4 neg w4 neg d  w4 w4 neg d w4 w4 d w4 w4 neg d w4 w4 d w4 neg w4 d w4 w4 d w4 neg w4 d w4 neg w4 neg d cl f} def
/m48 {mp x y w4 add m w4 neg w4 d w4 neg w4 neg d w4 w4 neg d  w4 neg w4 neg d w4 w4 neg d w4 w4 d w4 w4 neg d w4 w4 d w4 neg w4 d w4 w4 d w4 neg w4 d w4 neg w4 neg d  w4 w4 neg d w4 neg w4 neg d w4 neg w4 d w4 w4 d cl f} def
/m49 {mp x w2 sub w3 add y w2 sub w3 add m  0 w3 neg d w3 0 d 0 w3 d w3 0 d 0 w3 d w3 neg 0 d 0 w3 d w3 neg 0 d 0 w3 neg d w3 neg 0 d 0 w3 neg d w3 0 d 0 w3 d w3 0 d 0 w3 neg d w3 neg 0 d cl f } def
/m2 {mp x y w2 sub m 0 w d x w2 sub y m w 0 d s} def
/m5 {mp x w2 sub y w2 sub m w w d x w2 sub y w2 add m w w neg d s} def
%%IncludeResource: ProcSet (FontSetInit)
%%IncludeResource: font Times-Roman
%%IncludeResource: font Times-Italic
%%IncludeResource: font Times-Bold
%%IncludeResource: font Times-BoldItalic
%%IncludeResource: font Helvetica
%%IncludeResource: font Helvetica-Oblique
%%IncludeResource: font Helvetica-Bold
%%IncludeResource: font Helvetica-BoldOblique
%%IncludeResource: font Courier
%%IncludeResource: font Courier-Oblique
%%IncludeResource: font Courier-Bold
%%IncludeResource: font Courier-BoldOblique
%%IncludeResource: font Symbol
%%IncludeResource: font ZapfDingbats
/reEncode {exch findfont dup length dict begin {1 index /FID eq  {pop pop} {def} ifelse } forall /Encoding exch def currentdict end dup /FontName get exch definefont pop } def [/Times-Bold /Times-Italic /Times-BoldItalic /Helvetica /Helvetica-Oblique
 /Helvetica-Bold /Helvetica-BoldOblique /Courier /Courier-Oblique /Courier-Bold /Courier-BoldOblique /Times-Roman /AvantGarde-Book /AvantGarde-BookOblique /AvantGarde-Demi /AvantGarde-DemiOblique /Bookman-Demi /Bookman-DemiItalic /Bookman-Light
 /Bookman-LightItalic /Helvetica-Narrow /Helvetica-Narrow-Bold /Helvetica-Narrow-BoldOblique /Helvetica-Narrow-Oblique /NewCenturySchlbk-Roman /NewCenturySchlbk-Bold /NewCenturySchlbk-BoldItalic /NewCenturySchlbk-Italic /Palatino-Bold
 /Palatino-BoldItalic /Palatino-Italic /Palatino-Roman ] {ISOLatin1Encoding reEncode } forall
%%EndProlog
%%BeginSetup
%%EndSetup
newpath  gsave  .25 .25 scale  gsave  0 0 t black[  ] 0 sd 3 lw 1 1 1 c 2268 1538 0 0 bf black 1 1 1 c 1950 1284 272 231 bf black 1950 1284 272 231 bl 6 lw 3 lw 516 593 m -35 -35 d s 516 631 m -73 -73 d s 516 670 m -112 -112 d s 516 708 m -150 -150 d
 s 516 747 m -189 -189 d s 516 785 m -227 -227 d s 516 824 m -244 -244 d s 516 862 m -244 -244 d s 516 901 m -244 -244 d s 516 939 m -244 -244 d s 516 978 m -244 -244 d s 516 1016 m -244 -244 d s 516 1055 m -244 -244 d s 516 1093 m -244 -244 d s 516
 1132 m -244 -244 d s 516 1170 m -244 -244 d s 495 1187 m -223 -222 d s 456 1187 m -184 -184 d s 418 1187 m -146 -145 d s 379 1187 m -107 -107 d s 341 1187 m -69 -68 d s 302 1187 m -30 -30 d s 506 1187 m 10 -10 d s 467 1187 m 49 -48 d s 429 1187 m 87
 -87 d s 391 1187 m 125 -125 d s 352 1187 m 164 -164 d s 314 1187 m 202 -202 d s 275 1187 m 241 -240 d s 272 1152 m 244 -244 d s 272 1113 m 244 -243 d s 272 1075 m 244 -244 d s 272 1036 m 244 -243 d s 272 998 m 244 -244 d s 272 959 m 244 -243 d s 272
 921 m 244 -244 d s 272 882 m 244 -243 d s 272 844 m 244 -244 d s 272 805 m 244 -243 d s 272 767 m 209 -209 d s 272 728 m 170 -170 d s 272 690 m 132 -132 d s 272 652 m 93 -94 d s 272 613 m 55 -55 d s 272 575 m 17 -17 d s 6 lw 3 lw /w 2 def /w2 {w 2
 div} def /w3 {w 3 div} def 394 873 m20 6 lw 3 lw 760 721 m -9 -9 d s 760 760 m -48 -48 d s 760 798 m -86 -86 d s 760 837 m -125 -125 d s 760 875 m -163 -163 d s 760 914 m -202 -202 d s 760 952 m -240 -240 d s 760 991 m -244 -244 d s 760 1029 m -244
 -244 d s 725 1033 m -209 -209 d s 687 1033 m -171 -171 d s 648 1033 m -132 -132 d s 610 1033 m -94 -94 d s 571 1033 m -55 -55 d s 533 1033 m -17 -17 d s 737 1033 m 23 -22 d s 699 1033 m 61 -61 d s 660 1033 m 100 -99 d s 622 1033 m 138 -138 d s 583
 1033 m 177 -176 d s 545 1033 m 215 -215 d s 516 1023 m 244 -243 d s 516 985 m 244 -244 d s 516 947 m 234 -235 d s 516 908 m 196 -196 d s 516 870 m 157 -158 d s 516 831 m 119 -119 d s 516 793 m 80 -81 d s 516 754 m 42 -42 d s 516 716 m 3 -4 d s 6 lw
 3 lw 638 873 m20 6 lw 3 lw 1003 696 m -9 -9 d s 1003 734 m -47 -47 d s 1003 773 m -86 -86 d s 1003 811 m -124 -124 d s 1003 850 m -163 -163 d s 1003 888 m -201 -201 d s 1003 926 m -239 -239 d s 1003 965 m -243 -244 d s 1003 1003 m -243 -243 d s 1003
 1042 m -243 -244 d s 982 1059 m -222 -222 d s 943 1059 m -183 -184 d s 905 1059 m -145 -145 d s 867 1059 m -107 -107 d s 828 1059 m -68 -68 d s 790 1059 m -30 -30 d s 981 1059 m 22 -23 d s 942 1059 m 61 -61 d s 904 1059 m 99 -100 d s 865 1059 m 138
 -138 d s 827 1059 m 176 -177 d s 788 1059 m 215 -215 d s 760 1049 m 243 -244 d s 760 1011 m 243 -244 d s 760 972 m 243 -244 d s 760 934 m 243 -244 d s 760 895 m 208 -208 d s 760 857 m 170 -170 d s 760 818 m 131 -131 d s 760 780 m 93 -93 d s 760 741
 m 54 -54 d s 760 703 m 16 -16 d s 6 lw 3 lw 882 873 m20 6 lw 3 lw 1247 670 m -9 -9 d s 1247 708 m -47 -47 d s 1247 747 m -86 -86 d s 1247 785 m -124 -124 d s 1247 824 m -163 -163 d s 1247 862 m -201 -201 d s 1247 901 m -240 -240 d s 1247 939 m -244
 -243 d s 1247 978 m -244 -244 d s 1247 1016 m -244 -243 d s 1247 1055 m -244 -244 d s 1239 1085 m -236 -235 d s 1200 1085 m -197 -197 d s 1162 1085 m -159 -159 d s 1123 1085 m -120 -120 d s 1085 1085 m -82 -82 d s 1046 1085 m -43 -43 d s 1008 1085 m
 -5 -5 d s 1224 1085 m 23 -23 d s 1186 1085 m 61 -62 d s 1147 1085 m 100 -100 d s 1109 1085 m 138 -139 d s 1071 1085 m 176 -177 d s 1032 1085 m 215 -216 d s 1003 1075 m 244 -244 d s 1003 1036 m 244 -244 d s 1003 998 m 244 -244 d s 1003 959 m 244 -244
 d s 1003 921 m 244 -244 d s 1003 882 m 222 -221 d s 1003 844 m 183 -183 d s 1003 805 m 145 -144 d s 1003 767 m 106 -106 d s 1003 728 m 68 -67 d s 1003 690 m 29 -29 d s 6 lw 3 lw 1125 873 m20 6 lw 3 lw 1491 683 m -9 -9 d s 1491 721 m -48 -47 d s 1491
 760 m -86 -86 d s 1491 798 m -125 -124 d s 1491 837 m -163 -163 d s 1491 875 m -202 -201 d s 1491 914 m -240 -240 d s 1491 952 m -244 -244 d s 1491 991 m -244 -244 d s 1491 1029 m -244 -244 d s 1491 1068 m -244 -244 d s 1457 1072 m -210 -210 d s
 1418 1072 m -171 -171 d s 1380 1072 m -133 -133 d s 1341 1072 m -94 -94 d s 1303 1072 m -56 -56 d s 1264 1072 m -17 -17 d s 1468 1072 m 23 -23 d s 1430 1072 m 61 -62 d s 1391 1072 m 100 -100 d s 1353 1072 m 138 -139 d s 1314 1072 m 177 -177 d s 1276
 1072 m 215 -215 d s 1247 1062 m 244 -244 d s 1247 1023 m 244 -243 d s 1247 985 m 244 -244 d s 1247 946 m 244 -243 d s 1247 908 m 234 -234 d s 1247 869 m 196 -195 d s 1247 831 m 157 -157 d s 1247 792 m 119 -118 d s 1247 754 m 80 -80 d s 1247 715 m 42
 -41 d s 1247 677 m 4 -3 d s 6 lw 3 lw 1369 873 m20 6 lw 3 lw 1735 734 m -35 -35 d s 1735 773 m -74 -74 d s 1735 811 m -112 -112 d s 1735 850 m -150 -151 d s 1735 888 m -189 -189 d s 1735 927 m -227 -228 d s 1735 965 m -244 -244 d s 1735 1004 m -244
 -244 d s 1735 1042 m -244 -244 d s 1700 1046 m -209 -209 d s 1662 1046 m -171 -171 d s 1623 1046 m -132 -132 d s 1585 1046 m -94 -94 d s 1546 1046 m -55 -55 d s 1508 1046 m -17 -17 d s 1725 1046 m 10 -10 d s 1686 1046 m 49 -48 d s 1648 1046 m 87 -87
 d s 1609 1046 m 126 -125 d s 1571 1046 m 164 -164 d s 1532 1046 m 203 -202 d s 1494 1046 m 241 -241 d s 1491 1010 m 244 -243 d s 1491 972 m 244 -244 d s 1491 933 m 234 -234 d s 1491 895 m 196 -196 d s 1491 857 m 157 -158 d s 1491 818 m 119 -119 d s
 1491 780 m 80 -81 d s 1491 741 m 42 -42 d s 1491 703 m 3 -4 d s 6 lw 3 lw 1613 873 m20 6 lw 3 lw 1979 670 m -23 -22 d s 1979 709 m -61 -61 d s 1979 747 m -99 -99 d s 1979 786 m -138 -138 d s 1979 824 m -176 -176 d s 1979 863 m -215 -215 d s 1979 901
 m -244 -244 d s 1979 940 m -244 -244 d s 1979 978 m -244 -244 d s 1979 1016 m -244 -243 d s 1979 1055 m -244 -244 d s 1979 1093 m -244 -243 d s 1944 1097 m -209 -209 d s 1906 1097 m -171 -170 d s 1867 1097 m -132 -132 d s 1829 1097 m -94 -93 d s
 1790 1097 m -55 -55 d s 1752 1097 m -17 -16 d s 1943 1097 m 36 -35 d s 1904 1097 m 75 -74 d s 1866 1097 m 113 -112 d s 1827 1097 m 152 -151 d s 1789 1097 m 190 -189 d s 1750 1097 m 229 -228 d s 1735 1075 m 244 -244 d s 1735 1036 m 244 -244 d s 1735
 998 m 244 -244 d s 1735 959 m 244 -244 d s 1735 921 m 244 -244 d s 1735 882 m 234 -234 d s 1735 844 m 195 -196 d s 1735 805 m 157 -157 d s 1735 767 m 118 -119 d s 1735 728 m 80 -80 d s 1735 690 m 41 -42 d s 1735 651 m 3 -3 d s 6 lw 3 lw 1857 873 m20
 6 lw 3 lw 2222 683 m -35 -35 d s 2222 721 m -73 -73 d s 2222 760 m -112 -112 d s 2222 798 m -150 -150 d s 2222 837 m -189 -189 d s 2222 875 m -227 -227 d s 2222 914 m -243 -244 d s 2222 952 m -243 -243 d s 2222 991 m -243 -244 d s 2222 1029 m -243
 -243 d s 2222 1068 m -243 -244 d s 2214 1097 m -235 -234 d s 2175 1097 m -196 -196 d s 2137 1097 m -158 -157 d s 2098 1097 m -119 -119 d s 2060 1097 m -81 -81 d s 2021 1097 m -42 -42 d s 1983 1097 m -4 -4 d s 2212 1097 m 10 -10 d s 2174 1097 m 48
 -48 d s 2135 1097 m 87 -87 d s 2097 1097 m 125 -125 d s 2058 1097 m 164 -164 d s 2020 1097 m 202 -202 d s 1981 1097 m 241 -241 d s 1979 1062 m 243 -244 d s 1979 1023 m 243 -244 d s 1979 985 m 243 -244 d s 1979 946 m 243 -244 d s 1979 908 m 243 -244
 d s 1979 869 m 221 -221 d s 1979 831 m 182 -183 d s 1979 792 m 144 -144 d s 1979 754 m 105 -106 d s 1979 715 m 67 -67 d s 1979 677 m 28 -29 d s 6 lw 3 lw 2100 873 m20 6 lw 3 lw 272 231 m 1950 X s 272 270 m -39 Y s 394 251 m -20 Y s 516 251 m -20 Y s
 638 251 m -20 Y s 760 270 m -39 Y s 882 251 m -20 Y s 1003 251 m -20 Y s 1125 251 m -20 Y s 1247 270 m -39 Y s 1369 251 m -20 Y s 1491 251 m -20 Y s 1613 251 m -20 Y s 1735 270 m -39 Y s 1857 251 m -20 Y s 1979 251 m -20 Y s 2100 251 m -20 Y s 2222
 270 m -39 Y s
 gsave  2268 1538 0 0 C 254.141 172.685 t 0 r /Helvetica findfont 61.9061 sf 0 0 m (0) show NC gr 
 gsave  2268 1538 0 0 C 742.873 172.685 t 0 r /Helvetica findfont 61.9061 sf 0 0 m (2) show NC gr 
 gsave  2268 1538 0 0 C 1228.35 172.685 t 0 r /Helvetica findfont 61.9061 sf 0 0 m (4) show NC gr 
 gsave  2268 1538 0 0 C 1717.08 172.685 t 0 r /Helvetica findfont 61.9061 sf 0 0 m (6) show NC gr 
 gsave  2268 1538 0 0 C 2205.81 172.685 t 0 r /Helvetica findfont 61.9061 sf 0 0 m (8) show NC gr 
 gsave  2268 1538 0 0 C 1684.5 81.4553 t 0 r /Helvetica findfont 74.9389 sf 0 0 m (Bin mtx_mjj.root) show NC gr  272 1515 m 1950 X s 272 1475 m 40 Y s 394 1495 m 20 Y s 516 1495 m 20 Y s 638 1495 m 20 Y s 760 1475 m 40 Y s 882 1495 m 20 Y s 1003 1495
 m 20 Y s 1125 1495 m 20 Y s 1247 1475 m 40 Y s 1369 1495 m 20 Y s 1491 1495 m 20 Y s 1613 1495 m 20 Y s 1735 1475 m 40 Y s 1857 1495 m 20 Y s 1979 1495 m 20 Y s 2100 1495 m 20 Y s 2222 1475 m 40 Y s 272 231 m 1284 Y s 329 231 m -57 X s 301 263 m -29
 X s 301 295 m -29 X s 301 327 m -29 X s 329 359 m -57 X s 301 391 m -29 X s 301 423 m -29 X s 301 455 m -29 X s 329 488 m -57 X s 301 520 m -29 X s 301 552 m -29 X s 301 584 m -29 X s 329 616 m -57 X s 301 648 m -29 X s 301 680 m -29 X s 301 712 m
 -29 X s 329 744 m -57 X s 301 776 m -29 X s 301 809 m -29 X s 301 841 m -29 X s 329 873 m -57 X s 301 905 m -29 X s 301 937 m -29 X s 301 969 m -29 X s 329 1001 m -57 X s 301 1033 m -29 X s 301 1065 m -29 X s 301 1097 m -29 X s 329 1130 m -57 X s
 301 1162 m -29 X s 301 1194 m -29 X s 301 1226 m -29 X s 329 1258 m -57 X s 301 1290 m -29 X s 301 1322 m -29 X s 301 1354 m -29 X s 329 1386 m -57 X s 301 1418 m -29 X s 301 1451 m -29 X s 301 1483 m -29 X s 329 1515 m -57 X s 329 231 m -57 X s
 gsave  2268 1538 0 0 C 237.85 205.267 t 0 r /Helvetica findfont 61.9061 sf 0 0 m (1) show NC gr 
 gsave  2268 1538 0 0 C 205.267 205.267 t 0 r /Symbol findfont 61.9061 sf 0 0 m (-) show NC gr 
 gsave  2268 1538 0 0 C 175.944 338.854 t 0 r /Helvetica findfont 61.9061 sf 0 0 m (0.8) show NC gr 
 gsave  2268 1538 0 0 C 143.361 338.854 t 0 r /Symbol findfont 61.9061 sf 0 0 m (-) show NC gr 
 gsave  2268 1538 0 0 C 175.944 465.924 t 0 r /Helvetica findfont 61.9061 sf 0 0 m (0.6) show NC gr 
 gsave  2268 1538 0 0 C 143.361 465.924 t 0 r /Symbol findfont 61.9061 sf 0 0 m (-) show NC gr 
 gsave  2268 1538 0 0 C 175.944 596.253 t 0 r /Helvetica findfont 61.9061 sf 0 0 m (0.4) show NC gr 
 gsave  2268 1538 0 0 C 143.361 596.253 t 0 r /Symbol findfont 61.9061 sf 0 0 m (-) show NC gr 
 gsave  2268 1538 0 0 C 175.944 723.323 t 0 r /Helvetica findfont 61.9061 sf 0 0 m (0.2) show NC gr 
 gsave  2268 1538 0 0 C 143.361 723.323 t 0 r /Symbol findfont 61.9061 sf 0 0 m (-) show NC gr 
 gsave  2268 1538 0 0 C 228.075 850.394 t 0 r /Helvetica findfont 61.9061 sf 0 0 m (0) show NC gr 
 gsave  2268 1538 0 0 C 175.944 980.722 t 0 r /Helvetica findfont 61.9061 sf 0 0 m (0.2) show NC gr 
 gsave  2268 1538 0 0 C 175.944 1107.79 t 0 r /Helvetica findfont 61.9061 sf 0 0 m (0.4) show NC gr 
 gsave  2268 1538 0 0 C 175.944 1238.12 t 0 r /Helvetica findfont 61.9061 sf 0 0 m (0.6) show NC gr 
 gsave  2268 1538 0 0 C 175.944 1365.19 t 0 r /Helvetica findfont 61.9061 sf 0 0 m (0.8) show NC gr 
 gsave  2268 1538 0 0 C 237.85 1489 t 0 r /Helvetica findfont 61.9061 sf 0 0 m (1) show NC gr 
 gsave  2268 1538 0 0 C 127.07 1472.71 t 90 r /Helvetica findfont 74.9389 sf 0 0 m (>) show NC gr 
 gsave  2268 1538 0 0 C 149.878 1381.48 t 90 r /Helvetica findfont 52.1314 sf 0 0 m (true) show NC gr 
 gsave  2268 1538 0 0 C 97.7464 1381.48 t 90 r /Helvetica findfont 52.1314 sf 0 0 m (bin) show NC gr 
 gsave  2268 1538 0 0 C 127.07 1335.87 t 90 r /Symbol findfont 74.9389 sf 0 0 m (s) show NC gr 
 gsave  2268 1538 0 0 C 127.07 1309.8 t 90 r /Helvetica findfont 74.9389 sf 0 0 m (/) show NC gr 
 gsave  2268 1538 0 0 C 149.878 1218.57 t 90 r /Helvetica findfont 52.1314 sf 0 0 m (true) show NC gr 
 gsave  2268 1538 0 0 C 97.7464 1218.57 t 90 r /Helvetica findfont 52.1314 sf 0 0 m (bin) show NC gr 
 gsave  2268 1538 0 0 C 127.07 1172.96 t 90 r /Symbol findfont 74.9389 sf 0 0 m (s) show NC gr 
 gsave  2268 1538 0 0 C 127.07 1150.15 t 90 r /Helvetica findfont 74.9389 sf 0 0 m (\255) show NC gr 
 gsave  2268 1538 0 0 C 153.136 1081.73 t 90 r /Helvetica findfont 52.1314 sf 0 0 m (fit) show NC gr 
 gsave  2268 1538 0 0 C 81.4553 1081.73 t 90 r /Helvetica findfont 52.1314 sf 0 0 m (bin) show NC gr 
 gsave  2268 1538 0 0 C 123.812 1036.11 t 90 r /Symbol findfont 74.9389 sf 0 0 m (s) show NC gr  6 lw 72 1046 m -10 13 d s 62 1059 m 10 16 d s
 gsave  2268 1538 0 0 C 123.812 993.755 t 90 r /Helvetica findfont 74.9389 sf 0 0 m (<) show NC gr  3 lw 2222 231 m 1284 Y s 2166 231 m 56 X s 2194 263 m 28 X s 2194 295 m 28 X s 2194 327 m 28 X s 2166 359 m 56 X s 2194 391 m 28 X s 2194 423 m 28 X s
 2194 455 m 28 X s 2166 488 m 56 X s 2194 520 m 28 X s 2194 552 m 28 X s 2194 584 m 28 X s 2166 616 m 56 X s 2194 648 m 28 X s 2194 680 m 28 X s 2194 712 m 28 X s 2166 744 m 56 X s 2194 776 m 28 X s 2194 809 m 28 X s 2194 841 m 28 X s 2166 873 m 56 X
 s 2194 905 m 28 X s 2194 937 m 28 X s 2194 969 m 28 X s 2166 1001 m 56 X s 2194 1033 m 28 X s 2194 1065 m 28 X s 2194 1097 m 28 X s 2166 1130 m 56 X s 2194 1162 m 28 X s 2194 1194 m 28 X s 2194 1226 m 28 X s 2166 1258 m 56 X s 2194 1290 m 28 X s
 2194 1322 m 28 X s 2194 1354 m 28 X s 2166 1386 m 56 X s 2194 1418 m 28 X s 2194 1451 m 28 X s 2194 1483 m 28 X s 2166 1515 m 56 X s 2166 231 m 56 X s 6 lw 1 0 0 c black 3 lw 1 0 0 c 516 554 m -22 -22 d s 516 593 m -61 -61 d s 516 631 m -99 -99 d s
 516 670 m -137 -138 d s 516 708 m -176 -176 d s 516 747 m -214 -215 d s 516 785 m -244 -243 d s 516 824 m -244 -244 d s 516 862 m -244 -244 d s 516 901 m -244 -244 d s 516 939 m -244 -244 d s 516 978 m -244 -244 d s 516 1016 m -244 -244 d s 516 1055
 m -244 -244 d s 516 1093 m -244 -244 d s 516 1132 m -244 -244 d s 516 1170 m -244 -244 d s 516 1209 m -244 -244 d s 482 1213 m -210 -210 d s 443 1213 m -171 -171 d s 405 1213 m -133 -133 d s 366 1213 m -94 -94 d s 328 1213 m -56 -56 d s 289 1213 m
 -17 -17 d s 480 1213 m 36 -36 d s 442 1213 m 74 -74 d s 403 1213 m 113 -113 d s 365 1213 m 151 -151 d s 326 1213 m 190 -190 d s 288 1213 m 228 -228 d s 272 1190 m 244 -243 d s 272 1152 m 244 -244 d s 272 1113 m 244 -243 d s 272 1075 m 244 -244 d s
 272 1036 m 244 -243 d s 272 998 m 244 -244 d s 272 959 m 244 -243 d s 272 921 m 244 -244 d s 272 882 m 244 -243 d s 272 844 m 244 -244 d s 272 805 m 244 -243 d s 272 767 m 235 -235 d s 272 728 m 196 -196 d s 272 690 m 158 -158 d s 272 652 m 119 -120
 d s 272 613 m 81 -81 d s 272 575 m 42 -43 d s 272 536 m 4 -4 d s 6 lw black 3 lw 394 873 m20 6 lw 3 lw 1 0 0 c 760 683 m -9 -9 d s 760 721 m -48 -47 d s 760 760 m -86 -86 d s 760 798 m -125 -124 d s 760 837 m -163 -163 d s 760 875 m -202 -201 d s
 760 914 m -240 -240 d s 760 952 m -244 -244 d s 760 991 m -244 -244 d s 760 1029 m -244 -244 d s 760 1068 m -244 -244 d s 725 1072 m -209 -210 d s 687 1072 m -171 -171 d s 648 1072 m -132 -133 d s 610 1072 m -94 -94 d s 571 1072 m -55 -56 d s 533
 1072 m -17 -17 d s 737 1072 m 23 -23 d s 698 1072 m 62 -61 d s 660 1072 m 100 -100 d s 622 1072 m 138 -138 d s 583 1072 m 177 -177 d s 545 1072 m 215 -215 d s 516 1062 m 244 -244 d s 516 1023 m 244 -243 d s 516 985 m 244 -244 d s 516 947 m 244 -244
 d s 516 908 m 234 -234 d s 516 870 m 196 -196 d s 516 831 m 157 -157 d s 516 793 m 119 -119 d s 516 754 m 80 -80 d s 516 716 m 42 -42 d s 516 677 m 3 -3 d s 6 lw black 3 lw 638 873 m20 6 lw 3 lw 1 0 0 c 1003 696 m -9 -9 d s 1003 734 m -47 -47 d s
 1003 773 m -86 -86 d s 1003 811 m -124 -124 d s 1003 850 m -163 -163 d s 1003 888 m -201 -201 d s 1003 926 m -239 -239 d s 1003 965 m -243 -244 d s 1003 1003 m -243 -243 d s 1003 1042 m -243 -244 d s 982 1059 m -222 -222 d s 943 1059 m -183 -184 d s
 905 1059 m -145 -145 d s 867 1059 m -107 -107 d s 828 1059 m -68 -68 d s 790 1059 m -30 -30 d s 981 1059 m 22 -23 d s 942 1059 m 61 -61 d s 904 1059 m 99 -100 d s 865 1059 m 138 -138 d s 827 1059 m 176 -177 d s 788 1059 m 215 -215 d s 760 1049 m 243
 -244 d s 760 1011 m 243 -244 d s 760 972 m 243 -244 d s 760 934 m 243 -244 d s 760 895 m 208 -208 d s 760 857 m 170 -170 d s 760 818 m 131 -131 d s 760 780 m 93 -93 d s 760 741 m 54 -54 d s 760 703 m 16 -16 d s 6 lw black 3 lw 882 873 m20 6 lw 3 lw
 1 0 0 c 1247 670 m -9 -9 d s 1247 708 m -47 -47 d s 1247 747 m -86 -86 d s 1247 785 m -124 -124 d s 1247 824 m -163 -163 d s 1247 862 m -201 -201 d s 1247 901 m -240 -240 d s 1247 939 m -244 -243 d s 1247 978 m -244 -244 d s 1247 1016 m -244 -243 d
 s 1247 1055 m -244 -244 d s 1239 1085 m -236 -235 d s 1200 1085 m -197 -197 d s 1162 1085 m -159 -159 d s 1123 1085 m -120 -120 d s 1085 1085 m -82 -82 d s 1046 1085 m -43 -43 d s 1008 1085 m -5 -5 d s 1224 1085 m 23 -23 d s 1186 1085 m 61 -62 d s
 1147 1085 m 100 -100 d s 1109 1085 m 138 -139 d s 1071 1085 m 176 -177 d s 1032 1085 m 215 -216 d s 1003 1075 m 244 -244 d s 1003 1036 m 244 -244 d s 1003 998 m 244 -244 d s 1003 959 m 244 -244 d s 1003 921 m 244 -244 d s 1003 882 m 222 -221 d s
 1003 844 m 183 -183 d s 1003 805 m 145 -144 d s 1003 767 m 106 -106 d s 1003 728 m 68 -67 d s 1003 690 m 29 -29 d s 6 lw black 3 lw 1125 873 m20 6 lw 3 lw 1 0 0 c 1491 683 m -9 -9 d s 1491 721 m -48 -47 d s 1491 760 m -86 -86 d s 1491 798 m -125
 -124 d s 1491 837 m -163 -163 d s 1491 875 m -202 -201 d s 1491 914 m -240 -240 d s 1491 952 m -244 -244 d s 1491 991 m -244 -244 d s 1491 1029 m -244 -244 d s 1491 1068 m -244 -244 d s 1457 1072 m -210 -210 d s 1418 1072 m -171 -171 d s 1380 1072 m
 -133 -133 d s 1341 1072 m -94 -94 d s 1303 1072 m -56 -56 d s 1264 1072 m -17 -17 d s 1468 1072 m 23 -23 d s 1430 1072 m 61 -62 d s 1391 1072 m 100 -100 d s 1353 1072 m 138 -139 d s 1314 1072 m 177 -177 d s 1276 1072 m 215 -215 d s 1247 1062 m 244
 -244 d s 1247 1023 m 244 -243 d s 1247 985 m 244 -244 d s 1247 946 m 244 -243 d s 1247 908 m 234 -234 d s 1247 869 m 196 -195 d s 1247 831 m 157 -157 d s 1247 792 m 119 -118 d s 1247 754 m 80 -80 d s 1247 715 m 42 -41 d s 1247 677 m 4 -3 d s 6 lw
 black 3 lw 1369 873 m20 6 lw 3 lw 1 0 0 c 1735 734 m -35 -35 d s 1735 773 m -74 -74 d s 1735 811 m -112 -112 d s 1735 850 m -150 -151 d s 1735 888 m -189 -189 d s 1735 927 m -227 -228 d s 1735 965 m -244 -244 d s 1735 1004 m -244 -244 d s 1735 1042
 m -244 -244 d s 1700 1046 m -209 -209 d s 1662 1046 m -171 -171 d s 1623 1046 m -132 -132 d s 1585 1046 m -94 -94 d s 1546 1046 m -55 -55 d s 1508 1046 m -17 -17 d s 1725 1046 m 10 -10 d s 1686 1046 m 49 -48 d s 1648 1046 m 87 -87 d s 1609 1046 m
 126 -125 d s 1571 1046 m 164 -164 d s 1532 1046 m 203 -202 d s 1494 1046 m 241 -241 d s 1491 1010 m 244 -243 d s 1491 972 m 244 -244 d s 1491 933 m 234 -234 d s 1491 895 m 196 -196 d s 1491 857 m 157 -158 d s 1491 818 m 119 -119 d s 1491 780 m 80
 -81 d s 1491 741 m 42 -42 d s 1491 703 m 3 -4 d s 6 lw black 3 lw 1613 873 m20 6 lw 3 lw 1 0 0 c 1979 670 m -23 -22 d s 1979 709 m -61 -61 d s 1979 747 m -99 -99 d s 1979 786 m -138 -138 d s 1979 824 m -176 -176 d s 1979 863 m -215 -215 d s 1979 901
 m -244 -244 d s 1979 940 m -244 -244 d s 1979 978 m -244 -244 d s 1979 1016 m -244 -243 d s 1979 1055 m -244 -244 d s 1979 1093 m -244 -243 d s 1944 1097 m -209 -209 d s 1906 1097 m -171 -170 d s 1867 1097 m -132 -132 d s 1829 1097 m -94 -93 d s
 1790 1097 m -55 -55 d s 1752 1097 m -17 -16 d s 1943 1097 m 36 -35 d s 1904 1097 m 75 -74 d s 1866 1097 m 113 -112 d s 1827 1097 m 152 -151 d s 1789 1097 m 190 -189 d s 1750 1097 m 229 -228 d s 1735 1075 m 244 -244 d s 1735 1036 m 244 -244 d s 1735
 998 m 244 -244 d s 1735 959 m 244 -244 d s 1735 921 m 244 -244 d s 1735 882 m 234 -234 d s 1735 844 m 195 -196 d s 1735 805 m 157 -157 d s 1735 767 m 118 -119 d s 1735 728 m 80 -80 d s 1735 690 m 41 -42 d s 1735 651 m 3 -3 d s 6 lw black 3 lw 1857
 873 m20 6 lw 3 lw 1 0 0 c 2222 606 m -22 -22 d s 2222 645 m -60 -61 d s 2222 683 m -99 -99 d s 2222 721 m -137 -137 d s 2222 760 m -176 -176 d s 2222 798 m -214 -214 d s 2222 837 m -243 -244 d s 2222 875 m -243 -243 d s 2222 914 m -243 -244 d s 2222
 952 m -243 -243 d s 2222 991 m -243 -244 d s 2222 1029 m -243 -243 d s 2222 1068 m -243 -244 d s 2222 1106 m -243 -243 d s 2222 1145 m -243 -244 d s 2201 1162 m -222 -222 d s 2162 1162 m -183 -184 d s 2124 1162 m -145 -146 d s 2085 1162 m -106 -107
 d s 2047 1162 m -68 -69 d s 2008 1162 m -29 -30 d s 2186 1162 m 36 -36 d s 2148 1162 m 74 -75 d s 2110 1162 m 112 -113 d s 2071 1162 m 151 -152 d s 2033 1162 m 189 -190 d s 1994 1162 m 228 -229 d s 1979 1139 m 243 -244 d s 1979 1100 m 243 -244 d s
 1979 1062 m 243 -244 d s 1979 1023 m 243 -244 d s 1979 985 m 243 -244 d s 1979 946 m 243 -244 d s 1979 908 m 243 -244 d s 1979 869 m 243 -244 d s 1979 831 m 243 -244 d s 1979 792 m 208 -208 d s 1979 754 m 170 -170 d s 1979 715 m 131 -131 d s 1979
 677 m 93 -93 d s 1979 638 m 54 -54 d s 1979 600 m 16 -16 d s 6 lw black 3 lw 2100 873 m20 6 lw 1 0 0 c 9 lw 1 1 1 c black 1 0 0 c 272 793 m 244 X 134 Y 244 X -100 Y 243 X 9 Y 244 X -60 Y 244 X 75 Y 244 X -25 Y 244 X -38 Y 243 X s[ 4 8] 0 sd 1 1 1 c
 black 1 0 0 c 272 866 m 244 X -9 Y 244 X -1 Y 243 X 105 Y 244 X -97 Y 244 X -28 Y 244 X 45 Y 244 X -19 Y 243 X s black[  ] 0 sd 1 1 1 c black 272 816 m 244 X 81 Y 244 X -20 Y 243 X -15 Y 244 X -14 Y 244 X 3 Y 244 X -25 Y 244 X 42 Y 243 X s[ 4 8] 0
 sd 1 1 1 c black 272 866 m 244 X 7 Y 244 X -17 Y 243 X 105 Y 244 X -57 Y 244 X -68 Y 244 X 47 Y 244 X 6 Y 243 X s[  ] 0 sd 3 lw 1 1 1 c 453 354 454 1153 bf black
 gsave  2268 1538 0 0 C 566.929 1401.03 t 0 r /Helvetica findfont 68.4225 sf 0 0 m (Bin\255by\255bin \(low\)) show NC gr  1 0 0 c 9 lw 471 1419 m 79 X s black
 gsave  2268 1538 0 0 C 566.929 1225.09 t 0 r /Helvetica findfont 68.4225 sf 0 0 m (Matrix \(low\)) show NC gr  471 1242 m 79 X s 3 lw 1 1 1 c 453 230 454 308 bf black
 gsave  2268 1538 0 0 C 462.666 485.474 t 0 r /Helvetica findfont 68.4225 sf 0 0 m (S.M. expected uncertainties) show NC gr 
 gsave  2268 1538 0 0 C 566.929 407.277 t 0 r /Helvetica findfont 68.4225 sf 0 0 m (Bin\255by\255bin) show NC gr  1 0 0 c 550 434 m -39 -38 d s 527 450 m -54 -54 d s 488 450 m -17 -18 d s 512 450 m 38 -38 d s 474 450 m 54 -54 d s 471 415 m 18 -19 d s
 black 6 lw 471 450 m 79 X s 471 396 m 79 X s 550 396 m 54 Y s 471 396 m 54 Y s
 gsave  2268 1538 0 0 C 566.929 329.08 t 0 r /Helvetica findfont 68.4225 sf 0 0 m (Matrix) show NC gr  3 lw 550 357 m -38 -38 d s 527 373 m -54 -54 d s 488 373 m -17 -18 d s 512 373 m 38 -38 d s 474 373 m 54 -54 d s 471 338 m 18 -19 d s 6 lw 471 373
 m 79 X s 471 319 m 79 X s 550 319 m 54 Y s 471 319 m 54 Y s 3 lw 1 1 1 c 453 354 1361 1153 bf black
 gsave  2268 1538 0 0 C 1472.71 1401.03 t 0 r /Helvetica findfont 68.4225 sf 0 0 m (Bin\255by\255bin \(high\)) show NC gr  1 0 0 c[ 4 8] 0 sd 9 lw 1378 1419 m 79 X s black
 gsave  2268 1538 0 0 C 1472.71 1225.09 t 0 r /Helvetica findfont 68.4225 sf 0 0 m (Matrix \(high\)) show NC gr  1378 1242 m 79 X s[  ] 0 sd 3 lw 272 231 m 1950 X s 272 270 m -39 Y s 394 251 m -20 Y s 516 251 m -20 Y s 638 251 m -20 Y s 760 270 m -39
 Y s 882 251 m -20 Y s 1003 251 m -20 Y s 1125 251 m -20 Y s 1247 270 m -39 Y s 1369 251 m -20 Y s 1491 251 m -20 Y s 1613 251 m -20 Y s 1735 270 m -39 Y s 1857 251 m -20 Y s 1979 251 m -20 Y s 2100 251 m -20 Y s 2222 270 m -39 Y s 272 1515 m 1950 X
 s 272 1475 m 40 Y s 394 1495 m 20 Y s 516 1495 m 20 Y s 638 1495 m 20 Y s 760 1475 m 40 Y s 882 1495 m 20 Y s 1003 1495 m 20 Y s 1125 1495 m 20 Y s 1247 1475 m 40 Y s 1369 1495 m 20 Y s 1491 1495 m 20 Y s 1613 1495 m 20 Y s 1735 1475 m 40 Y s 1857
 1495 m 20 Y s 1979 1495 m 20 Y s 2100 1495 m 20 Y s 2222 1475 m 40 Y s 272 231 m 1284 Y s 329 231 m -57 X s 301 263 m -29 X s 301 295 m -29 X s 301 327 m -29 X s 329 359 m -57 X s 301 391 m -29 X s 301 423 m -29 X s 301 455 m -29 X s 329 488 m -57 X
 s 301 520 m -29 X s 301 552 m -29 X s 301 584 m -29 X s 329 616 m -57 X s 301 648 m -29 X s 301 680 m -29 X s 301 712 m -29 X s 329 744 m -57 X s 301 776 m -29 X s 301 809 m -29 X s 301 841 m -29 X s 329 873 m -57 X s 301 905 m -29 X s 301 937 m -29
 X s 301 969 m -29 X s 329 1001 m -57 X s 301 1033 m -29 X s 301 1065 m -29 X s 301 1097 m -29 X s 329 1130 m -57 X s 301 1162 m -29 X s 301 1194 m -29 X s 301 1226 m -29 X s 329 1258 m -57 X s 301 1290 m -29 X s 301 1322 m -29 X s 301 1354 m -29 X s
 329 1386 m -57 X s 301 1418 m -29 X s 301 1451 m -29 X s 301 1483 m -29 X s 329 1515 m -57 X s 329 231 m -57 X s 2222 231 m 1284 Y s 2166 231 m 56 X s 2194 263 m 28 X s 2194 295 m 28 X s 2194 327 m 28 X s 2166 359 m 56 X s 2194 391 m 28 X s 2194 423
 m 28 X s 2194 455 m 28 X s 2166 488 m 56 X s 2194 520 m 28 X s 2194 552 m 28 X s 2194 584 m 28 X s 2166 616 m 56 X s 2194 648 m 28 X s 2194 680 m 28 X s 2194 712 m 28 X s 2166 744 m 56 X s 2194 776 m 28 X s 2194 809 m 28 X s 2194 841 m 28 X s 2166
 873 m 56 X s 2194 905 m 28 X s 2194 937 m 28 X s 2194 969 m 28 X s 2166 1001 m 56 X s 2194 1033 m 28 X s 2194 1065 m 28 X s 2194 1097 m 28 X s 2166 1130 m 56 X s 2194 1162 m 28 X s 2194 1194 m 28 X s 2194 1226 m 28 X s 2166 1258 m 56 X s 2194 1290 m
 28 X s 2194 1322 m 28 X s 2194 1354 m 28 X s 2166 1386 m 56 X s 2194 1418 m 28 X s 2194 1451 m 28 X s 2194 1483 m 28 X s 2166 1515 m 56 X s 2166 231 m 56 X s
 gr  gr showpage
end
%%EOF
