%!PS-Adobe-2.0 EPSF-2.0
%%BoundingBox:  0 0 567 384
%%Title: plots/iter_2/iterationsToys_ws_mtx_mjj/ccBelts_0_iter2.eps: 
%%Creator: ROOT Version 6.16/00
%%CreationDate: Fri Nov 13 20:34:36 2020
%%DocumentNeededResources: ProcSet (FontSetInit)
%%EndComments
%%BeginProlog
80 dict begin
/s {stroke} def /l {lineto} def /m {moveto} def /t {translate} def
/r {rotate} def /rl {roll}  def /R {repeat} def
/d {rlineto} def /rm {rmoveto} def /gr {grestore} def /f {eofill} def
/c {setrgbcolor} def /black {0 setgray} def /sd {setdash} def
/cl {closepath} def /sf {scalefont setfont} def /lw {setlinewidth} def
/box {m dup 0 exch d exch 0 d 0 exch neg d cl} def
/NC{systemdict begin initclip end}def/C{NC box clip newpath}def
/bl {box s} def /bf {gsave box gsave f grestore 1 lw [] 0 sd s grestore} def /Y { 0 exch d} def /X { 0 d} def 
/K {{pop pop 0 moveto} exch kshow} bind def
/ita {/ang 15 def gsave [1 0 ang dup sin exch cos div 1 0 0] concat} def 
/mp {newpath /y exch def /x exch def} def
/side {[w .77 mul w .23 mul] .385 w mul sd w 0 l currentpoint t -144 r} def
/mr {mp x y w2 0 360 arc} def /m24 {mr s} def /m20 {mr f} def
/mb {mp x y w2 add m w2 neg 0 d 0 w neg d w 0 d 0 w d cl} def
/mt {mp x y w2 add m w2 neg w neg d w 0 d cl} def
/w4 {w 4 div} def
/w6 {w 6 div} def
/w8 {w 8 div} def
/m21 {mb f} def /m25 {mb s} def /m22 {mt f} def /m26{mt s} def
/m23 {mp x y w2 sub m w2 w d w neg 0 d cl f} def
/m27 {mp x y w2 add m w3 neg w2 neg d w3 w2 neg d w3 w2 d cl s} def
/m28 {mp x w2 sub y w2 sub w3 add m w3 0 d  0 w3 neg d w3 0 d 0 w3 d w3 0 d  0 w3 d w3 neg 0 d 0 w3 d w3 neg 0 d 0 w3 neg d w3 neg 0 d cl s } def
/m29 {mp gsave x w2 sub y w2 add w3 sub m currentpoint t 4 {side} repeat cl fill gr} def
/m30 {mp gsave x w2 sub y w2 add w3 sub m currentpoint t 4 {side} repeat cl s gr} def
/m31 {mp x y w2 sub m 0 w d x w2 sub y m w 0 d x w2 sub y w2 add m w w neg d x w2 sub y w2 sub m w w d s} def
/m32 {mp x y w2 sub m w2 w d w neg 0 d cl s} def
/m33 {mp x y w2 add m w3 neg w2 neg d w3 w2 neg d w3 w2 d cl f} def
/m34 {mp x w2 sub y w2 sub w3 add m w3 0 d  0 w3 neg d w3 0 d 0 w3 d w3 0 d  0 w3 d w3 neg 0 d 0 w3 d w3 neg 0 d 0 w3 neg d w3 neg 0 d cl f } def
/m35 {mp x y w2 add m w2 neg w2 neg d w2 w2 neg d w2 w2 d w2 neg w2 d x y w2 sub m 0 w d x w2 sub y m w 0 d s} def
/m36 {mb x w2 sub y w2 add m w w neg d x w2 sub y w2 sub m w w d s} def
/m37 {mp x y m w4 neg w2 d w4 neg w2 neg d w2 0 d  w4 neg w2 neg d w2 0 d w4 neg w2 d w2 0 d w4 neg w2 d w4 neg w2 neg d cl s} def
/m38 {mp x w4 sub y w2 add m w4 neg w4 neg d 0 w2 neg d w4 w4 neg d w2 0 d w4 w4 d 0 w2 d w4 neg w4 d w2 neg 0 d x y w2 sub m 0 w d x w2 sub y m w 0 d cl s} def
/m39 {mp x y m w4 neg w2 d w4 neg w2 neg d w2 0 d  w4 neg w2 neg d w2 0 d w4 neg w2 d w2 0 d w4 neg w2 d w4 neg w2 neg d cl f} def
/m40 {mp x y m w4 w2 d w4 w4 neg d w2 neg w4 neg d w2 w4 neg d w4 neg w4 neg d w4 neg w2 d w4 neg w2 neg d w4 neg w4 d w2 w4 d w2 neg w4 d w4 w4 d w4 w2 neg d cl s} def
/m41 {mp x y m w4 w2 d w4 w4 neg d w2 neg w4 neg d w2 w4 neg d w4 neg w4 neg d w4 neg w2 d w4 neg w2 neg d w4 neg w4 d w2 w4 d w2 neg w4 d w4 w4 d w4 w2 neg d cl f} def
/m42 {mp x y w2 add m w8 neg w2 -3 4 div mul d w2 -3 4 div mul w8 neg d w2 3 4 div mul w8 neg d w8 w2 -3 4 div mul d w8 w2 3 4 div mul d w2 3 4 div mul w8 d w2 -3 4 div mul w8 d w8 neg w2 3 4 div mul d cl s} def
/m43 {mp x y w2 add m w8 neg w2 -3 4 div mul d w2 -3 4 div mul w8 neg d w2 3 4 div mul w8 neg d w8 w2 -3 4 div mul d w8 w2 3 4 div mul d w2 3 4 div mul w8 d w2 -3 4 div mul w8 d w8 neg w2 3 4 div mul d cl f} def
/m44 {mp x y m w6 neg w2 d w2 2 3 div mul 0 d w6 neg w2 neg d w2 w6 d 0 w2 -2 3 div mul d w2 neg w6 d w6 w2 neg d w2 -2 3 div mul 0 d w6 w2 d w2 neg w6 neg d 0 w2 2 3 div mul d w2 w6 neg d cl s} def
/m45 {mp x y m w6 neg w2 d w2 2 3 div mul 0 d w6 neg w2 neg d w2 w6 d 0 w2 -2 3 div mul d w2 neg w6 d w6 w2 neg d w2 -2 3 div mul 0 d w6 w2 d w2 neg w6 neg d 0 w2 2 3 div mul d w2 w6 neg d cl f} def
/m46 {mp x y w4 add m w4 neg w4 d w4 neg w4 neg d  w4 w4 neg d w4 neg w4 neg d w4 w4 neg d w4 w4 d w4 w4 neg d w4 w4 d w4 neg w4 d w4 w4 d w4 neg w4 d w4 neg w4 neg d cl s} def
/m47 {mp x y w4 add m w4 neg w4 d w4 neg w4 neg d w4 w4 neg d w4 neg w4 neg d  w4 w4 neg d w4 w4 d w4 w4 neg d w4 w4 d w4 neg w4 d w4 w4 d w4 neg w4 d w4 neg w4 neg d cl f} def
/m48 {mp x y w4 add m w4 neg w4 d w4 neg w4 neg d w4 w4 neg d  w4 neg w4 neg d w4 w4 neg d w4 w4 d w4 w4 neg d w4 w4 d w4 neg w4 d w4 w4 d w4 neg w4 d w4 neg w4 neg d  w4 w4 neg d w4 neg w4 neg d w4 neg w4 d w4 w4 d cl f} def
/m49 {mp x w2 sub w3 add y w2 sub w3 add m  0 w3 neg d w3 0 d 0 w3 d w3 0 d 0 w3 d w3 neg 0 d 0 w3 d w3 neg 0 d 0 w3 neg d w3 neg 0 d 0 w3 neg d w3 0 d 0 w3 d w3 0 d 0 w3 neg d w3 neg 0 d cl f } def
/m2 {mp x y w2 sub m 0 w d x w2 sub y m w 0 d s} def
/m5 {mp x w2 sub y w2 sub m w w d x w2 sub y w2 add m w w neg d s} def
%%IncludeResource: ProcSet (FontSetInit)
%%IncludeResource: font Times-Roman
%%IncludeResource: font Times-Italic
%%IncludeResource: font Times-Bold
%%IncludeResource: font Times-BoldItalic
%%IncludeResource: font Helvetica
%%IncludeResource: font Helvetica-Oblique
%%IncludeResource: font Helvetica-Bold
%%IncludeResource: font Helvetica-BoldOblique
%%IncludeResource: font Courier
%%IncludeResource: font Courier-Oblique
%%IncludeResource: font Courier-Bold
%%IncludeResource: font Courier-BoldOblique
%%IncludeResource: font Symbol
%%IncludeResource: font ZapfDingbats
/reEncode {exch findfont dup length dict begin {1 index /FID eq  {pop pop} {def} ifelse } forall /Encoding exch def currentdict end dup /FontName get exch definefont pop } def [/Times-Bold /Times-Italic /Times-BoldItalic /Helvetica /Helvetica-Oblique
 /Helvetica-Bold /Helvetica-BoldOblique /Courier /Courier-Oblique /Courier-Bold /Courier-BoldOblique /Times-Roman /AvantGarde-Book /AvantGarde-BookOblique /AvantGarde-Demi /AvantGarde-DemiOblique /Bookman-Demi /Bookman-DemiItalic /Bookman-Light
 /Bookman-LightItalic /Helvetica-Narrow /Helvetica-Narrow-Bold /Helvetica-Narrow-BoldOblique /Helvetica-Narrow-Oblique /NewCenturySchlbk-Roman /NewCenturySchlbk-Bold /NewCenturySchlbk-BoldItalic /NewCenturySchlbk-Italic /Palatino-Bold
 /Palatino-BoldItalic /Palatino-Italic /Palatino-Roman ] {ISOLatin1Encoding reEncode } forall
%%EndProlog
%%BeginSetup
%%EndSetup
newpath  gsave  .25 .25 scale  gsave  0 0 t black[  ] 0 sd 3 lw 1 1 1 c 2268 1538 0 0 bf black 1 1 1 c 1950 1284 272 231 bf black 1950 1284 272 231 bl 1 1 1 c 6 lw black 1 1 1 c 272 629 m 1950 X s black 3 lw 272 231 m 1950 X s 333 270 m -39 Y s 442
 251 m -20 Y s 551 251 m -20 Y s 660 251 m -20 Y s 769 251 m -20 Y s 877 270 m -39 Y s 986 251 m -20 Y s 1095 251 m -20 Y s 1204 251 m -20 Y s 1313 251 m -20 Y s 1422 270 m -39 Y s 1531 251 m -20 Y s 1640 251 m -20 Y s 1748 251 m -20 Y s 1857 251 m
 -20 Y s 1966 270 m -39 Y s 333 270 m -39 Y s 1966 270 m -39 Y s 2075 251 m -20 Y s 2184 251 m -20 Y s
 gsave  2268 1538 0 0 C 306.272 172.685 t 0 r /Helvetica findfont 61.9061 sf 0 0 m (0.5) show NC gr 
 gsave  2268 1538 0 0 C 273.69 172.685 t 0 r /Symbol findfont 61.9061 sf 0 0 m (-) show NC gr 
 gsave  2268 1538 0 0 C 860.168 172.685 t 0 r /Helvetica findfont 61.9061 sf 0 0 m (0) show NC gr 
 gsave  2268 1538 0 0 C 1378.22 172.685 t 0 r /Helvetica findfont 61.9061 sf 0 0 m (0.5) show NC gr 
 gsave  2268 1538 0 0 C 1951.67 172.685 t 0 r /Helvetica findfont 61.9061 sf 0 0 m (1) show NC gr 
 gsave  2268 1538 0 0 C 2101.55 78.1971 t 0 r /Helvetica findfont 74.9389 sf 0 0 m ( [fb]) show NC gr 
 gsave  2268 1538 0 0 C 1987.51 52.1314 t 0 r /Helvetica findfont 52.1314 sf 0 0 m (fit) show NC gr 
 gsave  2268 1538 0 0 C 1987.51 110.779 t 0 r /Helvetica findfont 52.1314 sf 0 0 m (bin,0) show NC gr 
 gsave  2268 1538 0 0 C 1941.9 78.1971 t 0 r /Symbol findfont 74.9389 sf 0 0 m (s) show NC gr  272 1515 m 1950 X s 333 1475 m 40 Y s 442 1495 m 20 Y s 551 1495 m 20 Y s 660 1495 m 20 Y s 769 1495 m 20 Y s 877 1475 m 40 Y s 986 1495 m 20 Y s 1095 1495
 m 20 Y s 1204 1495 m 20 Y s 1313 1495 m 20 Y s 1422 1475 m 40 Y s 1531 1495 m 20 Y s 1640 1495 m 20 Y s 1748 1495 m 20 Y s 1857 1495 m 20 Y s 1966 1475 m 40 Y s 333 1475 m 40 Y s 1966 1475 m 40 Y s 2075 1495 m 20 Y s 2184 1495 m 20 Y s 272 231 m
 1284 Y s 329 342 m -57 X s 301 378 m -29 X s 301 414 m -29 X s 301 450 m -29 X s 329 486 m -57 X s 301 522 m -29 X s 301 558 m -29 X s 301 593 m -29 X s 329 629 m -57 X s 301 665 m -29 X s 301 701 m -29 X s 301 737 m -29 X s 329 773 m -57 X s 301
 808 m -29 X s 301 844 m -29 X s 301 880 m -29 X s 329 916 m -57 X s 301 952 m -29 X s 301 988 m -29 X s 301 1024 m -29 X s 329 1059 m -57 X s 301 1095 m -29 X s 301 1131 m -29 X s 301 1167 m -29 X s 329 1203 m -57 X s 301 1239 m -29 X s 301 1274 m
 -29 X s 301 1310 m -29 X s 329 1346 m -57 X s 301 1382 m -29 X s 301 1418 m -29 X s 301 1454 m -29 X s 329 1490 m -57 X s 329 342 m -57 X s 301 307 m -29 X s 301 271 m -29 X s 301 235 m -29 X s 329 1490 m -57 X s
 gsave  2268 1538 0 0 C 175.944 322.563 t 0 r /Helvetica findfont 61.9061 sf 0 0 m (0.4) show NC gr 
 gsave  2268 1538 0 0 C 143.361 322.563 t 0 r /Symbol findfont 61.9061 sf 0 0 m (-) show NC gr 
 gsave  2268 1538 0 0 C 175.944 465.924 t 0 r /Helvetica findfont 61.9061 sf 0 0 m (0.2) show NC gr 
 gsave  2268 1538 0 0 C 143.361 465.924 t 0 r /Symbol findfont 61.9061 sf 0 0 m (-) show NC gr 
 gsave  2268 1538 0 0 C 228.075 609.286 t 0 r /Helvetica findfont 61.9061 sf 0 0 m (0) show NC gr 
 gsave  2268 1538 0 0 C 175.944 752.647 t 0 r /Helvetica findfont 61.9061 sf 0 0 m (0.2) show NC gr 
 gsave  2268 1538 0 0 C 175.944 896.009 t 0 r /Helvetica findfont 61.9061 sf 0 0 m (0.4) show NC gr 
 gsave  2268 1538 0 0 C 175.944 1039.37 t 0 r /Helvetica findfont 61.9061 sf 0 0 m (0.6) show NC gr 
 gsave  2268 1538 0 0 C 175.944 1182.73 t 0 r /Helvetica findfont 61.9061 sf 0 0 m (0.8) show NC gr 
 gsave  2268 1538 0 0 C 237.85 1322.83 t 0 r /Helvetica findfont 61.9061 sf 0 0 m (1) show NC gr 
 gsave  2268 1538 0 0 C 175.944 1466.2 t 0 r /Helvetica findfont 61.9061 sf 0 0 m (1.2) show NC gr 
 gsave  2268 1538 0 0 C 120.554 1394.52 t 90 r /Helvetica findfont 74.9389 sf 0 0 m ( [fb]) show NC gr 
 gsave  2268 1538 0 0 C 146.62 1280.48 t 90 r /Helvetica findfont 52.1314 sf 0 0 m (true) show NC gr 
 gsave  2268 1538 0 0 C 87.9718 1280.48 t 90 r /Helvetica findfont 52.1314 sf 0 0 m (bin,0) show NC gr 
 gsave  2268 1538 0 0 C 120.554 1234.86 t 90 r /Symbol findfont 74.9389 sf 0 0 m (s) show NC gr  2222 231 m 1284 Y s 2166 342 m 56 X s 2194 378 m 28 X s 2194 414 m 28 X s 2194 450 m 28 X s 2166 486 m 56 X s 2194 522 m 28 X s 2194 558 m 28 X s 2194
 593 m 28 X s 2166 629 m 56 X s 2194 665 m 28 X s 2194 701 m 28 X s 2194 737 m 28 X s 2166 773 m 56 X s 2194 808 m 28 X s 2194 844 m 28 X s 2194 880 m 28 X s 2166 916 m 56 X s 2194 952 m 28 X s 2194 988 m 28 X s 2194 1024 m 28 X s 2166 1059 m 56 X s
 2194 1095 m 28 X s 2194 1131 m 28 X s 2194 1167 m 28 X s 2166 1203 m 56 X s 2194 1239 m 28 X s 2194 1274 m 28 X s 2194 1310 m 28 X s 2166 1346 m 56 X s 2194 1382 m 28 X s 2194 1418 m 28 X s 2194 1454 m 28 X s 2166 1490 m 56 X s 2166 342 m 56 X s
 2194 307 m 28 X s 2194 271 m 28 X s 2194 235 m 28 X s 2166 1490 m 56 X s 1 0 0 c 1 1 1 c 1 0 0 c 34 22 889 637 bl 1 1 1 c 1 0 0 c 34 23 304 701 bl 1 1 1 c 1 0 0 c 34 23 499 701 bl 1 1 1 c 1 0 0 c 35 23 596 701 bl 1 1 1 c 1 0 0 c 34 23 694 701 bl 1 1
 1 c 1 0 0 c 34 23 694 765 bl 1 1 1 c 1 0 0 c 59 39 779 757 bl 1 1 1 c 1 0 0 c 35 23 791 829 bl 1 1 1 c 1 0 0 c 98 64 857 809 bl 1 1 1 c 1 0 0 c 60 40 876 885 bl 1 1 1 c 1 0 0 c 49 32 979 889 bl 1 1 1 c 1 0 0 c 34 22 1084 958 bl 1 1 1 c 1 0 0 c 60 39
 1071 1014 bl 1 1 1 c 1 0 0 c 59 39 1169 1014 bl 1 1 1 c 1 0 0 c 85 55 1156 1070 bl 1 1 1 c 1 0 0 c 48 33 1272 1081 bl 1 1 1 c 1 0 0 c 48 32 1272 1146 bl 1 1 1 c 1 0 0 c 34 22 1474 1215 bl 1 1 1 c 1 0 0 c 34 23 1669 1407 bl 1 1 1 c black 1 1 1 c
 black 34 22 889 637 bl 1 1 1 c black 35 23 401 701 bl 1 1 1 c black 34 23 499 701 bl 1 1 1 c black 49 32 589 696 bl 1 1 1 c black 34 23 694 765 bl 1 1 1 c black 69 45 774 754 bl 1 1 1 c black 35 23 791 829 bl 1 1 1 c black 98 64 857 809 bl 1 1 1 c
 black 48 32 882 889 bl 1 1 1 c black 59 40 974 885 bl 1 1 1 c black 34 22 1084 958 bl 1 1 1 c black 60 39 1071 1014 bl 1 1 1 c black 59 39 1169 1014 bl 1 1 1 c black 91 60 1153 1067 bl 1 1 1 c black 34 23 1279 1086 bl 1 1 1 c black 34 23 1279 1150
 bl 1 1 1 c black 35 23 1376 1150 bl 1 1 1 c black 34 22 1474 1215 bl 1 1 1 c black 34 23 1669 1407 bl 1 1 1 c 0 0 1 c 1 1 1 c 0 0 1 c 34 22 889 637 bl 1 1 1 c 0 0 1 c 69 45 871 690 bl 1 1 1 c 0 0 1 c 69 45 871 754 bl 1 1 1 c 0 0 1 c 98 64 857 809 bl
 1 1 1 c 0 0 1 c 77 51 867 879 bl 1 1 1 c 0 0 1 c 34 22 889 958 bl 1 1 1 c 0 0 1 c 84 56 864 1005 bl 1 1 1 c 0 0 1 c 98 65 857 1065 bl 1 1 1 c 0 0 1 c 48 32 882 1146 bl 1 1 1 c 0 0 1 c 34 22 889 1215 bl 1 1 1 c 0 0 1 c 34 23 889 1407 bl 1 1 1 c
 black[ 12 12] 0 sd 9 lw 1 1 1 c black 321 648 m 97 X 87 -1 d 11 1 d 28 5 d 32 8 d 37 10 d 67 20 d 21 8 d 10 5 d 16 10 d 25 18 d 35 28 d 17 11 d 4 2 d 26 13 d 29 12 d 32 10 d 11 3 d 97 14 d 16 7 d 20 12 d 33 24 d 29 22 d 34 26 d 57 46 d 6 5 d 60 44 d
 28 19 d 10 6 d 39 22 d 27 14 d 21 8 d 11 3 d 17 3 d 80 4 d 56 10 d 15 5 d 13 6 d 14 10 d 10 10 d 13 13 d 13 17 d 26 37 d 18 24 d 13 16 d 4 4 d 98 80 d 15 15 d 25 29 d 23 26 d 12 11 d 11 9 d 11 6 d 12 5 d 13 2 d 73 -7 d 7 2 d 9 4 d 12 10 d 18 15 d 8
 5 d 7 3 d 7 X 6 -2 d 5 -4 d 6 -7 d 5 -8 d 4 -10 d 3 -8 d 7 -20 d 6 -22 d 6 -24 d 6 -26 d 6 -27 d 5 -29 d 5 -30 d 6 -32 d 5 -35 d 4 -36 d 5 -38 d 5 -41 d 4 -43 d 5 -44 d 4 -48 d 3 -43 d 4 -48 d 3 -48 d 3 -52 d 3 -48 d 3 -55 d s[  ] 0 sd 1 1 1 c black
 321 654 m 34 -18 d 32 -12 d 31 -7 d 31 -4 d 43 1 d 24 3 d 6 3 d 6 8 d 8 16 d 24 59 d 8 18 d 7 10 d 6 4 d 5 -1 d 4 -4 d 5 -8 d 4 -12 d 5 -18 d 4 -18 d 3 -23 d 2 -13 d 6 -41 d 5 -43 d 5 -47 d 5 -51 d 6 -54 d 5 -58 d 5 -62 d 4 -51 d s 853 1515 m 5 -107
 d s 858 1408 m 8 -132 d 9 -154 d 8 -123 d 9 -107 d 8 -93 d 6 -61 d 6 -50 d 6 -38 d 7 -28 d 8 -16 d 8 -3 d 10 13 d 14 36 d 22 68 d 10 19 d 6 6 d 8 9 d 9 27 d 13 61 d 18 83 d 9 30 d 7 13 d 7 -2 d 6 -14 d 6 -27 d 5 -38 d 5 -46 d 5 -63 d 7 -96 d 6 -108
 d 7 -122 d 6 -136 d 4 -85 d s 1258 231 m 2 59 d s 1260 290 m 6 138 d 4 110 d 6 118 d 5 110 d 5 101 d 6 89 d 4 68 d 4 53 d 4 47 d 5 42 d 4 32 d 5 23 d 5 13 d 5 5 d 5 -4 d 7 -14 d 8 -28 d 15 -69 d 12 -59 d 7 -23 d 6 -13 d 6 -5 d 9 5 d 14 19 d 24 46 d
 12 13 d 8 1 d 8 -7 d 7 -16 d 6 -21 d 6 -30 d 3 -15 d 8 -55 d 9 -63 d 8 -74 d s 1516 827 m 8 -83 d 9 -92 d 8 -102 d 8 -94 d 8 -117 d 7 -108 d s 1744 231 m 1 11 d s 1745 242 m 6 183 d 5 146 d 5 152 d 6 141 d 6 134 d 5 113 d 6 104 d 4 70 d 4 67 d 5 54
 d 5 41 d 5 32 d 5 22 d 6 12 d 6 2 d 8 -11 d 9 -29 d 25 -90 d 7 -14 d 6 -4 d 2 1 d 23 10 d 75 -10 d 15 7 d 25 30 d 18 16 d 12 X 10 -9 d 8 -17 d 9 -27 d 12 -51 d 13 -68 d 11 -69 d 12 -85 d 12 -95 d 13 -114 d 11 -111 d 14 -146 d s 1 1 1 c black 321 654
 m 24 61 d 25 54 d 22 38 d 26 32 d 22 15 d 28 4 d 28 -8 d 20 -11 d 38 -31 d 20 -26 d 18 -29 d 17 -39 d 4 -10 d 6 -22 d 6 -35 d 7 -54 d 8 -83 d 22 -221 d 7 -58 d s 704 231 m 2 13 d s 706 244 m 3 48 d 2 22 d 5 90 d 5 98 d 5 107 d 5 115 d 5 123 d 5 133
 d 5 141 d 5 153 d 5 164 d 2 77 d s 876 1515 m -4 Y s 876 1511 m 7 -161 d 8 -160 d 6 -123 d 7 -117 d 2 -26 d 5 -72 d 6 -56 d 5 -43 d 6 -31 d 6 -18 d 7 -5 d 8 12 d 9 28 d 14 66 d 14 61 d 10 26 d 7 8 d 10 8 d 13 31 d 26 77 d 10 20 d 9 4 d 7 -10 d 8 -24
 d 6 -32 d 6 -47 d 3 -23 d 8 -87 d 9 -103 d 8 -118 d 9 -134 d 10 -168 d 3 -63 d s 1242 231 m 2 50 d s 1244 281 m 5 114 d 6 108 d 5 102 d 5 98 d 5 79 d 6 93 d 5 77 d 6 70 d 5 62 d 4 43 d 4 37 d 4 33 d 5 30 d 4 22 d 5 16 d 5 9 d 5 3 d 6 -3 d 7 -10 d 8
 -21 d 14 -47 d 12 -39 d 7 -15 d 6 -9 d 6 -3 d 9 3 d 14 14 d 24 33 d 12 10 d 8 1 d 8 -5 d 7 -11 d 7 -15 d 6 -21 d 2 -9 d 6 -27 d 6 -35 d 6 -44 d 7 -57 d 8 -70 d 11 -99 d 31 -308 d 8 -70 d 6 -54 d 7 -49 d 2 -11 d 11 -75 d s 1704 231 m 6 123 d s 1710
 354 m 6 119 d 7 116 d 6 112 d 7 107 d 6 101 d 6 95 d 7 90 d 6 84 d 6 79 d 7 70 d 6 67 d 4 35 d 6 56 d 3 30 d s 2094 1515 m 80 -886 d s 0 0 1 c[ 12 12] 0 sd 1 1 1 c black 0 0 1 c 321 629 m 1853 X s[  ] 0 sd 1 1 1 c black 0 0 1 c 321 629 m 1853 X s 1
 1 1 c black 0 0 1 c 321 629 m 1853 X s 1 0 0 c[ 12 12] 0 sd 1 1 1 c black 1 0 0 c 321 629 m 35 -2 d 33 X 29 2 d 42 5 d 24 5 d 24 6 d 8 3 d 19 8 d 21 12 d 43 25 d 14 6 d 25 10 d 67 22 d 6 3 d 20 10 d 54 32 d 20 9 d 3 2 d 26 9 d 32 9 d 40 8 d 17 2 d
 57 5 d 16 4 d 7 3 d 16 8 d 16 9 d 24 18 d 42 33 d 97 72 d 68 50 d 30 19 d 39 22 d 27 14 d 21 8 d 11 3 d 17 3 d 80 4 d 56 10 d 15 5 d 13 6 d 14 10 d 10 10 d 13 13 d 13 17 d 26 37 d 18 24 d 13 16 d 4 4 d 98 80 d 15 15 d 25 29 d 23 26 d 12 11 d 11 9 d
 11 6 d 12 5 d 13 2 d 73 -7 d 7 2 d 9 4 d 12 10 d 18 15 d 8 5 d 7 3 d 7 X 6 -2 d 5 -4 d 6 -7 d 5 -8 d 4 -10 d 3 -8 d 7 -20 d 6 -22 d 6 -24 d 6 -26 d 6 -27 d 5 -29 d 5 -30 d 6 -32 d 5 -35 d 4 -36 d 5 -38 d 5 -41 d 4 -43 d 5 -44 d 4 -48 d 3 -43 d 4 -48
 d 3 -48 d 3 -52 d 3 -48 d 3 -55 d s[  ] 0 sd 6 lw 1 1 1 c black 1 0 0 c 321 629 m 97 X 98 -12 d 27 11 d 63 38 d 7 3 d 16 -1 d 48 -26 d 12 5 d 9 12 d 9 21 d 4 10 d 7 26 d 7 39 d 9 58 d 11 88 d 24 198 d 9 67 d 8 48 d 8 35 d 5 20 d 6 11 d 3 2 d 7 -3 d
 6 -15 d 7 -26 d 8 -40 d 9 -59 d 16 -118 d 17 -134 d 9 -61 d 7 -40 d 7 -30 d 5 -15 d 10 -22 d 10 -12 d 13 -4 d 17 8 d 39 37 d 8 4 d 7 7 d 7 20 d 10 37 d 23 103 d 8 27 d 6 15 d 6 4 d 6 -4 d 6 -16 d 4 -23 d 5 -34 d 4 -37 d 5 -48 d 1 -15 d 6 -80 d 6 -87
 d 5 -96 d 6 -103 d 5 -113 d 4 -78 d s 1258 231 m 2 59 d s 1260 290 m 6 138 d 4 110 d 6 118 d 5 110 d 5 101 d 6 89 d 4 68 d 4 53 d 4 47 d 5 42 d 4 32 d 5 23 d 5 13 d 5 5 d 5 -4 d 7 -14 d 8 -28 d 15 -69 d 12 -59 d 7 -23 d 6 -13 d 6 -5 d 9 5 d 14 19 d
 24 46 d 12 13 d 8 1 d 8 -7 d 7 -16 d 6 -21 d 6 -30 d 3 -15 d 8 -55 d 9 -63 d 8 -74 d s 1516 827 m 8 -83 d 9 -92 d 8 -102 d 8 -94 d 8 -117 d 7 -108 d s 1744 231 m 1 11 d s 1745 242 m 6 183 d 5 146 d 5 152 d 6 141 d 6 134 d 5 113 d 6 104 d 4 70 d 4 67
 d 5 54 d 5 41 d 5 32 d 5 22 d 6 12 d 6 2 d 8 -11 d 9 -29 d 25 -90 d 7 -14 d 6 -4 d 2 1 d 23 10 d 75 -10 d 15 7 d 25 30 d 18 16 d 12 X 10 -9 d 8 -17 d 9 -27 d 12 -51 d 13 -68 d 11 -69 d 12 -85 d 12 -95 d 13 -114 d 11 -111 d 14 -146 d s 9 lw 1 1 1 c
 black 1 0 0 c 321 629 m 13 -12 d 13 -8 d 13 -5 d 13 -1 d 13 3 d 12 6 d 13 10 d 7 7 d 8 10 d 8 15 d 9 21 d 12 30 d 24 69 d 12 28 d 8 16 d 7 10 d 7 7 d 3 2 d 7 2 d 7 -3 d 8 -6 d 10 -13 d 11 -18 d 29 -50 d 9 -12 d 7 -8 d 8 -4 d 1 X 10 -4 d 39 -30 d 7
 -1 d 7 4 d 5 5 d 6 10 d 5 12 d 5 16 d 5 18 d 4 20 d 5 24 d 6 35 d 6 38 d 5 41 d 6 44 d 6 48 d 5 51 d 6 56 d 6 61 d 6 64 d 6 68 d 6 74 d 5 66 d 6 70 d s 836 1515 m 1 -20 d s 837 1495 m 11 -112 d 9 -88 d 9 -87 d 10 -78 d 10 -73 d 9 -57 d 11 -56 d 7
 -30 d 7 -23 d 9 -17 d 9 -9 d 12 X 16 13 d 24 24 d 11 4 d 2 X 7 3 d 9 14 d 11 29 d 19 60 d 8 18 d 7 10 d 7 2 d 6 -7 d 5 -14 d 6 -25 d 5 -27 d 5 -36 d 3 -27 d 6 -64 d 6 -71 d 7 -79 d 6 -88 d 6 -97 d 7 -106 d 7 -116 d 2 -54 d s 1242 231 m 2 50 d s 1244
 281 m 5 114 d 6 108 d 5 102 d 5 98 d 5 79 d 6 93 d 5 77 d 6 70 d 5 62 d 4 43 d 4 37 d 4 33 d 5 30 d 4 22 d 5 16 d 5 9 d 5 3 d 6 -3 d 7 -10 d 8 -21 d 14 -47 d 12 -39 d 7 -15 d 6 -9 d 6 -3 d 9 3 d 14 14 d 24 33 d 12 10 d 8 1 d 8 -5 d 7 -11 d 7 -15 d 6
 -21 d 2 -9 d 6 -27 d 6 -35 d 6 -44 d 7 -57 d 8 -70 d 11 -99 d 31 -308 d 8 -70 d 6 -54 d 7 -49 d 2 -11 d 11 -75 d s 1704 231 m 6 123 d s 1710 354 m 6 119 d 7 116 d 6 112 d 7 107 d 6 101 d 6 95 d 7 90 d 6 84 d 6 79 d 7 70 d 6 67 d 4 35 d 6 56 d 3 30 d
 s 2094 1515 m 80 -886 d s black 1247 231 m 1284 Y s
 gr  gr showpage
end
%%EOF
