%!PS-Adobe-2.0 EPSF-2.0
%%BoundingBox:  0 0 567 384
%%Title: plots/iter_1/iterationsToys_ws_mtx_mjj/ccProfiles_2_iter1.eps: 
%%Creator: ROOT Version 6.16/00
%%CreationDate: Fri Nov 13 20:34:22 2020
%%DocumentNeededResources: ProcSet (FontSetInit)
%%EndComments
%%BeginProlog
80 dict begin
/s {stroke} def /l {lineto} def /m {moveto} def /t {translate} def
/r {rotate} def /rl {roll}  def /R {repeat} def
/d {rlineto} def /rm {rmoveto} def /gr {grestore} def /f {eofill} def
/c {setrgbcolor} def /black {0 setgray} def /sd {setdash} def
/cl {closepath} def /sf {scalefont setfont} def /lw {setlinewidth} def
/box {m dup 0 exch d exch 0 d 0 exch neg d cl} def
/NC{systemdict begin initclip end}def/C{NC box clip newpath}def
/bl {box s} def /bf {gsave box gsave f grestore 1 lw [] 0 sd s grestore} def /Y { 0 exch d} def /X { 0 d} def 
/K {{pop pop 0 moveto} exch kshow} bind def
/ita {/ang 15 def gsave [1 0 ang dup sin exch cos div 1 0 0] concat} def 
/mp {newpath /y exch def /x exch def} def
/side {[w .77 mul w .23 mul] .385 w mul sd w 0 l currentpoint t -144 r} def
/mr {mp x y w2 0 360 arc} def /m24 {mr s} def /m20 {mr f} def
/mb {mp x y w2 add m w2 neg 0 d 0 w neg d w 0 d 0 w d cl} def
/mt {mp x y w2 add m w2 neg w neg d w 0 d cl} def
/w4 {w 4 div} def
/w6 {w 6 div} def
/w8 {w 8 div} def
/m21 {mb f} def /m25 {mb s} def /m22 {mt f} def /m26{mt s} def
/m23 {mp x y w2 sub m w2 w d w neg 0 d cl f} def
/m27 {mp x y w2 add m w3 neg w2 neg d w3 w2 neg d w3 w2 d cl s} def
/m28 {mp x w2 sub y w2 sub w3 add m w3 0 d  0 w3 neg d w3 0 d 0 w3 d w3 0 d  0 w3 d w3 neg 0 d 0 w3 d w3 neg 0 d 0 w3 neg d w3 neg 0 d cl s } def
/m29 {mp gsave x w2 sub y w2 add w3 sub m currentpoint t 4 {side} repeat cl fill gr} def
/m30 {mp gsave x w2 sub y w2 add w3 sub m currentpoint t 4 {side} repeat cl s gr} def
/m31 {mp x y w2 sub m 0 w d x w2 sub y m w 0 d x w2 sub y w2 add m w w neg d x w2 sub y w2 sub m w w d s} def
/m32 {mp x y w2 sub m w2 w d w neg 0 d cl s} def
/m33 {mp x y w2 add m w3 neg w2 neg d w3 w2 neg d w3 w2 d cl f} def
/m34 {mp x w2 sub y w2 sub w3 add m w3 0 d  0 w3 neg d w3 0 d 0 w3 d w3 0 d  0 w3 d w3 neg 0 d 0 w3 d w3 neg 0 d 0 w3 neg d w3 neg 0 d cl f } def
/m35 {mp x y w2 add m w2 neg w2 neg d w2 w2 neg d w2 w2 d w2 neg w2 d x y w2 sub m 0 w d x w2 sub y m w 0 d s} def
/m36 {mb x w2 sub y w2 add m w w neg d x w2 sub y w2 sub m w w d s} def
/m37 {mp x y m w4 neg w2 d w4 neg w2 neg d w2 0 d  w4 neg w2 neg d w2 0 d w4 neg w2 d w2 0 d w4 neg w2 d w4 neg w2 neg d cl s} def
/m38 {mp x w4 sub y w2 add m w4 neg w4 neg d 0 w2 neg d w4 w4 neg d w2 0 d w4 w4 d 0 w2 d w4 neg w4 d w2 neg 0 d x y w2 sub m 0 w d x w2 sub y m w 0 d cl s} def
/m39 {mp x y m w4 neg w2 d w4 neg w2 neg d w2 0 d  w4 neg w2 neg d w2 0 d w4 neg w2 d w2 0 d w4 neg w2 d w4 neg w2 neg d cl f} def
/m40 {mp x y m w4 w2 d w4 w4 neg d w2 neg w4 neg d w2 w4 neg d w4 neg w4 neg d w4 neg w2 d w4 neg w2 neg d w4 neg w4 d w2 w4 d w2 neg w4 d w4 w4 d w4 w2 neg d cl s} def
/m41 {mp x y m w4 w2 d w4 w4 neg d w2 neg w4 neg d w2 w4 neg d w4 neg w4 neg d w4 neg w2 d w4 neg w2 neg d w4 neg w4 d w2 w4 d w2 neg w4 d w4 w4 d w4 w2 neg d cl f} def
/m42 {mp x y w2 add m w8 neg w2 -3 4 div mul d w2 -3 4 div mul w8 neg d w2 3 4 div mul w8 neg d w8 w2 -3 4 div mul d w8 w2 3 4 div mul d w2 3 4 div mul w8 d w2 -3 4 div mul w8 d w8 neg w2 3 4 div mul d cl s} def
/m43 {mp x y w2 add m w8 neg w2 -3 4 div mul d w2 -3 4 div mul w8 neg d w2 3 4 div mul w8 neg d w8 w2 -3 4 div mul d w8 w2 3 4 div mul d w2 3 4 div mul w8 d w2 -3 4 div mul w8 d w8 neg w2 3 4 div mul d cl f} def
/m44 {mp x y m w6 neg w2 d w2 2 3 div mul 0 d w6 neg w2 neg d w2 w6 d 0 w2 -2 3 div mul d w2 neg w6 d w6 w2 neg d w2 -2 3 div mul 0 d w6 w2 d w2 neg w6 neg d 0 w2 2 3 div mul d w2 w6 neg d cl s} def
/m45 {mp x y m w6 neg w2 d w2 2 3 div mul 0 d w6 neg w2 neg d w2 w6 d 0 w2 -2 3 div mul d w2 neg w6 d w6 w2 neg d w2 -2 3 div mul 0 d w6 w2 d w2 neg w6 neg d 0 w2 2 3 div mul d w2 w6 neg d cl f} def
/m46 {mp x y w4 add m w4 neg w4 d w4 neg w4 neg d  w4 w4 neg d w4 neg w4 neg d w4 w4 neg d w4 w4 d w4 w4 neg d w4 w4 d w4 neg w4 d w4 w4 d w4 neg w4 d w4 neg w4 neg d cl s} def
/m47 {mp x y w4 add m w4 neg w4 d w4 neg w4 neg d w4 w4 neg d w4 neg w4 neg d  w4 w4 neg d w4 w4 d w4 w4 neg d w4 w4 d w4 neg w4 d w4 w4 d w4 neg w4 d w4 neg w4 neg d cl f} def
/m48 {mp x y w4 add m w4 neg w4 d w4 neg w4 neg d w4 w4 neg d  w4 neg w4 neg d w4 w4 neg d w4 w4 d w4 w4 neg d w4 w4 d w4 neg w4 d w4 w4 d w4 neg w4 d w4 neg w4 neg d  w4 w4 neg d w4 neg w4 neg d w4 neg w4 d w4 w4 d cl f} def
/m49 {mp x w2 sub w3 add y w2 sub w3 add m  0 w3 neg d w3 0 d 0 w3 d w3 0 d 0 w3 d w3 neg 0 d 0 w3 d w3 neg 0 d 0 w3 neg d w3 neg 0 d 0 w3 neg d w3 0 d 0 w3 d w3 0 d 0 w3 neg d w3 neg 0 d cl f } def
/m2 {mp x y w2 sub m 0 w d x w2 sub y m w 0 d s} def
/m5 {mp x w2 sub y w2 sub m w w d x w2 sub y w2 add m w w neg d s} def
%%IncludeResource: ProcSet (FontSetInit)
%%IncludeResource: font Times-Roman
%%IncludeResource: font Times-Italic
%%IncludeResource: font Times-Bold
%%IncludeResource: font Times-BoldItalic
%%IncludeResource: font Helvetica
%%IncludeResource: font Helvetica-Oblique
%%IncludeResource: font Helvetica-Bold
%%IncludeResource: font Helvetica-BoldOblique
%%IncludeResource: font Courier
%%IncludeResource: font Courier-Oblique
%%IncludeResource: font Courier-Bold
%%IncludeResource: font Courier-BoldOblique
%%IncludeResource: font Symbol
%%IncludeResource: font ZapfDingbats
/reEncode {exch findfont dup length dict begin {1 index /FID eq  {pop pop} {def} ifelse } forall /Encoding exch def currentdict end dup /FontName get exch definefont pop } def [/Times-Bold /Times-Italic /Times-BoldItalic /Helvetica /Helvetica-Oblique
 /Helvetica-Bold /Helvetica-BoldOblique /Courier /Courier-Oblique /Courier-Bold /Courier-BoldOblique /Times-Roman /AvantGarde-Book /AvantGarde-BookOblique /AvantGarde-Demi /AvantGarde-DemiOblique /Bookman-Demi /Bookman-DemiItalic /Bookman-Light
 /Bookman-LightItalic /Helvetica-Narrow /Helvetica-Narrow-Bold /Helvetica-Narrow-BoldOblique /Helvetica-Narrow-Oblique /NewCenturySchlbk-Roman /NewCenturySchlbk-Bold /NewCenturySchlbk-BoldItalic /NewCenturySchlbk-Italic /Palatino-Bold
 /Palatino-BoldItalic /Palatino-Italic /Palatino-Roman ] {ISOLatin1Encoding reEncode } forall
%%EndProlog
%%BeginSetup
%%EndSetup
newpath  gsave  .25 .25 scale  gsave  0 0 t black[  ] 0 sd 3 lw 1 1 1 c 2268 1538 0 0 bf black 1 1 1 c 1950 1284 272 231 bf black 1950 1284 272 231 bl 6 lw 1 1 1 c black 467 969 m 36 X s 529 969 m 36 X s 3 lw /w 26 def /w2 {w 2 div} def /w3 {w 3 div}
 def 516 969 m20 6 lw 662 921 m 36 X s 724 921 m 36 X s 3 lw 711 921 m20 6 lw 760 853 m 35 X s 821 853 m 36 X s 3 lw 808 853 m20 6 lw 857 776 m 36 X s 919 776 m 36 X s 3 lw 906 776 m20 6 lw 955 969 m 35 X s 1016 969 m 36 X s 3 lw 1003 969 m20 6 lw
 1052 969 m 36 X s 1114 969 m 36 X s 3 lw 1101 969 m20 6 lw 1150 921 m 35 X s 1212 921 m 35 X s 3 lw 1198 921 m20 6 lw 1247 926 m 36 X s 1309 926 m 36 X s 3 lw 1296 926 m20 6 lw 1345 942 m 35 X s 1407 942 m 35 X s 3 lw 1394 942 m20 6 lw 1442 841 m 36
 X s 1504 841 m 36 X s 3 lw 1491 841 m20 6 lw 1540 873 m 36 X s 1602 873 m 35 X s 3 lw 1589 873 m20 6 lw 1637 841 m 36 X s 1699 841 m 36 X s 3 lw 1686 841 m20 6 lw 1735 969 m 36 X s 1797 969 m 35 X s 3 lw 1784 969 m20 6 lw 1832 776 m 36 X s 1894 776
 m 36 X s 3 lw 1881 776 m20 6 lw 3 lw 272 231 m 1950 X s 799 270 m -39 Y s 937 251 m -20 Y s 1076 251 m -20 Y s 1214 251 m -20 Y s 1352 270 m -39 Y s 1491 251 m -20 Y s 1629 251 m -20 Y s 1767 251 m -20 Y s 1906 270 m -39 Y s 799 270 m -39 Y s 661
 251 m -20 Y s 522 251 m -20 Y s 384 251 m -20 Y s 1906 270 m -39 Y s 2044 251 m -20 Y s 2182 251 m -20 Y s
 gsave  2268 1538 0 0 C 755.906 172.685 t 0 r /Helvetica findfont 61.9061 sf 0 0 m (0.2) show NC gr 
 gsave  2268 1538 0 0 C 1309.8 172.685 t 0 r /Helvetica findfont 61.9061 sf 0 0 m (0.4) show NC gr 
 gsave  2268 1538 0 0 C 1860.44 172.685 t 0 r /Helvetica findfont 61.9061 sf 0 0 m (0.6) show NC gr 
 gsave  2268 1538 0 0 C 2101.55 78.1971 t 0 r /Helvetica findfont 74.9389 sf 0 0 m ( [fb]) show NC gr 
 gsave  2268 1538 0 0 C 1987.51 52.1314 t 0 r /Helvetica findfont 52.1314 sf 0 0 m (true) show NC gr 
 gsave  2268 1538 0 0 C 1987.51 110.779 t 0 r /Helvetica findfont 52.1314 sf 0 0 m (bin,2) show NC gr 
 gsave  2268 1538 0 0 C 1941.9 78.1971 t 0 r /Symbol findfont 74.9389 sf 0 0 m (s) show NC gr  272 1515 m 1950 X s 799 1475 m 40 Y s 937 1495 m 20 Y s 1076 1495 m 20 Y s 1214 1495 m 20 Y s 1352 1475 m 40 Y s 1491 1495 m 20 Y s 1629 1495 m 20 Y s 1767
 1495 m 20 Y s 1906 1475 m 40 Y s 799 1475 m 40 Y s 661 1495 m 20 Y s 522 1495 m 20 Y s 384 1495 m 20 Y s 1906 1475 m 40 Y s 2044 1495 m 20 Y s 2182 1495 m 20 Y s 272 231 m 1284 Y s 329 231 m -57 X s 301 263 m -29 X s 301 295 m -29 X s 301 327 m -29
 X s 329 359 m -57 X s 301 391 m -29 X s 301 423 m -29 X s 301 455 m -29 X s 329 488 m -57 X s 301 520 m -29 X s 301 552 m -29 X s 301 584 m -29 X s 329 616 m -57 X s 301 648 m -29 X s 301 680 m -29 X s 301 712 m -29 X s 329 744 m -57 X s 301 776 m
 -29 X s 301 809 m -29 X s 301 841 m -29 X s 329 873 m -57 X s 301 905 m -29 X s 301 937 m -29 X s 301 969 m -29 X s 329 1001 m -57 X s 301 1033 m -29 X s 301 1065 m -29 X s 301 1097 m -29 X s 329 1130 m -57 X s 301 1162 m -29 X s 301 1194 m -29 X s
 301 1226 m -29 X s 329 1258 m -57 X s 301 1290 m -29 X s 301 1322 m -29 X s 301 1354 m -29 X s 329 1386 m -57 X s 301 1418 m -29 X s 301 1451 m -29 X s 301 1483 m -29 X s 329 1515 m -57 X s 329 231 m -57 X s
 gsave  2268 1538 0 0 C 237.85 205.267 t 0 r /Helvetica findfont 61.9061 sf 0 0 m (1) show NC gr 
 gsave  2268 1538 0 0 C 205.267 205.267 t 0 r /Symbol findfont 61.9061 sf 0 0 m (-) show NC gr 
 gsave  2268 1538 0 0 C 175.944 338.854 t 0 r /Helvetica findfont 61.9061 sf 0 0 m (0.8) show NC gr 
 gsave  2268 1538 0 0 C 143.361 338.854 t 0 r /Symbol findfont 61.9061 sf 0 0 m (-) show NC gr 
 gsave  2268 1538 0 0 C 175.944 465.924 t 0 r /Helvetica findfont 61.9061 sf 0 0 m (0.6) show NC gr 
 gsave  2268 1538 0 0 C 143.361 465.924 t 0 r /Symbol findfont 61.9061 sf 0 0 m (-) show NC gr 
 gsave  2268 1538 0 0 C 175.944 596.253 t 0 r /Helvetica findfont 61.9061 sf 0 0 m (0.4) show NC gr 
 gsave  2268 1538 0 0 C 143.361 596.253 t 0 r /Symbol findfont 61.9061 sf 0 0 m (-) show NC gr 
 gsave  2268 1538 0 0 C 175.944 723.323 t 0 r /Helvetica findfont 61.9061 sf 0 0 m (0.2) show NC gr 
 gsave  2268 1538 0 0 C 143.361 723.323 t 0 r /Symbol findfont 61.9061 sf 0 0 m (-) show NC gr 
 gsave  2268 1538 0 0 C 228.075 850.394 t 0 r /Helvetica findfont 61.9061 sf 0 0 m (0) show NC gr 
 gsave  2268 1538 0 0 C 175.944 980.722 t 0 r /Helvetica findfont 61.9061 sf 0 0 m (0.2) show NC gr 
 gsave  2268 1538 0 0 C 175.944 1107.79 t 0 r /Helvetica findfont 61.9061 sf 0 0 m (0.4) show NC gr 
 gsave  2268 1538 0 0 C 175.944 1238.12 t 0 r /Helvetica findfont 61.9061 sf 0 0 m (0.6) show NC gr 
 gsave  2268 1538 0 0 C 175.944 1365.19 t 0 r /Helvetica findfont 61.9061 sf 0 0 m (0.8) show NC gr 
 gsave  2268 1538 0 0 C 237.85 1489 t 0 r /Helvetica findfont 61.9061 sf 0 0 m (1) show NC gr 
 gsave  2268 1538 0 0 C 130.329 1472.71 t 90 r /Helvetica findfont 74.9389 sf 0 0 m (>) show NC gr 
 gsave  2268 1538 0 0 C 153.136 1358.67 t 90 r /Helvetica findfont 52.1314 sf 0 0 m (true) show NC gr 
 gsave  2268 1538 0 0 C 94.4882 1358.67 t 90 r /Helvetica findfont 52.1314 sf 0 0 m (bin,2) show NC gr 
 gsave  2268 1538 0 0 C 130.329 1313.06 t 90 r /Symbol findfont 74.9389 sf 0 0 m (s) show NC gr 
 gsave  2268 1538 0 0 C 130.329 1286.99 t 90 r /Helvetica findfont 74.9389 sf 0 0 m (/) show NC gr 
 gsave  2268 1538 0 0 C 153.136 1172.96 t 90 r /Helvetica findfont 52.1314 sf 0 0 m (true) show NC gr 
 gsave  2268 1538 0 0 C 94.4882 1172.96 t 90 r /Helvetica findfont 52.1314 sf 0 0 m (bin,2) show NC gr 
 gsave  2268 1538 0 0 C 130.329 1127.34 t 90 r /Symbol findfont 74.9389 sf 0 0 m (s) show NC gr 
 gsave  2268 1538 0 0 C 130.329 1104.53 t 90 r /Helvetica findfont 74.9389 sf 0 0 m (\255) show NC gr 
 gsave  2268 1538 0 0 C 156.394 990.497 t 90 r /Helvetica findfont 52.1314 sf 0 0 m (fit) show NC gr 
 gsave  2268 1538 0 0 C 78.1971 990.497 t 90 r /Helvetica findfont 52.1314 sf 0 0 m (bin,2) show NC gr 
 gsave  2268 1538 0 0 C 127.07 944.882 t 90 r /Symbol findfont 74.9389 sf 0 0 m (s) show NC gr  6 lw 75 955 m -10 13 d s 65 968 m 10 16 d s
 gsave  2268 1538 0 0 C 127.07 902.525 t 90 r /Helvetica findfont 74.9389 sf 0 0 m (<) show NC gr  3 lw 2222 231 m 1284 Y s 2166 231 m 56 X s 2194 263 m 28 X s 2194 295 m 28 X s 2194 327 m 28 X s 2166 359 m 56 X s 2194 391 m 28 X s 2194 423 m 28 X s
 2194 455 m 28 X s 2166 488 m 56 X s 2194 520 m 28 X s 2194 552 m 28 X s 2194 584 m 28 X s 2166 616 m 56 X s 2194 648 m 28 X s 2194 680 m 28 X s 2194 712 m 28 X s 2166 744 m 56 X s 2194 776 m 28 X s 2194 809 m 28 X s 2194 841 m 28 X s 2166 873 m 56 X
 s 2194 905 m 28 X s 2194 937 m 28 X s 2194 969 m 28 X s 2166 1001 m 56 X s 2194 1033 m 28 X s 2194 1065 m 28 X s 2194 1097 m 28 X s 2166 1130 m 56 X s 2194 1162 m 28 X s 2194 1194 m 28 X s 2194 1226 m 28 X s 2166 1258 m 56 X s 2194 1290 m 28 X s
 2194 1322 m 28 X s 2194 1354 m 28 X s 2166 1386 m 56 X s 2194 1418 m 28 X s 2194 1451 m 28 X s 2194 1483 m 28 X s 2166 1515 m 56 X s 2166 231 m 56 X s 1 0 0 c 6 lw 1 1 1 c 1 0 0 c 467 969 m 36 X s 529 969 m 36 X s 3 lw 516 969 m25 6 lw 662 905 m 36
 X s 724 905 m 36 X s 3 lw 711 905 m25 6 lw 760 873 m 35 X s 821 873 m 36 X s 3 lw 808 873 m25 6 lw 857 776 m 36 X s 919 776 m 36 X s 3 lw 906 776 m25 6 lw 1150 921 m 35 X s 1212 921 m 35 X s 3 lw 1198 921 m25 6 lw 1247 926 m 36 X s 1309 926 m 36 X s
 3 lw 1296 926 m25 6 lw 1345 931 m 35 X s 1407 931 m 35 X s 3 lw 1394 931 m25 6 lw 1442 841 m 36 X s 1504 841 m 36 X s 3 lw 1491 841 m25 6 lw 1540 873 m 36 X s 1602 873 m 35 X s 3 lw 1589 873 m25 6 lw 1637 841 m 36 X s 1699 841 m 36 X s 3 lw 1686 841
 m25 6 lw 1735 969 m 36 X s 1797 969 m 35 X s 3 lw 1784 969 m25 6 lw 1832 776 m 36 X s 1894 776 m 36 X s 3 lw 1881 776 m25 6 lw 0 0 1 c 1 1 1 c 0 0 1 c 3 lw 321 873 418 873 516 873 613 873 711 873 808 873 906 873 1003 873 1101 873 1198 873 1296 873
 1394 873 1491 873 1589 873 1686 873 1784 873 1881 873 1979 873 2076 873 2174 873 20 { m35} R 6 lw black 3 lw 1 1 1 c 340 308 1701 1153 bf black
 gsave  2268 1538 0 0 C 2117.84 1407.55 t 0 r /Helvetica findfont 68.4225 sf 0 0 m (, bin 2) show NC gr 
 gsave  2268 1538 0 0 C 1707.3 1407.55 t 0 r /Helvetica-Bold findfont 68.4225 sf 0 0 m (mtx_mjj.root) show NC gr 
 gsave  2268 1538 0 0 C 1785.5 1329.35 t 0 r /Helvetica findfont 68.4225 sf 0 0 m (Matrix) show NC gr  6 lw 1714 1346 m 59 X s 1743 1359 m 10 Y s 1743 1333 m -10 Y s 3 lw 1743 1346 m20 6 lw
 gsave  2268 1538 0 0 C 1785.5 1254.41 t 0 r /Helvetica findfont 68.4225 sf 0 0 m (bin\255by\255bin) show NC gr  1 0 0 c 1714 1269 m 59 X s 1743 1282 m 10 Y s 1743 1256 m -10 Y s 3 lw 1743 1269 m25 6 lw black
 gsave  2268 1538 0 0 C 1814.82 1176.21 t 0 r /Helvetica findfont 68.4225 sf 0 0 m ( 0.22) show NC gr 
 gsave  2268 1538 0 0 C 1785.5 1176.21 t 0 r /Symbol findfont 68.4225 sf 0 0 m (t) show NC gr  0 0 1 c 1714 1192 m 59 X s 1 0 0 c[ 12 12] 0 sd 957 231 m 1284 Y s 1538 231 m 1284 Y s black[ 4 8] 0 sd 957 231 m 1284 Y s 1538 231 m 1284 Y s 0 0 1 c 1237
 231 m 1284 Y s 1257 231 m 1284 Y s black[  ] 0 sd 3 lw 1 1 1 c 567 153 1587 308 bf black
 gsave  2268 1538 0 0 C 1599.78 436.601 t 0 r /Helvetica findfont 68.4225 sf 0 0 m (68.3% CL) show NC gr 
 gsave  2268 1538 0 0 C 1726.85 397.502 t 0 r /Helvetica findfont 68.4225 sf 0 0 m (Matrix) show NC gr [ 4 8] 0 sd 6 lw 1609 404 m 99 X s
 gsave  2268 1538 0 0 C 1726.85 358.403 t 0 r /Helvetica findfont 68.4225 sf 0 0 m (bin\255by\255bin) show NC gr  1 0 0 c[ 12 12] 0 sd 1609 365 m 99 X s black
 gsave  2268 1538 0 0 C 1756.18 319.305 t 0 r /Helvetica findfont 68.4225 sf 0 0 m ( 0.22) show NC gr 
 gsave  2268 1538 0 0 C 1726.85 319.305 t 0 r /Symbol findfont 68.4225 sf 0 0 m (t) show NC gr  0 0 1 c[ 4 8] 0 sd 1609 327 m 99 X s
 gr  gr showpage
end
%%EOF
