%!PS-Adobe-2.0 EPSF-2.0
%%BoundingBox:  0 0 567 384
%%Title: plots/iter_2/iterationsToys_ws_DYjj/ccBelts_4_iter2.eps: 
%%Creator: ROOT Version 6.16/00
%%CreationDate: Fri Nov 13 20:48:43 2020
%%DocumentNeededResources: ProcSet (FontSetInit)
%%EndComments
%%BeginProlog
80 dict begin
/s {stroke} def /l {lineto} def /m {moveto} def /t {translate} def
/r {rotate} def /rl {roll}  def /R {repeat} def
/d {rlineto} def /rm {rmoveto} def /gr {grestore} def /f {eofill} def
/c {setrgbcolor} def /black {0 setgray} def /sd {setdash} def
/cl {closepath} def /sf {scalefont setfont} def /lw {setlinewidth} def
/box {m dup 0 exch d exch 0 d 0 exch neg d cl} def
/NC{systemdict begin initclip end}def/C{NC box clip newpath}def
/bl {box s} def /bf {gsave box gsave f grestore 1 lw [] 0 sd s grestore} def /Y { 0 exch d} def /X { 0 d} def 
/K {{pop pop 0 moveto} exch kshow} bind def
/ita {/ang 15 def gsave [1 0 ang dup sin exch cos div 1 0 0] concat} def 
/mp {newpath /y exch def /x exch def} def
/side {[w .77 mul w .23 mul] .385 w mul sd w 0 l currentpoint t -144 r} def
/mr {mp x y w2 0 360 arc} def /m24 {mr s} def /m20 {mr f} def
/mb {mp x y w2 add m w2 neg 0 d 0 w neg d w 0 d 0 w d cl} def
/mt {mp x y w2 add m w2 neg w neg d w 0 d cl} def
/w4 {w 4 div} def
/w6 {w 6 div} def
/w8 {w 8 div} def
/m21 {mb f} def /m25 {mb s} def /m22 {mt f} def /m26{mt s} def
/m23 {mp x y w2 sub m w2 w d w neg 0 d cl f} def
/m27 {mp x y w2 add m w3 neg w2 neg d w3 w2 neg d w3 w2 d cl s} def
/m28 {mp x w2 sub y w2 sub w3 add m w3 0 d  0 w3 neg d w3 0 d 0 w3 d w3 0 d  0 w3 d w3 neg 0 d 0 w3 d w3 neg 0 d 0 w3 neg d w3 neg 0 d cl s } def
/m29 {mp gsave x w2 sub y w2 add w3 sub m currentpoint t 4 {side} repeat cl fill gr} def
/m30 {mp gsave x w2 sub y w2 add w3 sub m currentpoint t 4 {side} repeat cl s gr} def
/m31 {mp x y w2 sub m 0 w d x w2 sub y m w 0 d x w2 sub y w2 add m w w neg d x w2 sub y w2 sub m w w d s} def
/m32 {mp x y w2 sub m w2 w d w neg 0 d cl s} def
/m33 {mp x y w2 add m w3 neg w2 neg d w3 w2 neg d w3 w2 d cl f} def
/m34 {mp x w2 sub y w2 sub w3 add m w3 0 d  0 w3 neg d w3 0 d 0 w3 d w3 0 d  0 w3 d w3 neg 0 d 0 w3 d w3 neg 0 d 0 w3 neg d w3 neg 0 d cl f } def
/m35 {mp x y w2 add m w2 neg w2 neg d w2 w2 neg d w2 w2 d w2 neg w2 d x y w2 sub m 0 w d x w2 sub y m w 0 d s} def
/m36 {mb x w2 sub y w2 add m w w neg d x w2 sub y w2 sub m w w d s} def
/m37 {mp x y m w4 neg w2 d w4 neg w2 neg d w2 0 d  w4 neg w2 neg d w2 0 d w4 neg w2 d w2 0 d w4 neg w2 d w4 neg w2 neg d cl s} def
/m38 {mp x w4 sub y w2 add m w4 neg w4 neg d 0 w2 neg d w4 w4 neg d w2 0 d w4 w4 d 0 w2 d w4 neg w4 d w2 neg 0 d x y w2 sub m 0 w d x w2 sub y m w 0 d cl s} def
/m39 {mp x y m w4 neg w2 d w4 neg w2 neg d w2 0 d  w4 neg w2 neg d w2 0 d w4 neg w2 d w2 0 d w4 neg w2 d w4 neg w2 neg d cl f} def
/m40 {mp x y m w4 w2 d w4 w4 neg d w2 neg w4 neg d w2 w4 neg d w4 neg w4 neg d w4 neg w2 d w4 neg w2 neg d w4 neg w4 d w2 w4 d w2 neg w4 d w4 w4 d w4 w2 neg d cl s} def
/m41 {mp x y m w4 w2 d w4 w4 neg d w2 neg w4 neg d w2 w4 neg d w4 neg w4 neg d w4 neg w2 d w4 neg w2 neg d w4 neg w4 d w2 w4 d w2 neg w4 d w4 w4 d w4 w2 neg d cl f} def
/m42 {mp x y w2 add m w8 neg w2 -3 4 div mul d w2 -3 4 div mul w8 neg d w2 3 4 div mul w8 neg d w8 w2 -3 4 div mul d w8 w2 3 4 div mul d w2 3 4 div mul w8 d w2 -3 4 div mul w8 d w8 neg w2 3 4 div mul d cl s} def
/m43 {mp x y w2 add m w8 neg w2 -3 4 div mul d w2 -3 4 div mul w8 neg d w2 3 4 div mul w8 neg d w8 w2 -3 4 div mul d w8 w2 3 4 div mul d w2 3 4 div mul w8 d w2 -3 4 div mul w8 d w8 neg w2 3 4 div mul d cl f} def
/m44 {mp x y m w6 neg w2 d w2 2 3 div mul 0 d w6 neg w2 neg d w2 w6 d 0 w2 -2 3 div mul d w2 neg w6 d w6 w2 neg d w2 -2 3 div mul 0 d w6 w2 d w2 neg w6 neg d 0 w2 2 3 div mul d w2 w6 neg d cl s} def
/m45 {mp x y m w6 neg w2 d w2 2 3 div mul 0 d w6 neg w2 neg d w2 w6 d 0 w2 -2 3 div mul d w2 neg w6 d w6 w2 neg d w2 -2 3 div mul 0 d w6 w2 d w2 neg w6 neg d 0 w2 2 3 div mul d w2 w6 neg d cl f} def
/m46 {mp x y w4 add m w4 neg w4 d w4 neg w4 neg d  w4 w4 neg d w4 neg w4 neg d w4 w4 neg d w4 w4 d w4 w4 neg d w4 w4 d w4 neg w4 d w4 w4 d w4 neg w4 d w4 neg w4 neg d cl s} def
/m47 {mp x y w4 add m w4 neg w4 d w4 neg w4 neg d w4 w4 neg d w4 neg w4 neg d  w4 w4 neg d w4 w4 d w4 w4 neg d w4 w4 d w4 neg w4 d w4 w4 d w4 neg w4 d w4 neg w4 neg d cl f} def
/m48 {mp x y w4 add m w4 neg w4 d w4 neg w4 neg d w4 w4 neg d  w4 neg w4 neg d w4 w4 neg d w4 w4 d w4 w4 neg d w4 w4 d w4 neg w4 d w4 w4 d w4 neg w4 d w4 neg w4 neg d  w4 w4 neg d w4 neg w4 neg d w4 neg w4 d w4 w4 d cl f} def
/m49 {mp x w2 sub w3 add y w2 sub w3 add m  0 w3 neg d w3 0 d 0 w3 d w3 0 d 0 w3 d w3 neg 0 d 0 w3 d w3 neg 0 d 0 w3 neg d w3 neg 0 d 0 w3 neg d w3 0 d 0 w3 d w3 0 d 0 w3 neg d w3 neg 0 d cl f } def
/m2 {mp x y w2 sub m 0 w d x w2 sub y m w 0 d s} def
/m5 {mp x w2 sub y w2 sub m w w d x w2 sub y w2 add m w w neg d s} def
%%IncludeResource: ProcSet (FontSetInit)
%%IncludeResource: font Times-Roman
%%IncludeResource: font Times-Italic
%%IncludeResource: font Times-Bold
%%IncludeResource: font Times-BoldItalic
%%IncludeResource: font Helvetica
%%IncludeResource: font Helvetica-Oblique
%%IncludeResource: font Helvetica-Bold
%%IncludeResource: font Helvetica-BoldOblique
%%IncludeResource: font Courier
%%IncludeResource: font Courier-Oblique
%%IncludeResource: font Courier-Bold
%%IncludeResource: font Courier-BoldOblique
%%IncludeResource: font Symbol
%%IncludeResource: font ZapfDingbats
/reEncode {exch findfont dup length dict begin {1 index /FID eq  {pop pop} {def} ifelse } forall /Encoding exch def currentdict end dup /FontName get exch definefont pop } def [/Times-Bold /Times-Italic /Times-BoldItalic /Helvetica /Helvetica-Oblique
 /Helvetica-Bold /Helvetica-BoldOblique /Courier /Courier-Oblique /Courier-Bold /Courier-BoldOblique /Times-Roman /AvantGarde-Book /AvantGarde-BookOblique /AvantGarde-Demi /AvantGarde-DemiOblique /Bookman-Demi /Bookman-DemiItalic /Bookman-Light
 /Bookman-LightItalic /Helvetica-Narrow /Helvetica-Narrow-Bold /Helvetica-Narrow-BoldOblique /Helvetica-Narrow-Oblique /NewCenturySchlbk-Roman /NewCenturySchlbk-Bold /NewCenturySchlbk-BoldItalic /NewCenturySchlbk-Italic /Palatino-Bold
 /Palatino-BoldItalic /Palatino-Italic /Palatino-Roman ] {ISOLatin1Encoding reEncode } forall
%%EndProlog
%%BeginSetup
%%EndSetup
newpath  gsave  .25 .25 scale  gsave  0 0 t black[  ] 0 sd 3 lw 1 1 1 c 2268 1538 0 0 bf black 1 1 1 c 1950 1284 272 231 bf black 1950 1284 272 231 bl 1 1 1 c 6 lw black 1 1 1 c 272 231 m 1950 X s black 3 lw 272 231 m 1950 X s 765 270 m -39 Y s 887
 251 m -20 Y s 1010 251 m -20 Y s 1133 251 m -20 Y s 1256 251 m -20 Y s 1378 270 m -39 Y s 1501 251 m -20 Y s 1624 251 m -20 Y s 1747 251 m -20 Y s 1870 251 m -20 Y s 1992 270 m -39 Y s 765 270 m -39 Y s 642 251 m -20 Y s 519 251 m -20 Y s 396 251 m
 -20 Y s 273 251 m -20 Y s 1992 270 m -39 Y s 2115 251 m -20 Y s
 gsave  2268 1538 0 0 C 720.065 172.685 t 0 r /Helvetica findfont 61.9061 sf 0 0 m (0.5) show NC gr 
 gsave  2268 1538 0 0 C 1335.87 172.685 t 0 r /Helvetica findfont 61.9061 sf 0 0 m (0.6) show NC gr 
 gsave  2268 1538 0 0 C 1948.41 172.685 t 0 r /Helvetica findfont 61.9061 sf 0 0 m (0.7) show NC gr 
 gsave  2268 1538 0 0 C 2101.55 78.1971 t 0 r /Helvetica findfont 74.9389 sf 0 0 m ( [fb]) show NC gr 
 gsave  2268 1538 0 0 C 1987.51 52.1314 t 0 r /Helvetica findfont 52.1314 sf 0 0 m (fit) show NC gr 
 gsave  2268 1538 0 0 C 1987.51 110.779 t 0 r /Helvetica findfont 52.1314 sf 0 0 m (bin,4) show NC gr 
 gsave  2268 1538 0 0 C 1941.9 78.1971 t 0 r /Symbol findfont 74.9389 sf 0 0 m (s) show NC gr  272 1515 m 1950 X s 765 1475 m 40 Y s 887 1495 m 20 Y s 1010 1495 m 20 Y s 1133 1495 m 20 Y s 1256 1495 m 20 Y s 1378 1475 m 40 Y s 1501 1495 m 20 Y s 1624
 1495 m 20 Y s 1747 1495 m 20 Y s 1870 1495 m 20 Y s 1992 1475 m 40 Y s 765 1475 m 40 Y s 642 1495 m 20 Y s 519 1495 m 20 Y s 396 1495 m 20 Y s 273 1495 m 20 Y s 1992 1475 m 40 Y s 2115 1495 m 20 Y s 272 231 m 1284 Y s 329 353 m -57 X s 301 393 m -29
 X s 301 434 m -29 X s 301 474 m -29 X s 301 514 m -29 X s 329 555 m -57 X s 301 595 m -29 X s 301 636 m -29 X s 301 676 m -29 X s 301 717 m -29 X s 329 757 m -57 X s 301 797 m -29 X s 301 838 m -29 X s 301 878 m -29 X s 301 919 m -29 X s 329 959 m
 -57 X s 301 1000 m -29 X s 301 1040 m -29 X s 301 1080 m -29 X s 301 1121 m -29 X s 329 1161 m -57 X s 301 1202 m -29 X s 301 1242 m -29 X s 301 1283 m -29 X s 301 1323 m -29 X s 329 1363 m -57 X s 329 353 m -57 X s 301 312 m -29 X s 301 272 m -29 X
 s 301 232 m -29 X s 329 1363 m -57 X s 301 1404 m -29 X s 301 1444 m -29 X s 301 1485 m -29 X s
 gsave  2268 1538 0 0 C 140.103 332.338 t 0 r /Helvetica findfont 61.9061 sf 0 0 m (0.45) show NC gr 
 gsave  2268 1538 0 0 C 175.944 534.347 t 0 r /Helvetica findfont 61.9061 sf 0 0 m (0.5) show NC gr 
 gsave  2268 1538 0 0 C 140.103 736.356 t 0 r /Helvetica findfont 61.9061 sf 0 0 m (0.55) show NC gr 
 gsave  2268 1538 0 0 C 175.944 938.365 t 0 r /Helvetica findfont 61.9061 sf 0 0 m (0.6) show NC gr 
 gsave  2268 1538 0 0 C 140.103 1140.37 t 0 r /Helvetica findfont 61.9061 sf 0 0 m (0.65) show NC gr 
 gsave  2268 1538 0 0 C 175.944 1342.38 t 0 r /Helvetica findfont 61.9061 sf 0 0 m (0.7) show NC gr 
 gsave  2268 1538 0 0 C 120.554 1394.52 t 90 r /Helvetica findfont 74.9389 sf 0 0 m ( [fb]) show NC gr 
 gsave  2268 1538 0 0 C 146.62 1280.48 t 90 r /Helvetica findfont 52.1314 sf 0 0 m (true) show NC gr 
 gsave  2268 1538 0 0 C 87.9718 1280.48 t 90 r /Helvetica findfont 52.1314 sf 0 0 m (bin,4) show NC gr 
 gsave  2268 1538 0 0 C 120.554 1234.86 t 90 r /Symbol findfont 74.9389 sf 0 0 m (s) show NC gr  2222 231 m 1284 Y s 2166 353 m 56 X s 2194 393 m 28 X s 2194 434 m 28 X s 2194 474 m 28 X s 2194 514 m 28 X s 2166 555 m 56 X s 2194 595 m 28 X s 2194
 636 m 28 X s 2194 676 m 28 X s 2194 717 m 28 X s 2166 757 m 56 X s 2194 797 m 28 X s 2194 838 m 28 X s 2194 878 m 28 X s 2194 919 m 28 X s 2166 959 m 56 X s 2194 1000 m 28 X s 2194 1040 m 28 X s 2194 1080 m 28 X s 2194 1121 m 28 X s 2166 1161 m 56 X
 s 2194 1202 m 28 X s 2194 1242 m 28 X s 2194 1283 m 28 X s 2194 1323 m 28 X s 2166 1363 m 56 X s 2166 353 m 56 X s 2194 312 m 28 X s 2194 272 m 28 X s 2194 232 m 28 X s 2166 1363 m 56 X s 2194 1404 m 28 X s 2194 1444 m 28 X s 2194 1485 m 28 X s 1 0
 0 c 1 1 1 c 1 0 0 c 97 64 370 552 bl 1 1 1 c 1 0 0 c 69 45 774 754 bl 1 1 1 c 1 0 0 c 97 64 760 809 bl 1 1 1 c 1 0 0 c 69 45 871 818 bl 1 1 1 c 1 0 0 c 69 46 969 882 bl 1 1 1 c 1 0 0 c 69 46 969 946 bl 1 1 1 c 1 0 0 c 69 45 1164 1011 bl 1 1 1 c 1 0
 0 c 69 45 1554 1332 bl 1 1 1 c black 1 1 1 c black 97 64 370 552 bl 1 1 1 c black 69 45 774 754 bl 1 1 1 c black 97 64 760 809 bl 1 1 1 c black 69 45 871 818 bl 1 1 1 c black 69 46 969 882 bl 1 1 1 c black 69 46 969 946 bl 1 1 1 c black 69 45 1164
 1011 bl 1 1 1 c black 69 45 1554 1332 bl 1 1 1 c 0 0 1 c 1 1 1 c 0 0 1 c 97 64 370 552 bl 1 1 1 c 0 0 1 c 69 45 774 818 bl 1 1 1 c 0 0 1 c 69 45 1554 1332 bl 1 1 1 c black[ 12 12] 0 sd 9 lw 1 1 1 c black 388 231 m 4 46 d s 392 277 m 6 88 d 7 84 d 6
 67 d 7 68 d 6 40 d 5 31 d 5 24 d 6 16 d 7 9 d 7 1 d 8 -10 d 11 -23 d 29 -74 d 8 -11 d 6 -3 d 89 -2 d 8 2 d 33 15 d 49 36 d 16 13 d 49 46 d 48 50 d 71 75 d 27 22 d 27 11 d 70 10 d 98 25 d 97 18 d 32 18 d 57 41 d 9 5 d 98 32 d 17 2 d 45 -2 d 14 6 d 12
 13 d 9 13 d 10 23 d 12 37 d 18 65 d 27 109 d 13 46 d 10 27 d 8 14 d 12 15 d 13 8 d 72 -23 d 195 X 7 5 d 9 16 d 12 36 d 19 56 d 7 19 d 7 9 d 7 2 d 6 -7 d 5 -14 d 5 -22 d 5 -28 d 5 -34 d 4 -38 d 6 -73 d 6 -80 d 6 -86 d 6 -92 d 6 -98 d 5 -104 d 5 -109
 d 5 -117 d 5 -123 d 5 -132 d 4 -109 d s[  ] 0 sd 1 1 1 c black 410 231 m 4 41 d s 414 272 m 4 40 d 5 34 d 4 32 d 5 24 d 5 18 d 5 13 d 6 6 d 6 X 6 -7 d 8 -15 d 13 -35 d 16 -43 d 7 -15 d 6 -9 d 6 -3 d 16 -3 d 47 -15 d 12 2 d 12 6 d 10 10 d 6 10 d 6 18
 d 7 28 d 10 45 d 19 102 d 8 34 d 6 24 d 6 16 d 5 11 d 6 3 d 5 -3 d 5 -9 d 4 -14 d 4 -19 d 1 -7 d 6 -37 d 5 -42 d 6 -47 d 6 -53 d 5 -58 d s 739 314 m 6 -64 d 2 -19 d s 860 231 m 1 10 d s 861 241 m 7 109 d 7 109 d 8 99 d 8 93 d 7 75 d 8 71 d 6 42 d 5
 32 d 6 23 d 7 15 d 73 -137 d 7 2 d 7 14 d 9 31 d 21 87 d 8 27 d 7 12 d 6 1 d 5 -9 d 5 -18 d 5 -30 d 5 -36 d 4 -45 d 4 -49 d 4 -61 d 1 -11 d 5 -97 d 6 -105 d 5 -112 d 5 -121 d 1 -21 d s 1285 231 m 4 Y s 1285 235 m 6 124 d 5 86 d 5 86 d 6 76 d 5 67 d
 6 59 d 6 52 d 7 46 d 8 38 d 8 29 d 11 24 d 36 43 d 7 8 d 9 -3 d 81 -188 d 9 12 d 11 27 d 13 44 d 20 90 d 20 83 d 12 43 d 11 25 d 2 4 d 13 17 d 17 7 d 55 -22 d 12 -2 d 195 X 7 6 d 9 20 d 12 46 d 18 70 d 8 24 d 7 11 d 6 2 d 7 -9 d 5 -19 d 6 -33 d 5
 -36 d 5 -46 d 3 -36 d 6 -83 d 6 -93 d 6 -102 d 6 -112 d 6 -124 d 7 -136 d 6 -148 d 3 -81 d s 1 1 1 c black 642 1515 m 4 -68 d s 646 1447 m 6 -117 d 7 -107 d 7 -97 d 7 -88 d 6 -66 d 6 -67 d 7 -58 d 7 -47 d 7 -35 d 5 -22 d 4 -10 d 5 1 d 5 12 d 5 24 d
 6 37 d 6 53 d 8 76 d 10 113 d 15 172 d 7 80 d 7 59 d 6 46 d 5 27 d 5 17 d 3 6 d 7 -2 d 6 -12 d 6 -25 d 8 -38 d 8 -58 d 10 -74 d 28 -233 d 9 -55 d 6 -38 d 7 -27 d 3 -10 d 9 -20 d 11 -11 d 13 -1 d 14 11 d 29 42 d 17 22 d 4 3 d 7 11 d 8 25 d 11 45 d 20
 98 d 8 31 d 7 19 d 6 8 d 6 X 5 -9 d 6 -19 d 5 -28 d 4 -34 d 5 -48 d 6 -72 d 6 -81 d 6 -90 d 6 -100 d 7 -111 d 6 -122 d s 1138 453 m 6 -134 d 4 -88 d s 1237 231 m 2 56 d s 1239 287 m 6 181 d 6 168 d 7 175 d 6 136 d 6 131 d 6 118 d 7 115 d 6 87 d 6 80
 d 1 15 d 2 22 d s 1322 1515 m 72 -478 d s 1394 1037 m 6 54 d 7 65 d 7 78 d 7 90 d 7 105 d 6 86 d s 0 0 1 c[ 12 12] 0 sd 1 1 1 c black 0 0 1 c 390 231 m 4 63 d s 394 294 m 6 81 d 6 79 d 6 63 d 6 67 d 5 37 d 5 34 d 4 26 d 5 19 d 6 14 d 6 6 d 6 -2 d 7
 -10 d 9 -20 d 31 -89 d 7 -11 d 7 -4 d 97 X 85 -4 d 13 4 d 28 15 d 27 22 d 27 29 d 15 19 d 17 26 d 26 53 d 26 52 d 14 23 d 15 18 d 15 9 d 19 3 d 63 -12 d 98 X 6 3 d 7 13 d 10 25 d 23 75 d 8 20 d 6 10 d 6 3 d 5 -4 d 5 -10 d 5 -16 d 4 -22 d 5 -28 d 4
 -32 d 3 -37 d 6 -64 d 6 -70 d 5 -74 d 5 -80 d 6 -85 d 5 -91 d 5 -96 d 2 -50 d s 1537 231 m 4 129 d s 1541 360 m 5 146 d 6 136 d 5 135 d 5 107 d 6 128 d 6 103 d 5 94 d 5 83 d 5 62 d 3 50 d 5 43 d 4 40 d 5 28 d s 1639 1515 m 3 -11 d s 1642 1504 m 14
 -62 d 12 -51 d 7 -20 d 5 -13 d 6 -4 d 195 X 6 5 d 7 15 d 8 30 d 24 102 d 2 9 d s 1961 1515 m 1 -1 d s 1962 1514 m 4 -28 d 4 -36 d 4 -39 d 4 -48 d 1 -9 d 5 -80 d 5 -87 d 6 -94 d 5 -100 d 5 -106 d 5 -115 d 5 -122 d 5 -131 d 5 -142 d 6 -146 d s[  ] 0
 sd 1 1 1 c black 0 0 1 c 410 231 m 3 31 d s 413 262 m 5 50 d 5 37 d 5 29 d 5 22 d 5 16 d 6 10 d 5 4 d 7 -1 d 7 -10 d 9 -18 d 30 -75 d 6 -10 d 7 -4 d 98 X 17 -3 d 46 -14 d 13 2 d 12 6 d 10 9 d 10 15 d 12 25 d 17 44 d 29 82 d 15 35 d 10 21 d 4 6 d 16
 19 d 15 12 d 20 9 d 47 9 d 32 4 d 65 -4 d 98 X 6 4 d 7 11 d 10 22 d 23 67 d 8 18 d 6 9 d 6 2 d 5 -3 d 5 -9 d 5 -15 d 4 -19 d 5 -25 d 4 -28 d 3 -34 d 6 -57 d 6 -62 d 5 -66 d 5 -71 d 6 -76 d 1 -26 d s 1542 231 m 4 104 d s 1546 335 m 6 125 d 5 122 d 5
 98 d 6 117 d 6 94 d 5 86 d 5 76 d 5 57 d 3 45 d 5 40 d 4 35 d 5 27 d 5 19 d 5 11 d 5 4 d 6 -5 d 7 -13 d 8 -26 d 14 -57 d 12 -47 d 7 -18 d 5 -12 d 6 -3 d 195 X 6 4 d 7 14 d 8 27 d 24 93 d 8 25 d 7 14 d 5 4 d 5 -4 d 5 -11 d 6 -20 d 4 -26 d 4 -33 d 4
 -35 d 4 -45 d 1 -7 d 5 -74 d 5 -79 d 6 -86 d 5 -91 d 5 -97 d 5 -105 d 5 -112 d 5 -120 d 5 -115 d s 1 1 1 c black 0 0 1 c 735 1515 m 1 -30 d s 736 1485 m 4 -85 d 4 -79 d 4 -72 d 4 -66 d 4 -61 d 4 -57 d 4 -51 d 4 -47 d 4 -43 d 4 -37 d 4 -31 d 4 -27 d
 4 -18 d 4 -14 d 4 -9 d 5 -3 d 4 3 d 3 8 d 5 14 d 4 19 d 4 29 d s 821 858 m 5 34 d 4 39 d 4 45 d 4 49 d 4 53 d 4 58 d 4 62 d 4 68 d 4 73 d 4 79 d 4 85 d 12 Y s 1 0 0 c[ 12 12] 0 sd 1 1 1 c black 1 0 0 c 388 231 m 4 46 d s 392 277 m 6 88 d 7 84 d 6 67
 d 7 68 d 6 40 d 5 31 d 5 24 d 6 16 d 7 9 d 7 1 d 8 -10 d 11 -23 d 29 -74 d 8 -11 d 6 -3 d 89 -2 d 8 2 d 33 15 d 49 36 d 16 13 d 49 46 d 48 50 d 71 75 d 27 22 d 27 11 d 70 10 d 98 25 d 97 18 d 32 18 d 57 41 d 9 5 d 98 32 d 17 2 d 45 -2 d 14 6 d 12 13
 d 9 13 d 10 23 d 12 37 d 18 65 d 27 109 d 13 46 d 10 27 d 8 14 d 12 15 d 13 8 d 72 -23 d 195 X 7 5 d 9 16 d 12 36 d 19 56 d 7 19 d 7 9 d 7 2 d 6 -7 d 5 -14 d 5 -22 d 5 -28 d 5 -34 d 4 -38 d 6 -73 d 6 -80 d 6 -86 d 6 -92 d 6 -98 d 5 -104 d 5 -109 d 5
 -117 d 5 -123 d 5 -132 d 4 -109 d s[  ] 0 sd 6 lw 1 1 1 c black 1 0 0 c 410 231 m 4 41 d s 414 272 m 4 40 d 5 34 d 4 32 d 5 24 d 5 18 d 5 13 d 6 6 d 6 X 6 -7 d 8 -15 d 13 -35 d 16 -43 d 7 -15 d 6 -9 d 6 -3 d 16 -3 d 47 -15 d 12 2 d 12 6 d 10 10 d 6
 10 d 6 18 d 7 28 d 10 45 d 19 102 d 8 34 d 6 24 d 6 16 d 5 11 d 6 3 d 5 -3 d 5 -9 d 4 -14 d 4 -19 d 1 -7 d 6 -37 d 5 -42 d 6 -47 d 6 -53 d 5 -58 d s 739 314 m 6 -64 d 2 -19 d s 860 231 m 1 10 d s 861 241 m 7 109 d 7 109 d 8 99 d 8 93 d 7 75 d 8 71 d
 6 42 d 5 32 d 6 23 d 7 15 d 73 -137 d 7 2 d 7 14 d 9 31 d 21 87 d 8 27 d 7 12 d 6 1 d 5 -9 d 5 -18 d 5 -30 d 5 -36 d 4 -45 d 4 -49 d 4 -61 d 1 -11 d 5 -97 d 6 -105 d 5 -112 d 5 -121 d 1 -21 d s 1285 231 m 4 Y s 1285 235 m 6 124 d 5 86 d 5 86 d 6 76
 d 5 67 d 6 59 d 6 52 d 7 46 d 8 38 d 8 29 d 11 24 d 36 43 d 7 8 d 9 -3 d 81 -188 d 9 12 d 11 27 d 13 44 d 20 90 d 20 83 d 12 43 d 11 25 d 2 4 d 13 17 d 17 7 d 55 -22 d 12 -2 d 195 X 7 6 d 9 20 d 12 46 d 18 70 d 8 24 d 7 11 d 6 2 d 7 -9 d 5 -19 d 6
 -33 d 5 -36 d 5 -46 d 3 -36 d 6 -83 d 6 -93 d 6 -102 d 6 -112 d 6 -124 d 7 -136 d 6 -148 d 3 -81 d s 9 lw 1 1 1 c black 1 0 0 c 642 1515 m 4 -68 d s 646 1447 m 6 -117 d 7 -107 d 7 -97 d 7 -88 d 6 -66 d 6 -67 d 7 -58 d 7 -47 d 7 -35 d 5 -22 d 4 -10 d
 5 1 d 5 12 d 5 24 d 6 37 d 6 53 d 8 76 d 10 113 d 15 172 d 7 80 d 7 59 d 6 46 d 5 27 d 5 17 d 3 6 d 7 -2 d 6 -12 d 6 -25 d 8 -38 d 8 -58 d 10 -74 d 28 -233 d 9 -55 d 6 -38 d 7 -27 d 3 -10 d 9 -20 d 11 -11 d 13 -1 d 14 11 d 29 42 d 17 22 d 4 3 d 7 11
 d 8 25 d 11 45 d 20 98 d 8 31 d 7 19 d 6 8 d 6 X 5 -9 d 6 -19 d 5 -28 d 4 -34 d 5 -48 d 6 -72 d 6 -81 d 6 -90 d 6 -100 d 7 -111 d 6 -122 d s 1138 453 m 6 -134 d 4 -88 d s 1237 231 m 2 56 d s 1239 287 m 6 181 d 6 168 d 7 175 d 6 136 d 6 131 d 6 118 d
 7 115 d 6 87 d 6 80 d 1 15 d 2 22 d s 1322 1515 m 72 -478 d s 1394 1037 m 6 54 d 7 65 d 7 78 d 7 90 d 7 105 d 6 86 d s black 1247 231 m 1284 Y s
 gr  gr showpage
end
%%EOF
