%!PS-Adobe-2.0 EPSF-2.0
%%BoundingBox:  0 0 567 384
%%Title: plots/iter_2/iterationsToys_ws_DYjj/ccBelts_7_iter2.eps: 
%%Creator: ROOT Version 6.16/00
%%CreationDate: Fri Nov 13 20:48:44 2020
%%DocumentNeededResources: ProcSet (FontSetInit)
%%EndComments
%%BeginProlog
80 dict begin
/s {stroke} def /l {lineto} def /m {moveto} def /t {translate} def
/r {rotate} def /rl {roll}  def /R {repeat} def
/d {rlineto} def /rm {rmoveto} def /gr {grestore} def /f {eofill} def
/c {setrgbcolor} def /black {0 setgray} def /sd {setdash} def
/cl {closepath} def /sf {scalefont setfont} def /lw {setlinewidth} def
/box {m dup 0 exch d exch 0 d 0 exch neg d cl} def
/NC{systemdict begin initclip end}def/C{NC box clip newpath}def
/bl {box s} def /bf {gsave box gsave f grestore 1 lw [] 0 sd s grestore} def /Y { 0 exch d} def /X { 0 d} def 
/K {{pop pop 0 moveto} exch kshow} bind def
/ita {/ang 15 def gsave [1 0 ang dup sin exch cos div 1 0 0] concat} def 
/mp {newpath /y exch def /x exch def} def
/side {[w .77 mul w .23 mul] .385 w mul sd w 0 l currentpoint t -144 r} def
/mr {mp x y w2 0 360 arc} def /m24 {mr s} def /m20 {mr f} def
/mb {mp x y w2 add m w2 neg 0 d 0 w neg d w 0 d 0 w d cl} def
/mt {mp x y w2 add m w2 neg w neg d w 0 d cl} def
/w4 {w 4 div} def
/w6 {w 6 div} def
/w8 {w 8 div} def
/m21 {mb f} def /m25 {mb s} def /m22 {mt f} def /m26{mt s} def
/m23 {mp x y w2 sub m w2 w d w neg 0 d cl f} def
/m27 {mp x y w2 add m w3 neg w2 neg d w3 w2 neg d w3 w2 d cl s} def
/m28 {mp x w2 sub y w2 sub w3 add m w3 0 d  0 w3 neg d w3 0 d 0 w3 d w3 0 d  0 w3 d w3 neg 0 d 0 w3 d w3 neg 0 d 0 w3 neg d w3 neg 0 d cl s } def
/m29 {mp gsave x w2 sub y w2 add w3 sub m currentpoint t 4 {side} repeat cl fill gr} def
/m30 {mp gsave x w2 sub y w2 add w3 sub m currentpoint t 4 {side} repeat cl s gr} def
/m31 {mp x y w2 sub m 0 w d x w2 sub y m w 0 d x w2 sub y w2 add m w w neg d x w2 sub y w2 sub m w w d s} def
/m32 {mp x y w2 sub m w2 w d w neg 0 d cl s} def
/m33 {mp x y w2 add m w3 neg w2 neg d w3 w2 neg d w3 w2 d cl f} def
/m34 {mp x w2 sub y w2 sub w3 add m w3 0 d  0 w3 neg d w3 0 d 0 w3 d w3 0 d  0 w3 d w3 neg 0 d 0 w3 d w3 neg 0 d 0 w3 neg d w3 neg 0 d cl f } def
/m35 {mp x y w2 add m w2 neg w2 neg d w2 w2 neg d w2 w2 d w2 neg w2 d x y w2 sub m 0 w d x w2 sub y m w 0 d s} def
/m36 {mb x w2 sub y w2 add m w w neg d x w2 sub y w2 sub m w w d s} def
/m37 {mp x y m w4 neg w2 d w4 neg w2 neg d w2 0 d  w4 neg w2 neg d w2 0 d w4 neg w2 d w2 0 d w4 neg w2 d w4 neg w2 neg d cl s} def
/m38 {mp x w4 sub y w2 add m w4 neg w4 neg d 0 w2 neg d w4 w4 neg d w2 0 d w4 w4 d 0 w2 d w4 neg w4 d w2 neg 0 d x y w2 sub m 0 w d x w2 sub y m w 0 d cl s} def
/m39 {mp x y m w4 neg w2 d w4 neg w2 neg d w2 0 d  w4 neg w2 neg d w2 0 d w4 neg w2 d w2 0 d w4 neg w2 d w4 neg w2 neg d cl f} def
/m40 {mp x y m w4 w2 d w4 w4 neg d w2 neg w4 neg d w2 w4 neg d w4 neg w4 neg d w4 neg w2 d w4 neg w2 neg d w4 neg w4 d w2 w4 d w2 neg w4 d w4 w4 d w4 w2 neg d cl s} def
/m41 {mp x y m w4 w2 d w4 w4 neg d w2 neg w4 neg d w2 w4 neg d w4 neg w4 neg d w4 neg w2 d w4 neg w2 neg d w4 neg w4 d w2 w4 d w2 neg w4 d w4 w4 d w4 w2 neg d cl f} def
/m42 {mp x y w2 add m w8 neg w2 -3 4 div mul d w2 -3 4 div mul w8 neg d w2 3 4 div mul w8 neg d w8 w2 -3 4 div mul d w8 w2 3 4 div mul d w2 3 4 div mul w8 d w2 -3 4 div mul w8 d w8 neg w2 3 4 div mul d cl s} def
/m43 {mp x y w2 add m w8 neg w2 -3 4 div mul d w2 -3 4 div mul w8 neg d w2 3 4 div mul w8 neg d w8 w2 -3 4 div mul d w8 w2 3 4 div mul d w2 3 4 div mul w8 d w2 -3 4 div mul w8 d w8 neg w2 3 4 div mul d cl f} def
/m44 {mp x y m w6 neg w2 d w2 2 3 div mul 0 d w6 neg w2 neg d w2 w6 d 0 w2 -2 3 div mul d w2 neg w6 d w6 w2 neg d w2 -2 3 div mul 0 d w6 w2 d w2 neg w6 neg d 0 w2 2 3 div mul d w2 w6 neg d cl s} def
/m45 {mp x y m w6 neg w2 d w2 2 3 div mul 0 d w6 neg w2 neg d w2 w6 d 0 w2 -2 3 div mul d w2 neg w6 d w6 w2 neg d w2 -2 3 div mul 0 d w6 w2 d w2 neg w6 neg d 0 w2 2 3 div mul d w2 w6 neg d cl f} def
/m46 {mp x y w4 add m w4 neg w4 d w4 neg w4 neg d  w4 w4 neg d w4 neg w4 neg d w4 w4 neg d w4 w4 d w4 w4 neg d w4 w4 d w4 neg w4 d w4 w4 d w4 neg w4 d w4 neg w4 neg d cl s} def
/m47 {mp x y w4 add m w4 neg w4 d w4 neg w4 neg d w4 w4 neg d w4 neg w4 neg d  w4 w4 neg d w4 w4 d w4 w4 neg d w4 w4 d w4 neg w4 d w4 w4 d w4 neg w4 d w4 neg w4 neg d cl f} def
/m48 {mp x y w4 add m w4 neg w4 d w4 neg w4 neg d w4 w4 neg d  w4 neg w4 neg d w4 w4 neg d w4 w4 d w4 w4 neg d w4 w4 d w4 neg w4 d w4 w4 d w4 neg w4 d w4 neg w4 neg d  w4 w4 neg d w4 neg w4 neg d w4 neg w4 d w4 w4 d cl f} def
/m49 {mp x w2 sub w3 add y w2 sub w3 add m  0 w3 neg d w3 0 d 0 w3 d w3 0 d 0 w3 d w3 neg 0 d 0 w3 d w3 neg 0 d 0 w3 neg d w3 neg 0 d 0 w3 neg d w3 0 d 0 w3 d w3 0 d 0 w3 neg d w3 neg 0 d cl f } def
/m2 {mp x y w2 sub m 0 w d x w2 sub y m w 0 d s} def
/m5 {mp x w2 sub y w2 sub m w w d x w2 sub y w2 add m w w neg d s} def
%%IncludeResource: ProcSet (FontSetInit)
%%IncludeResource: font Times-Roman
%%IncludeResource: font Times-Italic
%%IncludeResource: font Times-Bold
%%IncludeResource: font Times-BoldItalic
%%IncludeResource: font Helvetica
%%IncludeResource: font Helvetica-Oblique
%%IncludeResource: font Helvetica-Bold
%%IncludeResource: font Helvetica-BoldOblique
%%IncludeResource: font Courier
%%IncludeResource: font Courier-Oblique
%%IncludeResource: font Courier-Bold
%%IncludeResource: font Courier-BoldOblique
%%IncludeResource: font Symbol
%%IncludeResource: font ZapfDingbats
/reEncode {exch findfont dup length dict begin {1 index /FID eq  {pop pop} {def} ifelse } forall /Encoding exch def currentdict end dup /FontName get exch definefont pop } def [/Times-Bold /Times-Italic /Times-BoldItalic /Helvetica /Helvetica-Oblique
 /Helvetica-Bold /Helvetica-BoldOblique /Courier /Courier-Oblique /Courier-Bold /Courier-BoldOblique /Times-Roman /AvantGarde-Book /AvantGarde-BookOblique /AvantGarde-Demi /AvantGarde-DemiOblique /Bookman-Demi /Bookman-DemiItalic /Bookman-Light
 /Bookman-LightItalic /Helvetica-Narrow /Helvetica-Narrow-Bold /Helvetica-Narrow-BoldOblique /Helvetica-Narrow-Oblique /NewCenturySchlbk-Roman /NewCenturySchlbk-Bold /NewCenturySchlbk-BoldItalic /NewCenturySchlbk-Italic /Palatino-Bold
 /Palatino-BoldItalic /Palatino-Italic /Palatino-Roman ] {ISOLatin1Encoding reEncode } forall
%%EndProlog
%%BeginSetup
%%EndSetup
newpath  gsave  .25 .25 scale  gsave  0 0 t black[  ] 0 sd 3 lw 1 1 1 c 2268 1538 0 0 bf black 1 1 1 c 1950 1284 272 231 bf black 1950 1284 272 231 bl 1 1 1 c 6 lw black 1 1 1 c 272 231 m 1950 X s black 3 lw 272 231 m 1950 X s 670 270 m -39 Y s 828
 251 m -20 Y s 987 251 m -20 Y s 1145 251 m -20 Y s 1304 251 m -20 Y s 1462 270 m -39 Y s 670 270 m -39 Y s 511 251 m -20 Y s 353 251 m -20 Y s 1462 270 m -39 Y s 1620 251 m -20 Y s 1779 251 m -20 Y s 1937 251 m -20 Y s 2096 251 m -20 Y s
 gsave  2268 1538 0 0 C 625.577 172.685 t 0 r /Helvetica findfont 61.9061 sf 0 0 m (0.3) show NC gr 
 gsave  2268 1538 0 0 C 1397.77 172.685 t 0 r /Helvetica findfont 61.9061 sf 0 0 m (0.35) show NC gr 
 gsave  2268 1538 0 0 C 2101.55 78.1971 t 0 r /Helvetica findfont 74.9389 sf 0 0 m ( [fb]) show NC gr 
 gsave  2268 1538 0 0 C 1987.51 52.1314 t 0 r /Helvetica findfont 52.1314 sf 0 0 m (fit) show NC gr 
 gsave  2268 1538 0 0 C 1987.51 110.779 t 0 r /Helvetica findfont 52.1314 sf 0 0 m (bin,7) show NC gr 
 gsave  2268 1538 0 0 C 1941.9 78.1971 t 0 r /Symbol findfont 74.9389 sf 0 0 m (s) show NC gr  272 1515 m 1950 X s 670 1475 m 40 Y s 828 1495 m 20 Y s 987 1495 m 20 Y s 1145 1495 m 20 Y s 1304 1495 m 20 Y s 1462 1475 m 40 Y s 670 1475 m 40 Y s 511
 1495 m 20 Y s 353 1495 m 20 Y s 1462 1475 m 40 Y s 1620 1495 m 20 Y s 1779 1495 m 20 Y s 1937 1495 m 20 Y s 2096 1495 m 20 Y s 272 231 m 1284 Y s 329 284 m -57 X s 301 336 m -29 X s 301 388 m -29 X s 301 440 m -29 X s 329 492 m -57 X s 301 545 m -29
 X s 301 597 m -29 X s 301 649 m -29 X s 329 701 m -57 X s 301 753 m -29 X s 301 805 m -29 X s 301 858 m -29 X s 329 910 m -57 X s 301 962 m -29 X s 301 1014 m -29 X s 301 1066 m -29 X s 329 1118 m -57 X s 301 1171 m -29 X s 301 1223 m -29 X s 301
 1275 m -29 X s 329 1327 m -57 X s 329 284 m -57 X s 301 232 m -29 X s 329 1327 m -57 X s 301 1379 m -29 X s 301 1431 m -29 X s 301 1484 m -29 X s
 gsave  2268 1538 0 0 C 140.103 263.915 t 0 r /Helvetica findfont 61.9061 sf 0 0 m (0.28) show NC gr 
 gsave  2268 1538 0 0 C 175.944 472.441 t 0 r /Helvetica findfont 61.9061 sf 0 0 m (0.3) show NC gr 
 gsave  2268 1538 0 0 C 140.103 680.967 t 0 r /Helvetica findfont 61.9061 sf 0 0 m (0.32) show NC gr 
 gsave  2268 1538 0 0 C 140.103 889.492 t 0 r /Helvetica findfont 61.9061 sf 0 0 m (0.34) show NC gr 
 gsave  2268 1538 0 0 C 140.103 1098.02 t 0 r /Helvetica findfont 61.9061 sf 0 0 m (0.36) show NC gr 
 gsave  2268 1538 0 0 C 140.103 1306.54 t 0 r /Helvetica findfont 61.9061 sf 0 0 m (0.38) show NC gr 
 gsave  2268 1538 0 0 C 120.554 1394.52 t 90 r /Helvetica findfont 74.9389 sf 0 0 m ( [fb]) show NC gr 
 gsave  2268 1538 0 0 C 146.62 1280.48 t 90 r /Helvetica findfont 52.1314 sf 0 0 m (true) show NC gr 
 gsave  2268 1538 0 0 C 87.9718 1280.48 t 90 r /Helvetica findfont 52.1314 sf 0 0 m (bin,7) show NC gr 
 gsave  2268 1538 0 0 C 120.554 1234.86 t 90 r /Symbol findfont 74.9389 sf 0 0 m (s) show NC gr  2222 231 m 1284 Y s 2166 284 m 56 X s 2194 336 m 28 X s 2194 388 m 28 X s 2194 440 m 28 X s 2166 492 m 56 X s 2194 545 m 28 X s 2194 597 m 28 X s 2194
 649 m 28 X s 2166 701 m 56 X s 2194 753 m 28 X s 2194 805 m 28 X s 2194 858 m 28 X s 2166 910 m 56 X s 2194 962 m 28 X s 2194 1014 m 28 X s 2194 1066 m 28 X s 2166 1118 m 56 X s 2194 1171 m 28 X s 2194 1223 m 28 X s 2194 1275 m 28 X s 2166 1327 m 56
 X s 2166 284 m 56 X s 2194 232 m 28 X s 2166 1327 m 56 X s 2194 1379 m 28 X s 2194 1431 m 28 X s 2194 1484 m 28 X s 1 0 0 c 1 1 1 c 1 0 0 c 69 45 286 818 bl 1 1 1 c 1 0 0 c 97 64 370 873 bl 1 1 1 c 1 0 0 c 69 46 481 882 bl 1 1 1 c 1 0 0 c 69 46 481
 946 bl 1 1 1 c 1 0 0 c 69 45 579 1011 bl 1 1 1 c 1 0 0 c 69 45 676 1075 bl 1 1 1 c 1 0 0 c 69 45 774 1075 bl 1 1 1 c black 1 1 1 c black 69 45 286 818 bl 1 1 1 c black 97 64 370 873 bl 1 1 1 c black 69 46 481 882 bl 1 1 1 c black 69 46 481 946 bl 1
 1 1 c black 69 45 579 1011 bl 1 1 1 c black 69 45 676 1075 bl 1 1 1 c black 69 45 774 1075 bl 1 1 1 c 0 0 1 c 1 1 1 c 0 0 1 c 97 64 370 873 bl 1 1 1 c 0 0 1 c 69 45 579 1011 bl 1 1 1 c black[ 12 12] 0 sd 9 lw 1 1 1 c black 321 391 m 34 45 d 32 31 d
 31 21 d 26 4 d 66 -7 d 6 3 d 22 17 d 60 68 d 15 11 d 23 4 d 65 -9 d 10 5 d 25 23 d 28 37 d 44 68 d 28 51 d 42 86 d 20 31 d 8 9 d 20 13 d 77 3 d 98 21 d 97 43 d 98 18 d 39 23 d 53 37 d 6 2 d 97 27 d 7 8 d 7 22 d 11 44 d 20 102 d 8 32 d 7 18 d 6 6 d 6
 -5 d 5 -16 d 5 -25 d 5 -39 d 4 -42 d 4 -54 d 3 -30 d 6 -99 d 5 -108 d 6 -117 d 6 -124 d 5 -133 d 5 -141 d 5 -144 d s[  ] 0 sd 1 1 1 c black 384 231 m 4 23 d s 388 254 m 5 23 d 5 25 d 6 24 d 5 22 d 5 19 d 4 13 d 6 16 d 5 13 d 4 11 d 5 9 d 5 7 d 5 6 d
 6 3 d 5 3 d 6 X 6 -2 d 7 -4 d 6 -6 d 6 -8 d 7 -10 d 8 -14 d 8 -16 d 3 -8 d 6 -14 d s 522 366 m 6 -17 d 6 -18 d 6 -20 d 7 -22 d 6 -25 d 6 -26 d 2 -7 d s 750 231 m 8 50 d s 758 281 m 17 108 d 15 85 d 15 81 d 3 15 d 15 66 d 16 59 d 16 52 d 18 48 d 18
 38 d 15 25 d 13 15 d 16 8 d 68 -19 d 60 -5 d 21 -8 d 17 -13 d 7 -2 d 8 10 d 11 24 d 16 42 d 9 14 d 7 4 d 6 -5 d 5 -12 d 6 -21 d 4 -28 d 5 -35 d 5 -43 d 4 -47 d 4 -62 d 6 -88 d 6 -96 d 5 -102 d 6 -109 d 2 -49 d s 1448 1515 m 8 -102 d s 1456 1413 m 15
 -165 d 15 -159 d 5 -45 d 7 -55 d 7 -47 d 9 -38 d 13 -36 d 17 -42 d 10 -41 d 7 -43 d 7 -53 d 7 -70 d 5 -69 d 5 -82 d 4 -59 d 7 -145 d 1 -33 d s 1 1 1 c black 388 1515 m 2 -76 d s 390 1439 m 6 -195 d 5 -179 d 6 -176 d 5 -142 d 6 -152 d 6 -120 d 5 -105
 d 6 -89 d 3 -50 d s 497 231 m 2 30 d s 499 261 m 6 97 d 5 98 d 5 117 d 1 22 d s 516 595 m 5 137 d 6 148 d 5 159 d 5 170 d 5 182 d 3 124 d s 785 1515 m 2 -96 d s 787 1419 m 6 -164 d 5 -154 d 5 -131 d 5 -115 d 4 -78 d 4 -67 d 5 -61 d 5 -45 d 4 -30 d 5
 -17 d 5 -5 d 6 9 d 6 25 d 9 51 d 14 110 d 12 93 d 7 40 d 5 24 d 6 12 d 1 1 d 97 31 d 11 -3 d 17 -25 d 23 -42 d 11 -7 d 9 6 d 9 20 d 7 27 d 7 39 d 4 32 d 9 79 d 10 94 d 9 109 d 11 138 d 7 100 d s 1440 1515 m 1 -40 d s 1441 1475 m 4 -93 d 4 -82 d 5
 -72 d 4 -60 d 4 -48 d 5 -36 d 4 -21 d 4 -13 d 4 -2 d 4 11 d 5 22 d 3 27 d 5 52 d 5 65 d 4 77 d 5 87 d s 1510 1389 m 4 98 d 1 28 d s 0 0 1 c[ 12 12] 0 sd 1 1 1 c black 0 0 1 c 321 391 m 97 X 6 5 d 7 17 d 8 31 d 24 115 d 8 31 d 7 18 d 5 5 d 5 -5 d 5
 -10 d 4 -20 d 5 -28 d 4 -40 d 4 -41 d 4 -50 d 2 -28 d 5 -87 d 4 -73 d s 879 231 m 3 79 d s 882 310 m 6 138 d 6 135 d 5 109 d 7 117 d 4 66 d 5 62 d 5 48 d 5 38 d 5 27 d 5 17 d 6 6 d 7 -4 d 55 -164 d 45 26 d 53 17 d 97 X 36 6 d 35 4 d 22 -7 d 5 -3 d
 98 -139 d 5 9 d 6 22 d 7 39 d 8 64 d 20 160 d 8 56 d 6 35 d 6 20 d 5 6 d 5 -3 d 5 -17 d 4 -25 d 4 -36 d 4 -42 d 3 -54 d 1 -10 d 6 -95 d 5 -105 d 5 -113 d 5 -121 d 5 -129 d 5 -139 d 4 -100 d s[  ] 0 sd 1 1 1 c black 0 0 1 c 1005 231 m 11 106 d s 1016
 337 m 13 117 d 11 90 d 12 90 d 13 79 d 12 70 d 12 55 d 12 45 d 9 26 d 10 16 d 78 -42 d 16 5 d 39 29 d 14 3 d 11 -7 d 11 -14 d 7 -16 d 9 -28 d 10 -44 d 12 -66 d 21 -134 d 18 -111 d 10 -51 d 9 -37 d 9 -28 d 5 -8 d 6 3 d 7 16 d 8 33 d 22 105 d 8 29 d 6
 15 d 5 5 d 6 -5 d 5 -18 d 5 -26 d 5 -37 d 4 -41 d 4 -52 d 1 -19 d 6 -91 d 3 -62 d s 1 1 1 c black 0 0 1 c 1080 1515 m 5 -127 d s 1085 1388 m 6 -149 d 5 -132 d 5 -96 d 4 -77 d 5 -71 d 5 -55 d 5 -39 d 5 -27 d 6 -13 d 6 X 6 16 d 9 38 d 15 91 d 12 78 d
 9 38 d 6 17 d 4 4 d 6 -8 d 7 -26 d 9 -52 d 23 -178 d 8 -48 d 7 -26 d 6 -7 d 5 7 d 4 16 d 5 32 d 4 44 d 5 62 d 3 65 d 4 80 d 2 39 d 5 137 d s 1301 1148 m 6 149 d 5 159 d 2 59 d s 1 0 0 c[ 12 12] 0 sd 1 1 1 c black 1 0 0 c 321 391 m 34 45 d 32 31 d 31
 21 d 26 4 d 66 -7 d 6 3 d 22 17 d 60 68 d 15 11 d 23 4 d 65 -9 d 10 5 d 25 23 d 28 37 d 44 68 d 28 51 d 42 86 d 20 31 d 8 9 d 20 13 d 77 3 d 98 21 d 97 43 d 98 18 d 39 23 d 53 37 d 6 2 d 97 27 d 7 8 d 7 22 d 11 44 d 20 102 d 8 32 d 7 18 d 6 6 d 6 -5
 d 5 -16 d 5 -25 d 5 -39 d 4 -42 d 4 -54 d 3 -30 d 6 -99 d 5 -108 d 6 -117 d 6 -124 d 5 -133 d 5 -141 d 5 -144 d s[  ] 0 sd 6 lw 1 1 1 c black 1 0 0 c 384 231 m 4 23 d s 388 254 m 5 23 d 5 25 d 6 24 d 5 22 d 5 19 d 4 13 d 6 16 d 5 13 d 4 11 d 5 9 d 5
 7 d 5 6 d 6 3 d 5 3 d 6 X 6 -2 d 7 -4 d 6 -6 d 6 -8 d 7 -10 d 8 -14 d 8 -16 d 3 -8 d 6 -14 d s 522 366 m 6 -17 d 6 -18 d 6 -20 d 7 -22 d 6 -25 d 6 -26 d 2 -7 d s 750 231 m 8 50 d s 758 281 m 17 108 d 15 85 d 15 81 d 3 15 d 15 66 d 16 59 d 16 52 d 18
 48 d 18 38 d 15 25 d 13 15 d 16 8 d 68 -19 d 60 -5 d 21 -8 d 17 -13 d 7 -2 d 8 10 d 11 24 d 16 42 d 9 14 d 7 4 d 6 -5 d 5 -12 d 6 -21 d 4 -28 d 5 -35 d 5 -43 d 4 -47 d 4 -62 d 6 -88 d 6 -96 d 5 -102 d 6 -109 d 2 -49 d s 1448 1515 m 8 -102 d s 1456
 1413 m 15 -165 d 15 -159 d 5 -45 d 7 -55 d 7 -47 d 9 -38 d 13 -36 d 17 -42 d 10 -41 d 7 -43 d 7 -53 d 7 -70 d 5 -69 d 5 -82 d 4 -59 d 7 -145 d 1 -33 d s 9 lw 1 1 1 c black 1 0 0 c 388 1515 m 2 -76 d s 390 1439 m 6 -195 d 5 -179 d 6 -176 d 5 -142 d 6
 -152 d 6 -120 d 5 -105 d 6 -89 d 3 -50 d s 497 231 m 2 30 d s 499 261 m 6 97 d 5 98 d 5 117 d 1 22 d s 516 595 m 5 137 d 6 148 d 5 159 d 5 170 d 5 182 d 3 124 d s 785 1515 m 2 -96 d s 787 1419 m 6 -164 d 5 -154 d 5 -131 d 5 -115 d 4 -78 d 4 -67 d 5
 -61 d 5 -45 d 4 -30 d 5 -17 d 5 -5 d 6 9 d 6 25 d 9 51 d 14 110 d 12 93 d 7 40 d 5 24 d 6 12 d 1 1 d 97 31 d 11 -3 d 17 -25 d 23 -42 d 11 -7 d 9 6 d 9 20 d 7 27 d 7 39 d 4 32 d 9 79 d 10 94 d 9 109 d 11 138 d 7 100 d s 1440 1515 m 1 -40 d s 1441
 1475 m 4 -93 d 4 -82 d 5 -72 d 4 -60 d 4 -48 d 5 -36 d 4 -21 d 4 -13 d 4 -2 d 4 11 d 5 22 d 3 27 d 5 52 d 5 65 d 4 77 d 5 87 d s 1510 1389 m 4 98 d 1 28 d s black 1247 231 m 1284 Y s
 gr  gr showpage
end
%%EOF
