%!PS-Adobe-2.0 EPSF-2.0
%%BoundingBox:  0 0 567 384
%%Title: plots/iter_2/iterationsToys_ws_DYjj/ccBelts_5_iter2.eps: 
%%Creator: ROOT Version 6.16/00
%%CreationDate: Fri Nov 13 20:48:43 2020
%%DocumentNeededResources: ProcSet (FontSetInit)
%%EndComments
%%BeginProlog
80 dict begin
/s {stroke} def /l {lineto} def /m {moveto} def /t {translate} def
/r {rotate} def /rl {roll}  def /R {repeat} def
/d {rlineto} def /rm {rmoveto} def /gr {grestore} def /f {eofill} def
/c {setrgbcolor} def /black {0 setgray} def /sd {setdash} def
/cl {closepath} def /sf {scalefont setfont} def /lw {setlinewidth} def
/box {m dup 0 exch d exch 0 d 0 exch neg d cl} def
/NC{systemdict begin initclip end}def/C{NC box clip newpath}def
/bl {box s} def /bf {gsave box gsave f grestore 1 lw [] 0 sd s grestore} def /Y { 0 exch d} def /X { 0 d} def 
/K {{pop pop 0 moveto} exch kshow} bind def
/ita {/ang 15 def gsave [1 0 ang dup sin exch cos div 1 0 0] concat} def 
/mp {newpath /y exch def /x exch def} def
/side {[w .77 mul w .23 mul] .385 w mul sd w 0 l currentpoint t -144 r} def
/mr {mp x y w2 0 360 arc} def /m24 {mr s} def /m20 {mr f} def
/mb {mp x y w2 add m w2 neg 0 d 0 w neg d w 0 d 0 w d cl} def
/mt {mp x y w2 add m w2 neg w neg d w 0 d cl} def
/w4 {w 4 div} def
/w6 {w 6 div} def
/w8 {w 8 div} def
/m21 {mb f} def /m25 {mb s} def /m22 {mt f} def /m26{mt s} def
/m23 {mp x y w2 sub m w2 w d w neg 0 d cl f} def
/m27 {mp x y w2 add m w3 neg w2 neg d w3 w2 neg d w3 w2 d cl s} def
/m28 {mp x w2 sub y w2 sub w3 add m w3 0 d  0 w3 neg d w3 0 d 0 w3 d w3 0 d  0 w3 d w3 neg 0 d 0 w3 d w3 neg 0 d 0 w3 neg d w3 neg 0 d cl s } def
/m29 {mp gsave x w2 sub y w2 add w3 sub m currentpoint t 4 {side} repeat cl fill gr} def
/m30 {mp gsave x w2 sub y w2 add w3 sub m currentpoint t 4 {side} repeat cl s gr} def
/m31 {mp x y w2 sub m 0 w d x w2 sub y m w 0 d x w2 sub y w2 add m w w neg d x w2 sub y w2 sub m w w d s} def
/m32 {mp x y w2 sub m w2 w d w neg 0 d cl s} def
/m33 {mp x y w2 add m w3 neg w2 neg d w3 w2 neg d w3 w2 d cl f} def
/m34 {mp x w2 sub y w2 sub w3 add m w3 0 d  0 w3 neg d w3 0 d 0 w3 d w3 0 d  0 w3 d w3 neg 0 d 0 w3 d w3 neg 0 d 0 w3 neg d w3 neg 0 d cl f } def
/m35 {mp x y w2 add m w2 neg w2 neg d w2 w2 neg d w2 w2 d w2 neg w2 d x y w2 sub m 0 w d x w2 sub y m w 0 d s} def
/m36 {mb x w2 sub y w2 add m w w neg d x w2 sub y w2 sub m w w d s} def
/m37 {mp x y m w4 neg w2 d w4 neg w2 neg d w2 0 d  w4 neg w2 neg d w2 0 d w4 neg w2 d w2 0 d w4 neg w2 d w4 neg w2 neg d cl s} def
/m38 {mp x w4 sub y w2 add m w4 neg w4 neg d 0 w2 neg d w4 w4 neg d w2 0 d w4 w4 d 0 w2 d w4 neg w4 d w2 neg 0 d x y w2 sub m 0 w d x w2 sub y m w 0 d cl s} def
/m39 {mp x y m w4 neg w2 d w4 neg w2 neg d w2 0 d  w4 neg w2 neg d w2 0 d w4 neg w2 d w2 0 d w4 neg w2 d w4 neg w2 neg d cl f} def
/m40 {mp x y m w4 w2 d w4 w4 neg d w2 neg w4 neg d w2 w4 neg d w4 neg w4 neg d w4 neg w2 d w4 neg w2 neg d w4 neg w4 d w2 w4 d w2 neg w4 d w4 w4 d w4 w2 neg d cl s} def
/m41 {mp x y m w4 w2 d w4 w4 neg d w2 neg w4 neg d w2 w4 neg d w4 neg w4 neg d w4 neg w2 d w4 neg w2 neg d w4 neg w4 d w2 w4 d w2 neg w4 d w4 w4 d w4 w2 neg d cl f} def
/m42 {mp x y w2 add m w8 neg w2 -3 4 div mul d w2 -3 4 div mul w8 neg d w2 3 4 div mul w8 neg d w8 w2 -3 4 div mul d w8 w2 3 4 div mul d w2 3 4 div mul w8 d w2 -3 4 div mul w8 d w8 neg w2 3 4 div mul d cl s} def
/m43 {mp x y w2 add m w8 neg w2 -3 4 div mul d w2 -3 4 div mul w8 neg d w2 3 4 div mul w8 neg d w8 w2 -3 4 div mul d w8 w2 3 4 div mul d w2 3 4 div mul w8 d w2 -3 4 div mul w8 d w8 neg w2 3 4 div mul d cl f} def
/m44 {mp x y m w6 neg w2 d w2 2 3 div mul 0 d w6 neg w2 neg d w2 w6 d 0 w2 -2 3 div mul d w2 neg w6 d w6 w2 neg d w2 -2 3 div mul 0 d w6 w2 d w2 neg w6 neg d 0 w2 2 3 div mul d w2 w6 neg d cl s} def
/m45 {mp x y m w6 neg w2 d w2 2 3 div mul 0 d w6 neg w2 neg d w2 w6 d 0 w2 -2 3 div mul d w2 neg w6 d w6 w2 neg d w2 -2 3 div mul 0 d w6 w2 d w2 neg w6 neg d 0 w2 2 3 div mul d w2 w6 neg d cl f} def
/m46 {mp x y w4 add m w4 neg w4 d w4 neg w4 neg d  w4 w4 neg d w4 neg w4 neg d w4 w4 neg d w4 w4 d w4 w4 neg d w4 w4 d w4 neg w4 d w4 w4 d w4 neg w4 d w4 neg w4 neg d cl s} def
/m47 {mp x y w4 add m w4 neg w4 d w4 neg w4 neg d w4 w4 neg d w4 neg w4 neg d  w4 w4 neg d w4 w4 d w4 w4 neg d w4 w4 d w4 neg w4 d w4 w4 d w4 neg w4 d w4 neg w4 neg d cl f} def
/m48 {mp x y w4 add m w4 neg w4 d w4 neg w4 neg d w4 w4 neg d  w4 neg w4 neg d w4 w4 neg d w4 w4 d w4 w4 neg d w4 w4 d w4 neg w4 d w4 w4 d w4 neg w4 d w4 neg w4 neg d  w4 w4 neg d w4 neg w4 neg d w4 neg w4 d w4 w4 d cl f} def
/m49 {mp x w2 sub w3 add y w2 sub w3 add m  0 w3 neg d w3 0 d 0 w3 d w3 0 d 0 w3 d w3 neg 0 d 0 w3 d w3 neg 0 d 0 w3 neg d w3 neg 0 d 0 w3 neg d w3 0 d 0 w3 d w3 0 d 0 w3 neg d w3 neg 0 d cl f } def
/m2 {mp x y w2 sub m 0 w d x w2 sub y m w 0 d s} def
/m5 {mp x w2 sub y w2 sub m w w d x w2 sub y w2 add m w w neg d s} def
%%IncludeResource: ProcSet (FontSetInit)
%%IncludeResource: font Times-Roman
%%IncludeResource: font Times-Italic
%%IncludeResource: font Times-Bold
%%IncludeResource: font Times-BoldItalic
%%IncludeResource: font Helvetica
%%IncludeResource: font Helvetica-Oblique
%%IncludeResource: font Helvetica-Bold
%%IncludeResource: font Helvetica-BoldOblique
%%IncludeResource: font Courier
%%IncludeResource: font Courier-Oblique
%%IncludeResource: font Courier-Bold
%%IncludeResource: font Courier-BoldOblique
%%IncludeResource: font Symbol
%%IncludeResource: font ZapfDingbats
/reEncode {exch findfont dup length dict begin {1 index /FID eq  {pop pop} {def} ifelse } forall /Encoding exch def currentdict end dup /FontName get exch definefont pop } def [/Times-Bold /Times-Italic /Times-BoldItalic /Helvetica /Helvetica-Oblique
 /Helvetica-Bold /Helvetica-BoldOblique /Courier /Courier-Oblique /Courier-Bold /Courier-BoldOblique /Times-Roman /AvantGarde-Book /AvantGarde-BookOblique /AvantGarde-Demi /AvantGarde-DemiOblique /Bookman-Demi /Bookman-DemiItalic /Bookman-Light
 /Bookman-LightItalic /Helvetica-Narrow /Helvetica-Narrow-Bold /Helvetica-Narrow-BoldOblique /Helvetica-Narrow-Oblique /NewCenturySchlbk-Roman /NewCenturySchlbk-Bold /NewCenturySchlbk-BoldItalic /NewCenturySchlbk-Italic /Palatino-Bold
 /Palatino-BoldItalic /Palatino-Italic /Palatino-Roman ] {ISOLatin1Encoding reEncode } forall
%%EndProlog
%%BeginSetup
%%EndSetup
newpath  gsave  .25 .25 scale  gsave  0 0 t black[  ] 0 sd 3 lw 1 1 1 c 2268 1538 0 0 bf black 1 1 1 c 1950 1284 272 231 bf black 1950 1284 272 231 bl 1 1 1 c 6 lw black 1 1 1 c 272 231 m 1950 X s black 3 lw 272 231 m 1950 X s 571 270 m -39 Y s 679
 251 m -20 Y s 788 251 m -20 Y s 896 251 m -20 Y s 1004 251 m -20 Y s 1112 270 m -39 Y s 1220 251 m -20 Y s 1329 251 m -20 Y s 1437 251 m -20 Y s 1545 251 m -20 Y s 1653 270 m -39 Y s 1761 251 m -20 Y s 1870 251 m -20 Y s 1978 251 m -20 Y s 2086 251
 m -20 Y s 2194 270 m -39 Y s 571 270 m -39 Y s 463 251 m -20 Y s 355 251 m -20 Y s 2194 270 m -39 Y s
 gsave  2268 1538 0 0 C 527.831 172.685 t 0 r /Helvetica findfont 61.9061 sf 0 0 m (0.5) show NC gr 
 gsave  2268 1538 0 0 C 1068.69 172.685 t 0 r /Helvetica findfont 61.9061 sf 0 0 m (0.6) show NC gr 
 gsave  2268 1538 0 0 C 1609.56 172.685 t 0 r /Helvetica findfont 61.9061 sf 0 0 m (0.7) show NC gr 
 gsave  2268 1538 0 0 C 2150.42 172.685 t 0 r /Helvetica findfont 61.9061 sf 0 0 m (0.8) show NC gr 
 gsave  2268 1538 0 0 C 2101.55 78.1971 t 0 r /Helvetica findfont 74.9389 sf 0 0 m ( [fb]) show NC gr 
 gsave  2268 1538 0 0 C 1987.51 52.1314 t 0 r /Helvetica findfont 52.1314 sf 0 0 m (fit) show NC gr 
 gsave  2268 1538 0 0 C 1987.51 110.779 t 0 r /Helvetica findfont 52.1314 sf 0 0 m (bin,5) show NC gr 
 gsave  2268 1538 0 0 C 1941.9 78.1971 t 0 r /Symbol findfont 74.9389 sf 0 0 m (s) show NC gr  272 1515 m 1950 X s 571 1475 m 40 Y s 679 1495 m 20 Y s 788 1495 m 20 Y s 896 1495 m 20 Y s 1004 1495 m 20 Y s 1112 1475 m 40 Y s 1220 1495 m 20 Y s 1329
 1495 m 20 Y s 1437 1495 m 20 Y s 1545 1495 m 20 Y s 1653 1475 m 40 Y s 1761 1495 m 20 Y s 1870 1495 m 20 Y s 1978 1495 m 20 Y s 2086 1495 m 20 Y s 2194 1475 m 40 Y s 571 1475 m 40 Y s 463 1495 m 20 Y s 355 1495 m 20 Y s 2194 1475 m 40 Y s 272 231 m
 1284 Y s 329 249 m -57 X s 301 285 m -29 X s 301 321 m -29 X s 301 356 m -29 X s 301 392 m -29 X s 329 428 m -57 X s 301 463 m -29 X s 301 499 m -29 X s 301 534 m -29 X s 301 570 m -29 X s 329 606 m -57 X s 301 641 m -29 X s 301 677 m -29 X s 301
 713 m -29 X s 301 748 m -29 X s 329 784 m -57 X s 301 819 m -29 X s 301 855 m -29 X s 301 891 m -29 X s 301 926 m -29 X s 329 962 m -57 X s 301 998 m -29 X s 301 1033 m -29 X s 301 1069 m -29 X s 301 1104 m -29 X s 329 1140 m -57 X s 301 1176 m -29
 X s 301 1211 m -29 X s 301 1247 m -29 X s 301 1283 m -29 X s 329 1318 m -57 X s 301 1354 m -29 X s 301 1389 m -29 X s 301 1425 m -29 X s 301 1461 m -29 X s 329 1496 m -57 X s 329 249 m -57 X s 329 1496 m -57 X s
 gsave  2268 1538 0 0 C 140.103 228.075 t 0 r /Helvetica findfont 61.9061 sf 0 0 m (0.45) show NC gr 
 gsave  2268 1538 0 0 C 175.944 407.277 t 0 r /Helvetica findfont 61.9061 sf 0 0 m (0.5) show NC gr 
 gsave  2268 1538 0 0 C 140.103 583.22 t 0 r /Helvetica findfont 61.9061 sf 0 0 m (0.55) show NC gr 
 gsave  2268 1538 0 0 C 175.944 762.422 t 0 r /Helvetica findfont 61.9061 sf 0 0 m (0.6) show NC gr 
 gsave  2268 1538 0 0 C 140.103 941.624 t 0 r /Helvetica findfont 61.9061 sf 0 0 m (0.65) show NC gr 
 gsave  2268 1538 0 0 C 175.944 1117.57 t 0 r /Helvetica findfont 61.9061 sf 0 0 m (0.7) show NC gr 
 gsave  2268 1538 0 0 C 140.103 1296.77 t 0 r /Helvetica findfont 61.9061 sf 0 0 m (0.75) show NC gr 
 gsave  2268 1538 0 0 C 175.944 1475.97 t 0 r /Helvetica findfont 61.9061 sf 0 0 m (0.8) show NC gr 
 gsave  2268 1538 0 0 C 120.554 1394.52 t 90 r /Helvetica findfont 74.9389 sf 0 0 m ( [fb]) show NC gr 
 gsave  2268 1538 0 0 C 146.62 1280.48 t 90 r /Helvetica findfont 52.1314 sf 0 0 m (true) show NC gr 
 gsave  2268 1538 0 0 C 87.9718 1280.48 t 90 r /Helvetica findfont 52.1314 sf 0 0 m (bin,5) show NC gr 
 gsave  2268 1538 0 0 C 120.554 1234.86 t 90 r /Symbol findfont 74.9389 sf 0 0 m (s) show NC gr  2222 231 m 1284 Y s 2166 249 m 56 X s 2194 285 m 28 X s 2194 321 m 28 X s 2194 356 m 28 X s 2194 392 m 28 X s 2166 428 m 56 X s 2194 463 m 28 X s 2194
 499 m 28 X s 2194 534 m 28 X s 2194 570 m 28 X s 2166 606 m 56 X s 2194 641 m 28 X s 2194 677 m 28 X s 2194 713 m 28 X s 2194 748 m 28 X s 2166 784 m 56 X s 2194 819 m 28 X s 2194 855 m 28 X s 2194 891 m 28 X s 2194 926 m 28 X s 2166 962 m 56 X s
 2194 998 m 28 X s 2194 1033 m 28 X s 2194 1069 m 28 X s 2194 1104 m 28 X s 2166 1140 m 56 X s 2194 1176 m 28 X s 2194 1211 m 28 X s 2194 1247 m 28 X s 2194 1283 m 28 X s 2166 1318 m 56 X s 2194 1354 m 28 X s 2194 1389 m 28 X s 2194 1425 m 28 X s
 2194 1461 m 28 X s 2166 1496 m 56 X s 2166 249 m 56 X s 2166 1496 m 56 X s 1 0 0 c 1 1 1 c 1 0 0 c 57 37 390 565 bl 1 1 1 c 1 0 0 c 56 37 488 565 bl 1 1 1 c 1 0 0 c 97 65 760 744 bl 1 1 1 c 1 0 0 c 56 37 878 822 bl 1 1 1 c 1 0 0 c 57 37 975 886 bl 1
 1 1 c 1 0 0 c 56 37 1268 1079 bl 1 1 1 c 1 0 0 c 57 37 1365 1143 bl 1 1 1 c 1 0 0 c 56 37 1463 1207 bl 1 1 1 c black 1 1 1 c black 57 37 390 565 bl 1 1 1 c black 56 37 488 565 bl 1 1 1 c black 97 65 760 744 bl 1 1 1 c black 56 37 878 822 bl 1 1 1 c
 black 57 37 975 886 bl 1 1 1 c black 56 37 1268 1079 bl 1 1 1 c black 57 37 1365 1143 bl 1 1 1 c black 56 37 1463 1207 bl 1 1 1 c 0 0 1 c 1 1 1 c 0 0 1 c 57 37 390 565 bl 1 1 1 c 0 0 1 c 56 37 488 565 bl 1 1 1 c 0 0 1 c 57 37 780 758 bl 1 1 1 c 0 0
 1 c 57 37 1365 1143 bl 1 1 1 c black[ 12 12] 0 sd 9 lw 1 1 1 c black 388 231 m 4 59 d s 392 290 m 6 83 d 7 80 d 6 63 d 7 68 d 6 38 d 5 30 d 5 23 d 6 16 d 76 -107 d 84 -6 d 13 6 d 19 16 d 27 35 d 33 45 d 19 19 d 20 10 d 77 14 d 21 17 d 37 41 d 25 24
 d 15 10 d 25 6 d 72 -6 d 42 -7 d 29 -3 d 18 5 d 9 5 d 17 15 d 22 30 d 48 74 d 10 14 d 98 107 d 35 42 d 34 41 d 21 19 d 8 5 d 22 7 d 75 -7 d 98 X 46 13 d 51 19 d 7 6 d 8 17 d 10 32 d 20 69 d 8 22 d 7 13 d 6 4 d 6 -2 d 6 -11 d 5 -18 d 5 -25 d 4 -29 d
 5 -37 d 1 -9 d 6 -67 d 6 -73 d 6 -79 d 5 -84 d 6 -90 d 5 -95 d 5 -101 d 5 -107 d 5 -114 d 5 -122 d 2 -63 d s[  ] 0 sd 1 1 1 c black 408 231 m 4 39 d s 412 270 m 5 53 d 1 8 d 5 33 d 5 30 d 4 23 d 5 17 d 6 12 d 6 5 d 6 -1 d 7 -8 d 8 -17 d 15 -39 d 13
 -32 d 7 -13 d 6 -8 d 5 -2 d 15 -3 d 48 -17 d 12 2 d 11 6 d 11 12 d 9 16 d 11 24 d 12 37 d 21 69 d 18 62 d 10 27 d 9 21 d 8 13 d 7 14 d 9 25 d 23 77 d 9 24 d 8 14 d 6 5 d 6 -1 d 4 -7 d 5 -12 d 5 -17 d 4 -23 d 4 -26 d 4 -32 d 3 -29 d 6 -56 d 5 -61 d 6
 -66 d 5 -70 d 5 -75 d 3 -53 d s 1326 231 m cl s 1326 231 m 11 84 d 8 65 d 10 68 d 11 61 d 10 53 d 10 45 d 8 31 d 7 22 d 8 16 d 8 10 d 11 3 d 13 -6 d 45 -44 d 5 -1 d 15 -6 d 46 -32 d 12 1 d 9 8 d 9 13 d 7 16 d 6 21 d 8 32 d 8 46 d 12 72 d 27 186 d 10
 59 d 8 44 d 7 29 d 6 20 d 5 11 d 30 62 d 10 15 d 9 3 d 7 -5 d 7 -13 d 5 -17 d 6 -24 d 5 -31 d 5 -37 d 5 -42 d 5 -47 d 4 -47 d 5 -75 d 6 -82 d 6 -87 d 5 -93 d 6 -101 d 5 -108 d 6 -116 d 3 -82 d s 1 1 1 c black 644 1515 m 8 -111 d s 652 1404 m 9 -120
 d 8 -95 d 8 -90 d 7 -81 d 9 -81 d 8 -62 d 8 -57 d 2 -15 d 5 -28 d 5 -19 d 6 -11 d 5 -4 d 7 5 d 8 16 d 19 53 d 10 23 d 7 9 d 6 X 5 -8 d 5 -15 d 5 -19 d 4 -29 d 8 -54 d 7 -62 d 7 -70 d 8 -79 d 7 -88 d 8 -96 d 7 -96 d s 1601 1515 m 2 -23 d s 1603 1492
 m 5 -52 d 4 -47 d 5 -42 d 4 -37 d 5 -34 d 4 -29 d 5 -26 d 4 -21 d 5 -18 d 5 -13 d 5 -9 d 5 -4 d 4 1 d 5 5 d 4 9 d 5 15 d 5 18 d 4 21 d 5 30 d 5 34 d 5 38 d 4 41 d 5 45 d 5 48 d s 1715 1465 m 4 50 d s 0 0 1 c[ 12 12] 0 sd 1 1 1 c black 0 0 1 c 389
 231 m 5 74 d s 394 305 m 6 77 d 6 75 d 6 60 d 5 57 d 1 10 d 5 35 d 4 33 d 5 25 d 5 18 d 6 13 d 5 6 d 6 -1 d 7 -8 d 9 -18 d 15 -43 d 12 -35 d 7 -14 d 7 -9 d 5 -2 d 87 -3 d 10 3 d 21 10 d 33 26 d 28 20 d 16 8 d 79 -7 d 15 5 d 3 2 d 14 13 d 20 26 d 39
 62 d 14 18 d 11 9 d 17 8 d 80 -8 d 7 4 d 7 11 d 9 23 d 23 72 d 8 19 d 7 10 d 5 2 d 5 -3 d 5 -9 d 5 -15 d 5 -20 d 4 -26 d 4 -29 d 4 -39 d 6 -59 d 5 -65 d 5 -69 d 6 -74 d 5 -79 d 5 -84 d 5 -91 d 1 -24 d s 1247 231 m 1 44 d s 1248 275 m 6 130 d 5 122 d
 6 120 d 5 95 d 6 114 d 5 92 d 5 84 d 6 74 d 4 56 d 4 44 d 4 39 d 5 35 d 4 26 d 5 18 d 5 11 d 5 4 d 6 -5 d 7 -13 d 8 -26 d 14 -55 d 12 -45 d 7 -19 d 6 -11 d 6 -3 d 195 X 6 4 d 6 13 d 9 27 d 23 91 d 8 25 d 7 13 d 6 4 d 5 -4 d 5 -11 d 5 -20 d 4 -24 d 5
 -33 d 4 -35 d 3 -43 d 1 -7 d 6 -72 d 5 -78 d 5 -83 d 5 -89 d 5 -95 d 6 -102 d 5 -109 d 5 -118 d 5 -126 d 2 -59 d s[  ] 0 sd 1 1 1 c black 0 0 1 c 407 231 m 6 51 d s 413 282 m 5 49 d 5 31 d 4 29 d 5 22 d 5 16 d 6 11 d 6 5 d 6 -1 d 7 -8 d 9 -16 d 14
 -38 d 13 -29 d 7 -13 d 6 -7 d 5 -2 d 17 -2 d 46 -14 d 12 1 d 12 6 d 10 9 d 10 14 d 11 23 d 13 30 d 33 93 d 14 31 d 9 19 d 8 10 d 12 10 d 14 6 d 18 -1 d 53 -15 d 98 4 d 97 X 7 3 d 7 10 d 9 21 d 23 64 d 8 17 d 7 9 d 5 2 d 5 -3 d 5 -8 d 5 -13 d 5 -19 d
 4 -23 d 4 -26 d 4 -34 d 6 -54 d 5 -57 d 5 -63 d 6 -66 d 5 -71 d 1 -13 d s 1253 231 m 1 25 d s 1254 256 m 5 112 d 6 110 d 5 88 d 6 104 d 5 84 d 5 77 d 6 68 d 4 51 d 4 41 d 4 35 d 5 32 d 4 23 d 5 17 d 5 10 d 5 4 d 6 -4 d 7 -13 d 8 -23 d 14 -51 d 12
 -41 d 7 -17 d 6 -10 d 6 -3 d 195 X 6 3 d 6 13 d 9 24 d 23 83 d 8 23 d 7 12 d 6 4 d 5 -4 d 5 -10 d 5 -18 d 4 -23 d 5 -29 d 4 -32 d 3 -40 d 1 -6 d 6 -66 d 5 -71 d 5 -76 d 5 -82 d 5 -87 d 6 -94 d 5 -100 d 5 -107 d 1 -36 d s 1 1 1 c black 0 0 1 c 642
 1515 m 6 -86 d s 648 1429 m 6 -88 d 6 -84 d 6 -80 d 7 -84 d 6 -66 d 6 -65 d 6 -59 d 7 -60 d 5 -46 d 6 -44 d 2 -10 d 6 -41 d 7 -35 d 6 -30 d 6 -25 d 6 -20 d 6 -15 d 5 -11 d 6 -5 d 6 -1 d 5 5 d 6 10 d 5 13 d 5 19 d 6 23 d 5 31 d 5 32 d 5 37 d 1 13 d 6
 48 d 5 52 d s 819 843 m 5 55 d 5 59 d 6 64 d 5 68 d 5 73 d 5 79 d 5 84 d 5 91 d 6 96 d 3 Y s 1 0 0 c[ 12 12] 0 sd 1 1 1 c black 1 0 0 c 388 231 m 4 59 d s 392 290 m 6 83 d 7 80 d 6 63 d 7 68 d 6 38 d 5 30 d 5 23 d 6 16 d 76 -107 d 84 -6 d 13 6 d 19
 16 d 27 35 d 33 45 d 19 19 d 20 10 d 77 14 d 21 17 d 37 41 d 25 24 d 15 10 d 25 6 d 72 -6 d 42 -7 d 29 -3 d 18 5 d 9 5 d 17 15 d 22 30 d 48 74 d 10 14 d 98 107 d 35 42 d 34 41 d 21 19 d 8 5 d 22 7 d 75 -7 d 98 X 46 13 d 51 19 d 7 6 d 8 17 d 10 32 d
 20 69 d 8 22 d 7 13 d 6 4 d 6 -2 d 6 -11 d 5 -18 d 5 -25 d 4 -29 d 5 -37 d 1 -9 d 6 -67 d 6 -73 d 6 -79 d 5 -84 d 6 -90 d 5 -95 d 5 -101 d 5 -107 d 5 -114 d 5 -122 d 2 -63 d s[  ] 0 sd 6 lw 1 1 1 c black 1 0 0 c 408 231 m 4 39 d s 412 270 m 5 53 d 1
 8 d 5 33 d 5 30 d 4 23 d 5 17 d 6 12 d 6 5 d 6 -1 d 7 -8 d 8 -17 d 15 -39 d 13 -32 d 7 -13 d 6 -8 d 5 -2 d 15 -3 d 48 -17 d 12 2 d 11 6 d 11 12 d 9 16 d 11 24 d 12 37 d 21 69 d 18 62 d 10 27 d 9 21 d 8 13 d 7 14 d 9 25 d 23 77 d 9 24 d 8 14 d 6 5 d
 6 -1 d 4 -7 d 5 -12 d 5 -17 d 4 -23 d 4 -26 d 4 -32 d 3 -29 d 6 -56 d 5 -61 d 6 -66 d 5 -70 d 5 -75 d 3 -53 d s 1326 231 m cl s 1326 231 m 11 84 d 8 65 d 10 68 d 11 61 d 10 53 d 10 45 d 8 31 d 7 22 d 8 16 d 8 10 d 11 3 d 13 -6 d 45 -44 d 5 -1 d 15
 -6 d 46 -32 d 12 1 d 9 8 d 9 13 d 7 16 d 6 21 d 8 32 d 8 46 d 12 72 d 27 186 d 10 59 d 8 44 d 7 29 d 6 20 d 5 11 d 30 62 d 10 15 d 9 3 d 7 -5 d 7 -13 d 5 -17 d 6 -24 d 5 -31 d 5 -37 d 5 -42 d 5 -47 d 4 -47 d 5 -75 d 6 -82 d 6 -87 d 5 -93 d 6 -101 d
 5 -108 d 6 -116 d 3 -82 d s 9 lw 1 1 1 c black 1 0 0 c 644 1515 m 8 -111 d s 652 1404 m 9 -120 d 8 -95 d 8 -90 d 7 -81 d 9 -81 d 8 -62 d 8 -57 d 2 -15 d 5 -28 d 5 -19 d 6 -11 d 5 -4 d 7 5 d 8 16 d 19 53 d 10 23 d 7 9 d 6 X 5 -8 d 5 -15 d 5 -19 d 4
 -29 d 8 -54 d 7 -62 d 7 -70 d 8 -79 d 7 -88 d 8 -96 d 7 -96 d s 1601 1515 m 2 -23 d s 1603 1492 m 5 -52 d 4 -47 d 5 -42 d 4 -37 d 5 -34 d 4 -29 d 5 -26 d 4 -21 d 5 -18 d 5 -13 d 5 -9 d 5 -4 d 4 1 d 5 5 d 4 9 d 5 15 d 5 18 d 4 21 d 5 30 d 5 34 d 5 38
 d 4 41 d 5 45 d 5 48 d s 1715 1465 m 4 50 d s black 1247 231 m 1284 Y s
 gr  gr showpage
end
%%EOF
